cpu-code/openmips_min_sopc.vcd
$date
	Tue Apr 21 14:51:16 2015
$end
$version
	Icarus Verilog
$end
$timescale
	1ps
$end
$scope module openmips_min_sopc_tb $end
$scope module openmips_min_sopc0 $end
$var wire 1 ! clk $end
$var wire 32 " inst [31:0] $end
$var wire 32 # inst_addr [31:0] $end
$var wire 1 $ rom_ce $end
$var wire 1 % rst $end
$scope module openmips0 $end
$var wire 1 ! clk $end
$var wire 2 & cnt_ex_mem_o [1:0] $end
$var wire 2 ' cnt_ex_o [1:0] $end
$var wire 32 ( div_opdata1_o [31:0] $end
$var wire 32 ) div_opdata2_o [31:0] $end
$var wire 64 * div_result_o [63:0] $end
$var wire 1 + div_result_ready_o $end
$var wire 1 , div_start_o $end
$var wire 8 - ex_aluop_i [7:0] $end
$var wire 3 . ex_alusel_i [2:0] $end
$var wire 32 / ex_hi_o [31:0] $end
$var wire 32 0 ex_lo_o [31:0] $end
$var wire 32 1 ex_reg1_i [31:0] $end
$var wire 32 2 ex_reg2_i [31:0] $end
$var wire 5 3 ex_waddr_i [4:0] $end
$var wire 5 4 ex_waddr_o [4:0] $end
$var wire 32 5 ex_wdata_o [31:0] $end
$var wire 1 6 ex_we_i $end
$var wire 1 7 ex_we_o $end
$var wire 1 8 ex_whilo_o $end
$var wire 32 9 hilo_hi_i [31:0] $end
$var wire 32 : hilo_hi_o [31:0] $end
$var wire 32 ; hilo_lo_i [31:0] $end
$var wire 32 < hilo_lo_o [31:0] $end
$var wire 64 = hilo_temp_ex_mem_o [63:0] $end
$var wire 64 > hilo_temp_ex_o [63:0] $end
$var wire 1 ? hilo_whilo_i $end
$var wire 8 @ id_aluop_o [7:0] $end
$var wire 3 A id_alusel_o [2:0] $end
$var wire 32 B id_inst_i [31:0] $end
$var wire 32 C id_pc_i [31:0] $end
$var wire 32 D id_reg1_o [31:0] $end
$var wire 32 E id_reg2_o [31:0] $end
$var wire 5 F id_waddr_o [4:0] $end
$var wire 1 G id_we_o $end
$var wire 32 H mem_hi_i [31:0] $end
$var wire 32 I mem_hi_o [31:0] $end
$var wire 32 J mem_lo_i [31:0] $end
$var wire 32 K mem_lo_o [31:0] $end
$var wire 5 L mem_waddr_i [4:0] $end
$var wire 5 M mem_waddr_o [4:0] $end
$var wire 32 N mem_wdata_i [31:0] $end
$var wire 32 O mem_wdata_o [31:0] $end
$var wire 1 P mem_we_i $end
$var wire 1 Q mem_we_o $end
$var wire 1 R mem_whilo_i $end
$var wire 1 S mem_whilo_o $end
$var wire 32 T pc [31:0] $end
$var wire 5 U reg_raddr1 [4:0] $end
$var wire 5 V reg_raddr2 [4:0] $end
$var wire 32 W reg_rdata1 [31:0] $end
$var wire 32 X reg_rdata2 [31:0] $end
$var wire 1 Y reg_re1 $end
$var wire 1 Z reg_re2 $end
$var wire 32 [ rom_addr_o [31:0] $end
$var wire 1 $ rom_ce_o $end
$var wire 32 \ rom_data_i [31:0] $end
$var wire 1 % rst $end
$var wire 1 ] signed_div_o $end
$var wire 6 ^ stall [5:0] $end
$var wire 1 _ stallreq_from_ex $end
$var wire 1 ` stallreq_from_id $end
$var wire 5 a wb_waddr_i [4:0] $end
$var wire 32 b wb_wdata_i [31:0] $end
$var wire 1 c wb_we_i $end
$scope module pc_reg0 $end
$var wire 1 ! clk $end
$var wire 1 % rst $end
$var wire 6 d stall [5:0] $end
$var reg 1 e ce $end
$var reg 32 f pc [31:0] $end
$upscope $end
$scope module if_id0 $end
$var wire 1 ! clk $end
$var wire 32 g if_inst [31:0] $end
$var wire 32 h if_pc [31:0] $end
$var wire 1 % rst $end
$var wire 6 i stall [5:0] $end
$var reg 32 j id_inst [31:0] $end
$var reg 32 k id_pc [31:0] $end
$upscope $end
$scope module id0 $end
$var wire 5 l ex_waddr_i [4:0] $end
$var wire 32 m ex_wdata_i [31:0] $end
$var wire 1 7 ex_we_i $end
$var wire 16 n i_imm [15:0] $end
$var wire 5 o i_write_address [4:0] $end
$var wire 32 p inst_i [31:0] $end
$var wire 5 q mem_waddr_i [4:0] $end
$var wire 32 r mem_wdata_i [31:0] $end
$var wire 1 Q mem_we_i $end
$var wire 6 s op_class [5:0] $end
$var wire 5 t op_rd [4:0] $end
$var wire 5 u op_rs [4:0] $end
$var wire 5 v op_rt [4:0] $end
$var wire 5 w op_sa [4:0] $end
$var wire 6 x op_subclass [5:0] $end
$var wire 32 y pc_i [31:0] $end
$var wire 5 z r_read1_address [4:0] $end
$var wire 5 { r_read2_address [4:0] $end
$var wire 5 | r_write_address [4:0] $end
$var wire 32 } reg1_data_i [31:0] $end
$var wire 32 ~ reg2_data_i [31:0] $end
$var wire 1 % rst $end
$var reg 8 !" aluop_o [7:0] $end
$var reg 3 "" alusel_o [2:0] $end
$var reg 32 #" imm [31:0] $end
$var reg 1 $" instvalid $end
$var reg 5 %" reg1_addr_o [4:0] $end
$var reg 32 &" reg1_o [31:0] $end
$var reg 1 '" reg1_re_o $end
$var reg 5 (" reg2_addr_o [4:0] $end
$var reg 32 )" reg2_o [31:0] $end
$var reg 1 *" reg2_re_o $end
$var reg 1 +" stallreq $end
$var reg 5 ," waddr_o [4:0] $end
$var reg 1 -" we_o $end
$upscope $end
$scope module regfile0 $end
$var wire 1 ! clk $end
$var wire 5 ." raddr1 [4:0] $end
$var wire 5 /" raddr2 [4:0] $end
$var wire 1 Y re1 $end
$var wire 1 Z re2 $end
$var wire 1 % rst $end
$var wire 5 0" waddr [4:0] $end
$var wire 32 1" wdata [31:0] $end
$var wire 1 c we $end
$var reg 32 2" rdata1 [31:0] $end
$var reg 32 3" rdata2 [31:0] $end
$upscope $end
$scope module id_ex0 $end
$var wire 1 ! clk $end
$var wire 8 4" id_aluop [7:0] $end
$var wire 3 5" id_alusel [2:0] $end
$var wire 32 6" id_reg1 [31:0] $end
$var wire 32 7" id_reg2 [31:0] $end
$var wire 5 8" id_waddr [4:0] $end
$var wire 1 G id_we $end
$var wire 1 % rst $end
$var wire 6 9" stall [5:0] $end
$var reg 8 :" ex_aluop [7:0] $end
$var reg 3 ;" ex_alusel [2:0] $end
$var reg 32 <" ex_reg1 [31:0] $end
$var reg 32 =" ex_reg2 [31:0] $end
$var reg 5 >" ex_waddr [4:0] $end
$var reg 1 ?" ex_we $end
$upscope $end
$scope module ex0 $end
$var wire 8 @" aluop_i [7:0] $end
$var wire 3 A" alusel_i [2:0] $end
$var wire 2 B" cnt_i [1:0] $end
$var wire 64 C" div_result_i [63:0] $end
$var wire 1 + div_result_ready_i $end
$var wire 32 D" hi_i [31:0] $end
$var wire 64 E" hilo_temp [63:0] $end
$var wire 64 F" hilo_temp_i [63:0] $end
$var wire 32 G" lo_i [31:0] $end
$var wire 32 H" mem_hi_i [31:0] $end
$var wire 32 I" mem_lo_i [31:0] $end
$var wire 1 S mem_whilo_i $end
$var wire 32 J" opdata1_mult [31:0] $end
$var wire 32 K" opdata2_mult [31:0] $end
$var wire 1 L" overflow_sum $end
$var wire 32 M" reg1_i [31:0] $end
$var wire 32 N" reg1_i_not [31:0] $end
$var wire 1 O" reg1_lt_reg2 $end
$var wire 32 P" reg2_i [31:0] $end
$var wire 32 Q" reg2_i_mux [31:0] $end
$var wire 32 R" result_sum [31:0] $end
$var wire 1 % rst $end
$var wire 5 S" waddr_i [4:0] $end
$var wire 32 T" wb_hi_i [31:0] $end
$var wire 32 U" wb_lo_i [31:0] $end
$var wire 1 ? wb_whilo_i $end
$var wire 1 6 we_i $end
$var reg 2 V" cnt_o [1:0] $end
$var reg 32 W" div_opdata1_o [31:0] $end
$var reg 32 X" div_opdata2_o [31:0] $end
$var reg 1 Y" div_start_o $end
$var reg 32 Z" hi_i_reg [31:0] $end
$var reg 32 [" hi_o [31:0] $end
$var reg 64 \" hilo_temp_o [63:0] $end
$var reg 64 ]" hilo_temp_stall [63:0] $end
$var reg 32 ^" lo_i_reg [31:0] $end
$var reg 32 _" lo_o [31:0] $end
$var reg 32 `" logicout [31:0] $end
$var reg 32 a" mathout [31:0] $end
$var reg 32 b" moveout [31:0] $end
$var reg 64 c" mulout [63:0] $end
$var reg 32 d" shiftout [31:0] $end
$var reg 1 e" signed_div_o $end
$var reg 1 f" stallreq $end
$var reg 1 g" stallreq_for_div $end
$var reg 1 h" stallreq_for_madd_msub $end
$var reg 5 i" waddr_o [4:0] $end
$var reg 32 j" wdata_o [31:0] $end
$var reg 1 k" we_o $end
$var reg 1 l" whilo_o $end
$upscope $end
$scope module ex_mem0 $end
$var wire 1 ! clk $end
$var wire 2 m" cnt_i [1:0] $end
$var wire 32 n" ex_hi [31:0] $end
$var wire 32 o" ex_lo [31:0] $end
$var wire 5 p" ex_waddr [4:0] $end
$var wire 32 q" ex_wdata [31:0] $end
$var wire 1 7 ex_we $end
$var wire 1 8 ex_whilo $end
$var wire 64 r" hilo_i [63:0] $end
$var wire 1 % rst $end
$var wire 6 s" stall [5:0] $end
$var reg 2 t" cnt_o [1:0] $end
$var reg 64 u" hilo_o [63:0] $end
$var reg 32 v" mem_hi [31:0] $end
$var reg 32 w" mem_lo [31:0] $end
$var reg 5 x" mem_waddr [4:0] $end
$var reg 32 y" mem_wdata [31:0] $end
$var reg 1 z" mem_we $end
$var reg 1 {" mem_whilo $end
$upscope $end
$scope module mem0 $end
$var wire 32 |" hi_i [31:0] $end
$var wire 32 }" lo_i [31:0] $end
$var wire 1 % rst $end
$var wire 5 ~" waddr_i [4:0] $end
$var wire 32 !# wdata_i [31:0] $end
$var wire 1 P we_i $end
$var wire 1 R whilo_i $end
$var reg 32 "# hi_o [31:0] $end
$var reg 32 ## lo_o [31:0] $end
$var reg 5 $# waddr_o [4:0] $end
$var reg 32 %# wdata_o [31:0] $end
$var reg 1 &# we_o $end
$var reg 1 '# whilo_o $end
$upscope $end
$scope module mem_wb0 $end
$var wire 1 ! clk $end
$var wire 32 (# mem_hi [31:0] $end
$var wire 32 )# mem_lo [31:0] $end
$var wire 5 *# mem_waddr [4:0] $end
$var wire 32 +# mem_wdata [31:0] $end
$var wire 1 Q mem_we $end
$var wire 1 S mem_whilo $end
$var wire 1 % rst $end
$var wire 6 ,# stall [5:0] $end
$var reg 32 -# wb_hi [31:0] $end
$var reg 32 .# wb_lo [31:0] $end
$var reg 5 /# wb_waddr [4:0] $end
$var reg 32 0# wb_wdata [31:0] $end
$var reg 1 1# wb_we $end
$var reg 1 2# wb_whilo $end
$upscope $end
$scope module hilo_reg0 $end
$var wire 1 ! clk $end
$var wire 32 3# hi_i [31:0] $end
$var wire 32 4# lo_i [31:0] $end
$var wire 1 % rst $end
$var wire 1 ? we $end
$var reg 32 5# hi_o [31:0] $end
$var reg 32 6# lo_o [31:0] $end
$upscope $end
$scope module ctrl0 $end
$var wire 1 % rst $end
$var wire 1 _ stallreq_from_ex $end
$var wire 1 ` stallreq_from_id $end
$var reg 6 7# stall [5:0] $end
$upscope $end
$scope module div0 $end
$var wire 1 8# annul_i $end
$var wire 1 ! clk $end
$var wire 33 9# div_temp [32:0] $end
$var wire 32 :# opdata1_i [31:0] $end
$var wire 32 ;# opdata2_i [31:0] $end
$var wire 1 % rst $end
$var wire 1 ] signed_div_i $end
$var wire 1 , start_i $end
$var wire 32 <# temp_op1 [31:0] $end
$var wire 32 =# temp_op2 [31:0] $end
$var reg 6 ># cnt [5:0] $end
$var reg 64 ?# dividend [63:0] $end
$var reg 32 @# divisor [31:0] $end
$var reg 64 A# result_o [63:0] $end
$var reg 1 B# result_ready_o $end
$var reg 2 C# state [1:0] $end
$upscope $end
$upscope $end
$scope module inst_rom0 $end
$var wire 32 D# addr [31:0] $end
$var wire 1 $ ce $end
$var reg 32 E# inst [31:0] $end
$upscope $end
$upscope $end
$upscope $end
$scope module openmips_min_sopc_tb $end
$scope module openmips_min_sopc0 $end
$scope module openmips0 $end
$scope module regfile0 $end
$var reg 32 F# \regs[0] [31:0] $end
$upscope $end
$upscope $end
$upscope $end
$upscope $end
$scope module openmips_min_sopc_tb $end
$scope module openmips_min_sopc0 $end
$scope module openmips0 $end
$scope module regfile0 $end
$var reg 32 G# \regs[1] [31:0] $end
$upscope $end
$upscope $end
$upscope $end
$upscope $end
$scope module openmips_min_sopc_tb $end
$scope module openmips_min_sopc0 $end
$scope module openmips0 $end
$scope module regfile0 $end
$var reg 32 H# \regs[2] [31:0] $end
$upscope $end
$upscope $end
$upscope $end
$upscope $end
$scope module openmips_min_sopc_tb $end
$scope module openmips_min_sopc0 $end
$scope module openmips0 $end
$scope module regfile0 $end
$var reg 32 I# \regs[3] [31:0] $end
$upscope $end
$upscope $end
$upscope $end
$upscope $end
$scope module openmips_min_sopc_tb $end
$scope module openmips_min_sopc0 $end
$scope module openmips0 $end
$scope module regfile0 $end
$var reg 32 J# \regs[4] [31:0] $end
$upscope $end
$upscope $end
$upscope $end
$upscope $end
$enddefinitions $end
#0
$dumpvars
bx J#
bx I#
bx H#
bx G#
bx F#
b0 E#
bx D#
b0 C#
0B#
b0 A#
bx @#
bx ?#
bx >#
b0 =#
b0 <#
b0 ;#
b0 :#
bx 9#
08#
b0 7#
b0 6#
b0 5#
b0 4#
b0 3#
02#
01#
b0 0#
b0 /#
b0 .#
b0 -#
b0 ,#
b0 +#
b0 *#
b0 )#
b0 (#
0'#
0&#
b0 %#
b0 $#
b0 ##
b0 "#
b0 !#
b0 ~"
b0 }"
b0 |"
0{"
0z"
b0 y"
b0 x"
b0 w"
b0 v"
b0 u"
b0 t"
b0 s"
b0 r"
b0 q"
b0 p"
b0 o"
b0 n"
b0 m"
0l"
0k"
b0 j"
b0 i"
0h"
0g"
0f"
0e"
b0 d"
b0 c"
b0 b"
b0 a"
b0 `"
b0 _"
b0 ^"
bx ]"
b0 \"
b0 ["
b0 Z"
0Y"
b0 X"
b0 W"
b0 V"
b0 U"
b0 T"
b0 S"
b0 R"
b0 Q"
b0 P"
0O"
b11111111111111111111111111111111 N"
b0 M"
0L"
b0 K"
b0 J"
b0 I"
b0 H"
b0 G"
b0 F"
b0 E"
b0 D"
b0 C"
b0 B"
b0 A"
b0 @"
0?"
b0 >"
b0 ="
b0 <"
b0 ;"
b0 :"
b0 9"
b0 8"
b0 7"
b0 6"
b0 5"
b0 4"
b0 3"
b0 2"
b0 1"
b0 0"
b0 /"
b0 ."
0-"
b0 ,"
0+"
0*"
b0 )"
b0 ("
0'"
b0 &"
b0 %"
0$"
b0 #"
b0 ""
b0 !"
b0 ~
b0 }
b0 |
b0 {
b0 z
b0 y
b0 x
b0 w
b0 v
b0 u
b0 t
b0 s
b0 r
b0 q
b0 p
b0 o
b0 n
b0 m
b0 l
b0 k
b0 j
b0 i
bx h
b0 g
bx f
0e
b0 d
0c
b0 b
b0 a
0`
0_
b0 ^
0]
b0 \
bx [
0Z
0Y
b0 X
b0 W
b0 V
b0 U
bx T
0S
0R
0Q
0P
b0 O
b0 N
b0 M
b0 L
b0 K
b0 J
b0 I
b0 H
0G
b0 F
b0 E
b0 D
b0 C
b0 B
b0 A
b0 @
0?
b0 >
b0 =
b0 <
b0 ;
b0 :
b0 9
08
07
06
b0 5
b0 4
b0 3
b0 2
b0 1
b0 0
b0 /
b0 .
b0 -
0,
0+
b0 *
b0 )
b0 (
b0 '
b0 &
1%
0$
bx #
b0 "
1!
$end
#20000
0!
#30000
b0 f
b0 T
b0 h
b0 #
b0 [
b0 D#
1!
#40000
0!
#50000
1!
#60000
0!
#70000
1!
#80000
0!
#90000
1!
#100000
0!
#110000
1!
#120000
0!
#130000
1!
#140000
0!
#150000
1!
#160000
0!
#170000
1!
#180000
0!
#190000
1!
#195000
1*"
1Z
1-"
1G
b101 !"
b101 @
b101 4"
b10 ""
b10 A
b10 5"
0$"
0%
#200000
0!
#210000
b110100000000101111111111111111 E#
b110100000000101111111111111111 "
b110100000000101111111111111111 \
b110100000000101111111111111111 g
1k"
17
1e
1$
1?"
16
b10 ;"
b10 .
b10 A"
b101 :"
b101 -
b101 @"
1!
#220000
0!
#230000
b1111111111111111 )"
b1111111111111111 E
b1111111111111111 7"
b1111111111111111 #"
1'"
1Y
b10 ("
b10 V
b10 /"
0*"
0Z
b10 ,"
b10 F
b10 8"
1-"
1G
0$"
b10 !"
b10 @
b10 4"
b1 ""
b1 A
b1 5"
1&#
1Q
b100001010000000000 E#
b100001010000000000 "
b100001010000000000 \
b100001010000000000 g
b1101 s
b10 v
b10 o
b10 {
b11111 t
b11111 |
b11111 w
b111111 x
b1111111111111111 n
1z"
1P
b110100000000101111111111111111 j
b110100000000101111111111111111 B
b110100000000101111111111111111 p
b100 f
b100 T
b100 h
b100 #
b100 [
b100 D#
1!
#240000
0!
#250000
bx 3"
bx X
bx ~
b10000 &"
b10000 D
b10000 6"
b1111111111111111 )"
b1111111111111111 E
b1111111111111111 7"
b1111111111111111 j"
b1111111111111111 5
b1111111111111111 m
b1111111111111111 q"
1*"
1Z
b10000 #"
0'"
0Y
1-"
1G
0$"
b101 !"
b101 @
b101 4"
b10 ""
b10 A
b10 5"
b110100010000101111111111110001 E#
b110100010000101111111111110001 "
b110100010000101111111111110001 \
b110100010000101111111111110001 g
b10 i"
b10 4
b10 l
b10 p"
b1111111111111111 `"
b1111111111111111 R"
b1111111111111111 Q"
b1111111111111111 K"
b0 s
b10 t
b10 |
b10000 w
b0 x
b1010000000000 n
1O"
b1000 f
b1000 T
b1000 h
b1000 #
b1000 [
b1000 D#
b100001010000000000 j
b100001010000000000 B
b100001010000000000 p
b100 k
b100 C
b100 y
b10 >"
b10 3
b10 S"
b1111111111111111 ="
b1111111111111111 2
b1111111111111111 P"
b1 ;"
b1 .
b1 A"
b10 :"
b10 -
b10 @"
11#
1c
1!
#260000
0!
#270000
bx 2"
bx W
bx }
b0 3"
b0 X
b0 ~
b11111111111111110000000000000000 &"
b11111111111111110000000000000000 D
b11111111111111110000000000000000 6"
b1111111111110001 )"
b1111111111110001 E
b1111111111110001 7"
b11111111111111110000 c"
1'"
1Y
b1111111111110001 #"
b10 %"
b10 U
b10 ."
0*"
0Z
b10 ,"
b10 F
b10 8"
1-"
1G
0$"
b10 !"
b10 @
b10 4"
b1 ""
b1 A
b1 5"
b1111111111111111 %#
b1111111111111111 O
b1111111111111111 r
b1111111111111111 +#
b10 $#
b10 M
b10 q
b10 *#
b11111111111111110000000000000000 j"
b11111111111111110000000000000000 5
b11111111111111110000000000000000 m
b11111111111111110000000000000000 q"
b11111111111111110000000000000000 d"
b0 `"
b110100000000110000000000010001 E#
b110100000000110000000000010001 "
b110100000000110000000000010001 \
b110100000000110000000000010001 g
b11111111111111110000 E"
b10000 J"
b11111111111111111111111111101111 N"
b1101 s
b10 u
b10 z
b11111 t
b11111 |
b11111 w
b110001 x
b1111111111110001 n
b1111111111111111 y"
b1111111111111111 N
b1111111111111111 !#
b10 x"
b10 L
b10 ~"
b10000 <"
b10000000000001111 R"
b10000 1
b10000 M"
b10 ;"
b10 .
b10 A"
b101 :"
b101 -
b101 @"
b110100010000101111111111110001 j
b110100010000101111111111110001 B
b110100010000101111111111110001 p
b1000 k
b1000 C
b1000 y
b1100 f
b1100 T
b1100 h
b1100 #
b1100 [
b1100 D#
1!
#280000
0!
#290000
b10001 )"
b10001 E
b10001 7"
b0 &"
b0 D
b0 6"
b111111111111000000000000000011110000000000000000 c"
b10001 #"
b11 ("
b11 V
b11 /"
b0 %"
b0 U
b0 ."
1'"
1Y
b11 ,"
b11 F
b11 8"
1-"
1G
0$"
b10 !"
b10 @
b10 4"
b1 ""
b1 A
b1 5"
b10000110000000000011010 E#
b10000110000000000011010 "
b10000110000000000011010 \
b10000110000000000011010 g
b11111111111111111111111111110001 j"
b11111111111111111111111111110001 5
b11111111111111111111111111110001 m
b11111111111111111111111111110001 q"
b0 d"
b11111111111111111111111111110001 `"
b11111111111111110000000000000000 %#
b11111111111111110000000000000000 O
b11111111111111110000000000000000 r
b11111111111111110000000000000000 +#
b0 2"
b0 W
b0 }
b1111111111110001 Q"
b1111111111110001 K"
b111111111111000000000000000011110000000000000000 E"
b11111111111111110000000000000000 J"
b0 u
b0 z
b11 v
b11 o
b11 {
b0 t
b0 |
b0 w
b10001 x
b10001 n
b1111111111111111 N"
0O"
b10000 f
b10000 T
b10000 h
b10000 #
b10000 [
b10000 D#
b110100000000110000000000010001 j
b110100000000110000000000010001 B
b110100000000110000000000010001 p
b1100 k
b1100 C
b1100 y
b1111111111110001 ="
b1111111111110001 2
b1111111111110001 P"
b11111111111111110000000000000000 <"
b11111111111111111111111111110001 R"
b11111111111111110000000000000000 1
b11111111111111110000000000000000 M"
b1 ;"
b1 .
b1 A"
b10 :"
b10 -
b10 @"
b11111111111111110000000000000000 y"
b11111111111111110000000000000000 N
b11111111111111110000000000000000 !#
b1111111111111111 0#
b1111111111111111 b
b1111111111111111 1"
b10 /#
b10 a
b10 0"
1!
#300000
0!
#310000
bx 3"
bx X
bx ~
b11111111111111110000000000000000 2"
b11111111111111110000000000000000 W
b11111111111111110000000000000000 }
b11111111111111111111111111110001 &"
b11111111111111111111111111110001 D
b11111111111111111111111111110001 6"
b10001 )"
b10001 E
b10001 7"
b10001 j"
b10001 5
b10001 m
b10001 q"
b0 c"
1*"
1Z
b0 #"
b10 %"
b10 U
b10 ."
1'"
1Y
b0 ,"
b0 F
b0 8"
0-"
0G
0$"
b100001 !"
b100001 @
b100001 4"
b0 ""
b0 A
b0 5"
b11111111111111111111111111110001 %#
b11111111111111111111111111110001 O
b11111111111111111111111111110001 r
b11111111111111111111111111110001 +#
b11 i"
b11 4
b11 l
b11 p"
b10001 `"
b10000110000000000011011 E#
b10000110000000000011011 "
b10000110000000000011011 \
b10000110000000000011011 g
b10001 Q"
b10001 K"
b0 E"
b0 J"
b11111111111111111111111111111111 N"
1O"
b0 s
b10 u
b10 z
b11010 x
b11010 n
b11111111111111110000000000000000 0#
b11111111111111110000000000000000 b
b11111111111111110000000000000000 1"
b11111111111111111111111111110001 y"
b11111111111111111111111111110001 N
b11111111111111111111111111110001 !#
b11 >"
b11 3
b11 S"
b10001 ="
b10001 2
b10001 P"
b0 <"
b10001 R"
b0 1
b0 M"
b1111111111111111 H#
b10000110000000000011010 j
b10000110000000000011010 B
b10000110000000000011010 p
b10000 k
b10000 C
b10000 y
b10100 f
b10100 T
b10100 h
b10100 #
b10100 [
b10100 D#
1!
#320000
0!
#330000
b1111 7#
b1111 ^
b1111 d
b1111 i
b1111 9"
b1111 s"
b1111 ,#
b10001 =#
b1111 <#
1f"
1_
b1000011111111111111111111111100000001 c"
1*"
1Z
1'"
1Y
0$"
b100010 !"
b100010 @
b100010 4"
b11000100000000000011010 E#
b11000100000000000011010 "
b11000100000000000011010 \
b11000100000000000011010 g
b0 j"
b0 5
b0 m
b0 q"
0k"
07
b0 i"
b0 4
b0 l
b0 p"
1l"
18
1g"
1e"
1]
1Y"
1,
b10001 X"
b10001 )
b10001 ;#
b11111111111111111111111111110001 W"
b11111111111111111111111111110001 (
b11111111111111111111111111110001 :#
b0 `"
b10001 %#
b10001 O
b10001 r
b10001 +#
b11 $#
b11 M
b11 q
b11 *#
b11111111111111111111111111110001 2"
b11111111111111111111111111110001 W
b11111111111111111111111111110001 }
b1000011111111111111111111111100000001 E"
b11111111111111111111111111110001 J"
b11011 x
b11011 n
b1110 N"
0O"
b11000 f
b11000 T
b11000 h
b11000 #
b11000 [
b11000 D#
b10000110000000000011011 j
b10000110000000000011011 B
b10000110000000000011011 p
b10100 k
b10100 C
b10100 y
b11111111111111110000000000000000 H#
0?"
06
b0 >"
b0 3
b0 S"
b11111111111111111111111111110001 <"
b10 R"
b11111111111111111111111111110001 1
b11111111111111111111111111110001 M"
b0 ;"
b0 .
b0 A"
b100001 :"
b100001 -
b100001 @"
b10001 y"
b10001 N
b10001 !#
b11 x"
b11 L
b11 ~"
b11111111111111111111111111110001 0#
b11111111111111111111111111110001 b
b11111111111111111111111111110001 1"
1!
#340000
0!
#350000
b0 %#
b0 O
b0 r
b0 +#
0&#
0Q
b0 $#
b0 M
b0 q
b0 *#
b10001 3"
b10001 X
b10001 ~
b111111111111111111111111111101111 9#
b10001 @#
b1111 ?#
b0 >#
b1 C#
b10001 0#
b10001 b
b10001 1"
b11 /#
b11 a
b11 0"
b0 y"
b0 N
b0 !#
0z"
0P
b0 x"
b0 L
b0 ~"
b11111111111111111111111111110001 H#
1!
#360000
0!
#370000
b10001 I#
b0 0#
b0 b
b0 1"
01#
0c
b0 /#
b0 a
b0 0"
b1 >#
b11110 ?#
1!
#380000
0!
#390000
b10 >#
b111100 ?#
1!
#400000
0!
#410000
b11 >#
b1111000 ?#
1!
#420000
0!
#430000
b100 >#
b11110000 ?#
1!
#440000
0!
#450000
b101 >#
b111100000 ?#
1!
#460000
0!
#470000
b110 >#
b1111000000 ?#
1!
#480000
0!
#490000
b111 >#
b11110000000 ?#
1!
#500000
0!
#510000
b1000 >#
b111100000000 ?#
1!
#520000
0!
#530000
b1001 >#
b1111000000000 ?#
1!
#540000
0!
#550000
b1010 >#
b11110000000000 ?#
1!
#560000
0!
#570000
b1011 >#
b111100000000000 ?#
1!
#580000
0!
#590000
b1100 >#
b1111000000000000 ?#
1!
#600000
0!
#610000
b1101 >#
b11110000000000000 ?#
1!
#620000
0!
#630000
b1110 >#
b111100000000000000 ?#
1!
#640000
0!
#650000
b1111 >#
b1111000000000000000 ?#
1!
#660000
0!
#670000
b10000 >#
b11110000000000000000 ?#
1!
#680000
0!
#690000
b10001 >#
b111100000000000000000 ?#
1!
#700000
0!
#710000
b10010 >#
b1111000000000000000000 ?#
1!
#720000
0!
#730000
b10011 >#
b11110000000000000000000 ?#
1!
#740000
0!
#750000
b10100 >#
b111100000000000000000000 ?#
1!
#760000
0!
#770000
b10101 >#
b1111000000000000000000000 ?#
1!
#780000
0!
#790000
b10110 >#
b11110000000000000000000000 ?#
1!
#800000
0!
#810000
b10111 >#
b111100000000000000000000000 ?#
1!
#820000
0!
#830000
b11000 >#
b1111000000000000000000000000 ?#
1!
#840000
0!
#850000
b11001 >#
b11110000000000000000000000000 ?#
1!
#860000
0!
#870000
b11010 >#
b111100000000000000000000000000 ?#
1!
#880000
0!
#890000
b11011 >#
b1111000000000000000000000000000 ?#
1!
#900000
0!
#910000
b111111111111111111111111111110000 9#
b11100 >#
b11110000000000000000000000000000 ?#
1!
#920000
0!
#930000
b111111111111111111111111111110010 9#
b11101 >#
b111100000000000000000000000000000 ?#
1!
#940000
0!
#950000
b111111111111111111111111111110110 9#
b11110 >#
b1111000000000000000000000000000000 ?#
1!
#960000
0!
#970000
b111111111111111111111111111111110 9#
b11111 >#
b11110000000000000000000000000000000 ?#
1!
#980000
0!
#990000
b1101 9#
b100000 >#
b111100000000000000000000000000000000 ?#
1!
#1000000
0!
#1010000
b111111111111111111111111111010001 9#
b0 >#
b11 C#
b1111111111111111111111111111000100000000000000000000000000000000 ?#
1!
#1020000
0!
#1030000
b0 7#
b0 ^
b0 d
b0 i
b0 9"
b0 s"
b0 ,#
b0 <#
b0 =#
0f"
0_
0e"
0]
0Y"
0,
b0 X"
b0 )
b0 ;#
b0 W"
b0 (
b0 :#
0g"
b11111111111111111111111111110001 ["
b11111111111111111111111111110001 /
b11111111111111111111111111110001 n"
1B#
1+
b1111111111111111111111111111000100000000000000000000000000000000 A#
b1111111111111111111111111111000100000000000000000000000000000000 *
b1111111111111111111111111111000100000000000000000000000000000000 C"
1!
#1040000
0!
#1050000
b11111111111111111111111111110001 )"
b11111111111111111111111111110001 E
b11111111111111111111111111110001 7"
b10001 &"
b10001 D
b10001 6"
b1111 7#
b1111 ^
b1111 d
b1111 i
b1111 9"
b1111 s"
b1111 ,#
b11111111111111111111111111110001 3"
b11111111111111111111111111110001 X
b11111111111111111111111111110001 ~
b10001 2"
b10001 W
b10001 }
b11111111111111111111111111110001 Z"
b10001 =#
b11111111111111111111111111110001 <#
1f"
1_
b10 ("
b10 V
b10 /"
b11 %"
b11 U
b11 ."
1*"
1Z
1'"
1Y
0$"
b100001 !"
b100001 @
b100001 4"
b0 E#
b0 "
b0 \
b0 g
b11111111111111111111111111110001 "#
b11111111111111111111111111110001 I
b11111111111111111111111111110001 H"
b11111111111111111111111111110001 (#
1'#
1S
b0 ["
b0 /
b0 n"
1g"
1Y"
1,
b10001 X"
b10001 )
b10001 ;#
b11111111111111111111111111110001 W"
b11111111111111111111111111110001 (
b11111111111111111111111111110001 :#
b11 u
b11 z
b10 v
b10 o
b10 {
b11010 x
b11010 n
b11100 f
b11100 T
b11100 h
b11100 #
b11100 [
b11100 D#
b11000100000000000011010 j
b11000100000000000011010 B
b11000100000000000011010 p
b11000 k
b11000 C
b11000 y
b100010 :"
b100010 -
b100010 @"
b11111111111111111111111111110001 v"
b11111111111111111111111111110001 H
b11111111111111111111111111110001 |"
1{"
1R
b0 A#
b0 *
b0 C"
0B#
0+
b0 C#
1!
#1060000
0!
#1070000
b0 "#
b0 I
b0 H"
b0 (#
0'#
0S
b111111111111111111111111111110000 9#
b11111111111111111111111111110001 ?#
b1 C#
b11111111111111111111111111110001 -#
b11111111111111111111111111110001 9
b11111111111111111111111111110001 T"
b11111111111111111111111111110001 3#
12#
1?
b0 v"
b0 H
b0 |"
0{"
0R
1!
#1080000
0!
#1090000
b111111111111111111111111111110010 9#
b0 -#
b0 9
b0 T"
b0 3#
02#
0?
b11111111111111111111111111110001 5#
b11111111111111111111111111110001 :
b11111111111111111111111111110001 D"
b1 >#
b111111111111111111111111111100010 ?#
1!
#1100000
0!
#1110000
b111111111111111111111111111110110 9#
b10 >#
b1111111111111111111111111111000100 ?#
1!
#1120000
0!
#1130000
b111111111111111111111111111111110 9#
b11 >#
b11111111111111111111111111110001000 ?#
1!
#1140000
0!
#1150000
b1110 9#
b100 >#
b111111111111111111111111111100010000 ?#
1!
