cpu-code/openmips_min_sopc.vcd
$date
	Sun Mar 22 15:16:40 2015
$end
$version
	Icarus Verilog
$end
$timescale
	1ps
$end
$scope module openmips_min_sopc_tb $end
$scope module openmips_min_sopc0 $end
$var wire 1 ! clk $end
$var wire 32 " inst [31:0] $end
$var wire 32 # inst_addr [31:0] $end
$var wire 1 $ rom_ce $end
$var wire 1 % rst $end
$scope module openmips0 $end
$var wire 1 ! clk $end
$var wire 8 & ex_aluop_i [7:0] $end
$var wire 3 ' ex_alusel_i [2:0] $end
$var wire 32 ( ex_reg1_i [31:0] $end
$var wire 32 ) ex_reg2_i [31:0] $end
$var wire 5 * ex_waddr_i [4:0] $end
$var wire 5 + ex_waddr_o [4:0] $end
$var wire 32 , ex_wdata_o [31:0] $end
$var wire 1 - ex_we_i $end
$var wire 1 . ex_we_o $end
$var wire 8 / id_aluop_o [7:0] $end
$var wire 3 0 id_alusel_o [2:0] $end
$var wire 32 1 id_inst_i [31:0] $end
$var wire 32 2 id_pc_i [31:0] $end
$var wire 32 3 id_reg1_o [31:0] $end
$var wire 32 4 id_reg2_o [31:0] $end
$var wire 5 5 id_waddr_o [4:0] $end
$var wire 1 6 id_we_o $end
$var wire 5 7 mem_waddr_i [4:0] $end
$var wire 5 8 mem_waddr_o [4:0] $end
$var wire 32 9 mem_wdata_i [31:0] $end
$var wire 32 : mem_wdata_o [31:0] $end
$var wire 1 ; mem_we_i $end
$var wire 1 < mem_we_o $end
$var wire 32 = pc [31:0] $end
$var wire 5 > reg_raddr1 [4:0] $end
$var wire 5 ? reg_raddr2 [4:0] $end
$var wire 32 @ reg_rdata1 [31:0] $end
$var wire 32 A reg_rdata2 [31:0] $end
$var wire 1 B reg_re1 $end
$var wire 1 C reg_re2 $end
$var wire 32 D rom_addr_o [31:0] $end
$var wire 1 $ rom_ce_o $end
$var wire 32 E rom_data_i [31:0] $end
$var wire 1 % rst $end
$var wire 5 F wb_waddr_i [4:0] $end
$var wire 32 G wb_wdata_i [31:0] $end
$var wire 1 H wb_we_i $end
$scope module pc_reg0 $end
$var wire 1 ! clk $end
$var wire 1 % rst $end
$var reg 1 I ce $end
$var reg 32 J pc [31:0] $end
$upscope $end
$scope module if_id0 $end
$var wire 1 ! clk $end
$var wire 32 K if_inst [31:0] $end
$var wire 32 L if_pc [31:0] $end
$var wire 1 % rst $end
$var reg 32 M id_inst [31:0] $end
$var reg 32 N id_pc [31:0] $end
$upscope $end
$scope module id0 $end
$var wire 5 O i_write_address [4:0] $end
$var wire 16 P imm_i [15:0] $end
$var wire 32 Q inst_i [31:0] $end
$var wire 6 R op1 [5:0] $end
$var wire 5 S op2 [4:0] $end
$var wire 6 T op3 [5:0] $end
$var wire 32 U pc_i [31:0] $end
$var wire 5 V read1_address [4:0] $end
$var wire 5 W read2_address [4:0] $end
$var wire 32 X reg1_data_i [31:0] $end
$var wire 32 Y reg2_data_i [31:0] $end
$var wire 1 % rst $end
$var wire 5 Z write_address [4:0] $end
$var reg 8 [ aluop_o [7:0] $end
$var reg 3 \ alusel_o [2:0] $end
$var reg 32 ] imm [31:0] $end
$var reg 1 ^ instvalid $end
$var reg 5 _ reg1_addr_o [4:0] $end
$var reg 32 ` reg1_o [31:0] $end
$var reg 1 a reg1_re_o $end
$var reg 5 b reg2_addr_o [4:0] $end
$var reg 32 c reg2_o [31:0] $end
$var reg 1 d reg2_re_o $end
$var reg 5 e waddr_o [4:0] $end
$var reg 1 f we_o $end
$upscope $end
$scope module regfile0 $end
$var wire 1 ! clk $end
$var wire 5 g raddr1 [4:0] $end
$var wire 5 h raddr2 [4:0] $end
$var wire 1 B re1 $end
$var wire 1 C re2 $end
$var wire 1 % rst $end
$var wire 5 i waddr [4:0] $end
$var wire 32 j wdata [31:0] $end
$var wire 1 H we $end
$var reg 32 k rdata1 [31:0] $end
$var reg 32 l rdata2 [31:0] $end
$upscope $end
$scope module id_ex0 $end
$var wire 1 ! clk $end
$var wire 8 m id_aluop [7:0] $end
$var wire 3 n id_alusel [2:0] $end
$var wire 32 o id_reg1 [31:0] $end
$var wire 32 p id_reg2 [31:0] $end
$var wire 5 q id_waddr [4:0] $end
$var wire 1 6 id_we $end
$var wire 1 % rst $end
$var reg 8 r ex_aluop [7:0] $end
$var reg 3 s ex_alusel [2:0] $end
$var reg 32 t ex_reg1 [31:0] $end
$var reg 32 u ex_reg2 [31:0] $end
$var reg 5 v ex_waddr [4:0] $end
$var reg 1 w ex_we $end
$upscope $end
$scope module ex0 $end
$var wire 8 x aluop_i [7:0] $end
$var wire 3 y alusel_i [2:0] $end
$var wire 32 z reg1_i [31:0] $end
$var wire 32 { reg2_i [31:0] $end
$var wire 1 % rst $end
$var wire 5 | waddr_i [4:0] $end
$var wire 1 - we_i $end
$var reg 32 } logicout [31:0] $end
$var reg 5 ~ waddr_o [4:0] $end
$var reg 32 !" wdata_o [31:0] $end
$var reg 1 "" we_o $end
$upscope $end
$scope module ex_mem0 $end
$var wire 1 ! clk $end
$var wire 5 #" ex_waddr [4:0] $end
$var wire 32 $" ex_wdata [31:0] $end
$var wire 1 . ex_we $end
$var wire 1 % rst $end
$var reg 5 %" mem_waddr [4:0] $end
$var reg 32 &" mem_wdata [31:0] $end
$var reg 1 '" mem_we $end
$upscope $end
$scope module mem0 $end
$var wire 1 % rst $end
$var wire 5 (" waddr_i [4:0] $end
$var wire 32 )" wdata_i [31:0] $end
$var wire 1 ; we_i $end
$var reg 5 *" waddr_o [4:0] $end
$var reg 32 +" wdata_o [31:0] $end
$var reg 1 ," we_o $end
$upscope $end
$scope module mem_wb $end
$var wire 1 ! clk $end
$var wire 5 -" mem_waddr [4:0] $end
$var wire 32 ." mem_wdata [31:0] $end
$var wire 1 < mem_we $end
$var wire 1 % rst $end
$var reg 5 /" wb_waddr [4:0] $end
$var reg 32 0" wb_wdata [31:0] $end
$var reg 1 1" wb_we $end
$upscope $end
$upscope $end
$scope module inst_rom0 $end
$var wire 32 2" addr [31:0] $end
$var wire 1 $ ce $end
$var reg 32 3" inst [31:0] $end
$upscope $end
$upscope $end
$upscope $end
$enddefinitions $end
#0
$dumpvars
b0 3"
b0 2"
01"
b0 0"
b0 /"
b0 ."
b0 -"
0,"
b0 +"
b0 *"
b0 )"
b0 ("
0'"
b0 &"
b0 %"
b0 $"
b0 #"
0""
b0 !"
b0 ~
b0 }
b0 |
b0 {
b0 z
b0 y
b0 x
0w
b0 v
b0 u
b0 t
b0 s
b0 r
b0 q
b0 p
b0 o
b0 n
b0 m
b0 l
b0 k
b0 j
b0 i
b0 h
b0 g
0f
b0 e
0d
b0 c
b0 b
0a
b0 `
b0 _
0^
b0 ]
b0 \
b0 [
b0 Z
b0 Y
b0 X
b0 W
b0 V
b0 U
b0 T
b0 S
b0 R
b0 Q
b0 P
b0 O
b0 N
b0 M
b0 L
b0 K
b0 J
0I
0H
b0 G
b0 F
b0 E
b0 D
0C
0B
b0 A
b0 @
b0 ?
b0 >
b0 =
0<
0;
b0 :
b0 9
b0 8
b0 7
06
b0 5
b0 4
b0 3
b0 2
b0 1
b0 0
b0 /
0.
0-
b0 ,
b0 +
b0 *
b0 )
b0 (
b0 '
b0 &
1%
0$
b0 #
b0 "
1!
$end
#20000
0!
#30000
1!
#40000
0!
#50000
1!
#60000
0!
#70000
1!
#80000
0!
#90000
1!
#100000
0!
#110000
1!
#120000
0!
#130000
1!
#140000
0!
#150000
1!
#160000
0!
#170000
1!
#180000
0!
#190000
1!
#195000
1^
0%
#200000
0!
#210000
b110100000000010001000100000000 3"
b110100000000010001000100000000 "
b110100000000010001000100000000 E
b110100000000010001000100000000 K
1I
1$
1!
#220000
0!
#230000
b1000100000000 c
b1000100000000 4
b1000100000000 p
0^
b1000100000000 ]
1a
1B
b1 \
b1 0
b1 n
b1011010 [
b1011010 /
b1011010 m
1f
16
b1 b
b1 ?
b1 h
b1 e
b1 5
b1 q
b110100000000100000000000100000 3"
b110100000000100000000000100000 "
b110100000000100000000000100000 E
b110100000000100000000000100000 K
b1101 R
b100 S
b10 Z
b1 W
b1 O
b1000100000000 P
b110100000000010001000100000000 M
b110100000000010001000100000000 1
b110100000000010001000100000000 Q
b100 J
b100 =
b100 L
b100 #
b100 D
b100 2"
1!
#240000
0!
#250000
b100000 c
b100000 4
b100000 p
b1000100000000 !"
b1000100000000 ,
b1000100000000 $"
b100000 ]
b10 b
b10 ?
b10 h
1a
1B
0^
1f
16
b10 e
b10 5
b10 q
b1 \
b1 0
b1 n
b1011010 [
b1011010 /
b1011010 m
b110100000000111111111100000000 3"
b110100000000111111111100000000 "
b110100000000111111111100000000 E
b110100000000111111111100000000 K
1""
1.
b1 ~
b1 +
b1 #"
b1000100000000 }
b0 S
b100000 T
b0 Z
b10 W
b10 O
b100000 P
b1000 J
b1000 =
b1000 L
b1000 #
b1000 D
b1000 2"
b110100000000100000000000100000 M
b110100000000100000000000100000 1
b110100000000100000000000100000 Q
b100 N
b100 2
b100 U
1w
1-
b1 v
b1 *
b1 |
b1000100000000 u
b1000100000000 )
b1000100000000 {
b1 s
b1 '
b1 y
b1011010 r
b1011010 &
b1011010 x
1!
#260000
0!
#270000
b1111111100000000 c
b1111111100000000 4
b1111111100000000 p
b100000 !"
b100000 ,
b100000 $"
b1111111100000000 ]
b11 b
b11 ?
b11 h
1a
1B
0^
1f
16
b11 e
b11 5
b11 q
b1 \
b1 0
b1 n
b1011010 [
b1011010 /
b1011010 m
b1000100000000 +"
b1000100000000 :
b1000100000000 ."
1,"
1<
b1 *"
b1 8
b1 -"
b10 ~
b10 +
b10 #"
b100000 }
b110100000001001111111111111111 3"
b110100000001001111111111111111 "
b110100000001001111111111111111 E
b110100000001001111111111111111 K
b11100 S
b0 T
b11111 Z
b11 W
b11 O
b1111111100000000 P
b1000100000000 &"
b1000100000000 9
b1000100000000 )"
1'"
1;
b1 %"
b1 7
b1 ("
b10 v
b10 *
b10 |
b100000 u
b100000 )
b100000 {
b110100000000111111111100000000 M
b110100000000111111111100000000 1
b110100000000111111111100000000 Q
b1000 N
b1000 2
b1000 U
b1100 J
b1100 =
b1100 L
b1100 #
b1100 D
b1100 2"
1!
#280000
0!
#290000
b1111111111111111 c
b1111111111111111 4
b1111111111111111 p
b1111111100000000 !"
b1111111100000000 ,
b1111111100000000 $"
b1111111111111111 ]
b100 b
b100 ?
b100 h
1a
1B
0^
1f
16
b100 e
b100 5
b100 q
b1 \
b1 0
b1 n
b1011010 [
b1011010 /
b1011010 m
bx 3"
bx "
bx E
bx K
b11 ~
b11 +
b11 #"
b1111111100000000 }
b100000 +"
b100000 :
b100000 ."
b10 *"
b10 8
b10 -"
b11111 S
b111111 T
b100 W
b100 O
b1111111111111111 P
b10000 J
b10000 =
b10000 L
b10000 #
b10000 D
b10000 2"
b110100000001001111111111111111 M
b110100000001001111111111111111 1
b110100000001001111111111111111 Q
b1100 N
b1100 2
b1100 U
b11 v
b11 *
b11 |
b1111111100000000 u
b1111111100000000 )
b1111111100000000 {
b100000 &"
b100000 9
b100000 )"
b10 %"
b10 7
b10 ("
b1000100000000 0"
b1000100000000 G
b1000100000000 j
11"
1H
b1 /"
b1 F
b1 i
1!
#300000
0!
#310000
b0 c
b0 4
b0 p
b1111111111111111 !"
b1111111111111111 ,
b1111111111111111 $"
b0 ]
bx b
bx ?
bx h
bx _
bx >
bx g
0a
0B
1^
0f
06
bx e
bx 5
bx q
b0 \
b0 0
b0 n
b0 [
b0 /
b0 m
b1111111100000000 +"
b1111111100000000 :
b1111111100000000 ."
b11 *"
b11 8
b11 -"
b100 ~
b100 +
b100 #"
b1111111111111111 }
bx R
bx S
bx T
bx Z
bx V
bx W
bx O
bx P
b100000 0"
b100000 G
b100000 j
b10 /"
b10 F
b10 i
b1111111100000000 &"
b1111111100000000 9
b1111111100000000 )"
b11 %"
b11 7
b11 ("
b100 v
b100 *
b100 |
b1111111111111111 u
b1111111111111111 )
b1111111111111111 {
bx M
bx 1
bx Q
b10000 N
b10000 2
b10000 U
b10100 J
b10100 =
b10100 L
b10100 #
b10100 D
b10100 2"
1!
#320000
0!
#330000
b0 !"
b0 ,
b0 $"
0""
0.
bx ~
bx +
bx #"
b0 }
b1111111111111111 +"
b1111111111111111 :
b1111111111111111 ."
b100 *"
b100 8
b100 -"
b11000 J
b11000 =
b11000 L
b11000 #
b11000 D
b11000 2"
b10100 N
b10100 2
b10100 U
0w
0-
bx v
bx *
bx |
b0 u
b0 )
b0 {
b0 s
b0 '
b0 y
b0 r
b0 &
b0 x
b1111111111111111 &"
b1111111111111111 9
b1111111111111111 )"
b100 %"
b100 7
b100 ("
b1111111100000000 0"
b1111111100000000 G
b1111111100000000 j
b11 /"
b11 F
b11 i
1!
#340000
0!
#350000
b0 +"
b0 :
b0 ."
0,"
0<
bx *"
bx 8
bx -"
b1111111111111111 0"
b1111111111111111 G
b1111111111111111 j
b100 /"
b100 F
b100 i
b0 &"
b0 9
b0 )"
0'"
0;
bx %"
bx 7
bx ("
b11000 N
b11000 2
b11000 U
b11100 J
b11100 =
b11100 L
b11100 #
b11100 D
b11100 2"
1!
#360000
0!
#370000
b100000 J
b100000 =
b100000 L
b100000 #
b100000 D
b100000 2"
b11100 N
b11100 2
b11100 U
b0 0"
b0 G
b0 j
01"
0H
bx /"
bx F
bx i
1!
#380000
0!
#390000
b100000 N
b100000 2
b100000 U
b100100 J
b100100 =
b100100 L
b100100 #
b100100 D
b100100 2"
1!
#400000
0!
#410000
b101000 J
b101000 =
b101000 L
b101000 #
b101000 D
b101000 2"
b100100 N
b100100 2
b100100 U
1!
#420000
0!
#430000
b101000 N
b101000 2
b101000 U
b101100 J
b101100 =
b101100 L
b101100 #
b101100 D
b101100 2"
1!
#440000
0!
#450000
b110000 J
b110000 =
b110000 L
b110000 #
b110000 D
b110000 2"
b101100 N
b101100 2
b101100 U
1!
#460000
0!
#470000
b110000 N
b110000 2
b110000 U
b110100 J
b110100 =
b110100 L
b110100 #
b110100 D
b110100 2"
1!
#480000
0!
#490000
b111000 J
b111000 =
b111000 L
b111000 #
b111000 D
b111000 2"
b110100 N
b110100 2
b110100 U
1!
#500000
0!
#510000
b111000 N
b111000 2
b111000 U
b111100 J
b111100 =
b111100 L
b111100 #
b111100 D
b111100 2"
1!
#520000
0!
#530000
b1000000 J
b1000000 =
b1000000 L
b1000000 #
b1000000 D
b1000000 2"
b111100 N
b111100 2
b111100 U
1!
#540000
0!
#550000
b1000000 N
b1000000 2
b1000000 U
b1000100 J
b1000100 =
b1000100 L
b1000100 #
b1000100 D
b1000100 2"
1!
#560000
0!
#570000
b1001000 J
b1001000 =
b1001000 L
b1001000 #
b1001000 D
b1001000 2"
b1000100 N
b1000100 2
b1000100 U
1!
#580000
0!
#590000
b1001000 N
b1001000 2
b1001000 U
b1001100 J
b1001100 =
b1001100 L
b1001100 #
b1001100 D
b1001100 2"
1!
#600000
0!
#610000
b1010000 J
b1010000 =
b1010000 L
b1010000 #
b1010000 D
b1010000 2"
b1001100 N
b1001100 2
b1001100 U
1!
#620000
0!
#630000
b1010000 N
b1010000 2
b1010000 U
b1010100 J
b1010100 =
b1010100 L
b1010100 #
b1010100 D
b1010100 2"
1!
#640000
0!
#650000
b1011000 J
b1011000 =
b1011000 L
b1011000 #
b1011000 D
b1011000 2"
b1010100 N
b1010100 2
b1010100 U
1!
#660000
0!
#670000
b1011000 N
b1011000 2
b1011000 U
b1011100 J
b1011100 =
b1011100 L
b1011100 #
b1011100 D
b1011100 2"
1!
#680000
0!
#690000
b1100000 J
b1100000 =
b1100000 L
b1100000 #
b1100000 D
b1100000 2"
b1011100 N
b1011100 2
b1011100 U
1!
#700000
0!
#710000
b1100000 N
b1100000 2
b1100000 U
b1100100 J
b1100100 =
b1100100 L
b1100100 #
b1100100 D
b1100100 2"
1!
#720000
0!
#730000
b1101000 J
b1101000 =
b1101000 L
b1101000 #
b1101000 D
b1101000 2"
b1100100 N
b1100100 2
b1100100 U
1!
#740000
0!
#750000
b1101000 N
b1101000 2
b1101000 U
b1101100 J
b1101100 =
b1101100 L
b1101100 #
b1101100 D
b1101100 2"
1!
#760000
0!
#770000
b1110000 J
b1110000 =
b1110000 L
b1110000 #
b1110000 D
b1110000 2"
b1101100 N
b1101100 2
b1101100 U
1!
#780000
0!
#790000
b1110000 N
b1110000 2
b1110000 U
b1110100 J
b1110100 =
b1110100 L
b1110100 #
b1110100 D
b1110100 2"
1!
#800000
0!
#810000
b1111000 J
b1111000 =
b1111000 L
b1111000 #
b1111000 D
b1111000 2"
b1110100 N
b1110100 2
b1110100 U
1!
#820000
0!
#830000
b1111000 N
b1111000 2
b1111000 U
b1111100 J
b1111100 =
b1111100 L
b1111100 #
b1111100 D
b1111100 2"
1!
#840000
0!
#850000
b10000000 J
b10000000 =
b10000000 L
b10000000 #
b10000000 D
b10000000 2"
b1111100 N
b1111100 2
b1111100 U
1!
#860000
0!
#870000
b10000000 N
b10000000 2
b10000000 U
b10000100 J
b10000100 =
b10000100 L
b10000100 #
b10000100 D
b10000100 2"
1!
#880000
0!
#890000
b10001000 J
b10001000 =
b10001000 L
b10001000 #
b10001000 D
b10001000 2"
b10000100 N
b10000100 2
b10000100 U
1!
#900000
0!
#910000
b10001000 N
b10001000 2
b10001000 U
b10001100 J
b10001100 =
b10001100 L
b10001100 #
b10001100 D
b10001100 2"
1!
#920000
0!
#930000
b10010000 J
b10010000 =
b10010000 L
b10010000 #
b10010000 D
b10010000 2"
b10001100 N
b10001100 2
b10001100 U
1!
#940000
0!
#950000
b10010000 N
b10010000 2
b10010000 U
b10010100 J
b10010100 =
b10010100 L
b10010100 #
b10010100 D
b10010100 2"
1!
#960000
0!
#970000
b10011000 J
b10011000 =
b10011000 L
b10011000 #
b10011000 D
b10011000 2"
b10010100 N
b10010100 2
b10010100 U
1!
#980000
0!
#990000
b10011000 N
b10011000 2
b10011000 U
b10011100 J
b10011100 =
b10011100 L
b10011100 #
b10011100 D
b10011100 2"
1!
#1000000
0!
#1010000
b10100000 J
b10100000 =
b10100000 L
b10100000 #
b10100000 D
b10100000 2"
b10011100 N
b10011100 2
b10011100 U
1!
#1020000
0!
#1030000
b10100000 N
b10100000 2
b10100000 U
b10100100 J
b10100100 =
b10100100 L
b10100100 #
b10100100 D
b10100100 2"
1!
#1040000
0!
#1050000
b10101000 J
b10101000 =
b10101000 L
b10101000 #
b10101000 D
b10101000 2"
b10100100 N
b10100100 2
b10100100 U
1!
#1060000
0!
#1070000
b10101000 N
b10101000 2
b10101000 U
b10101100 J
b10101100 =
b10101100 L
b10101100 #
b10101100 D
b10101100 2"
1!
#1080000
0!
#1090000
b10110000 J
b10110000 =
b10110000 L
b10110000 #
b10110000 D
b10110000 2"
b10101100 N
b10101100 2
b10101100 U
1!
#1100000
0!
#1110000
b10110000 N
b10110000 2
b10110000 U
b10110100 J
b10110100 =
b10110100 L
b10110100 #
b10110100 D
b10110100 2"
1!
#1120000
0!
#1130000
b10111000 J
b10111000 =
b10111000 L
b10111000 #
b10111000 D
b10111000 2"
b10110100 N
b10110100 2
b10110100 U
1!
#1140000
0!
#1150000
b10111000 N
b10111000 2
b10111000 U
b10111100 J
b10111100 =
b10111100 L
b10111100 #
b10111100 D
b10111100 2"
1!
#1160000
0!
#1170000
b11000000 J
b11000000 =
b11000000 L
b11000000 #
b11000000 D
b11000000 2"
b10111100 N
b10111100 2
b10111100 U
1!
#1180000
0!
#1190000
b11000000 N
b11000000 2
b11000000 U
b11000100 J
b11000100 =
b11000100 L
b11000100 #
b11000100 D
b11000100 2"
1!
#1195000
b0 *"
b0 8
b0 -"
b0 b
b0 ?
b0 h
b0 _
b0 >
b0 g
0^
b0 e
b0 5
b0 q
1%
