cpu-code/openmips_min_sopc.vcd
$date
	Wed Apr  1 22:50:35 2015
$end
$version
	Icarus Verilog
$end
$timescale
	1ps
$end
$scope module openmips_min_sopc_tb $end
$scope module openmips_min_sopc0 $end
$var wire 1 ! clk $end
$var wire 32 " inst [31:0] $end
$var wire 32 # inst_addr [31:0] $end
$var wire 1 $ rom_ce $end
$var wire 1 % rst $end
$scope module openmips0 $end
$var wire 1 ! clk $end
$var wire 8 & ex_aluop_i [7:0] $end
$var wire 3 ' ex_alusel_i [2:0] $end
$var wire 5 ( ex_id_waddr_o [4:0] $end
$var wire 32 ) ex_id_wdata_o [31:0] $end
$var wire 1 * ex_id_we_o $end
$var wire 32 + ex_reg1_i [31:0] $end
$var wire 32 , ex_reg2_i [31:0] $end
$var wire 5 - ex_waddr_i [4:0] $end
$var wire 5 . ex_waddr_o [4:0] $end
$var wire 32 / ex_wdata_o [31:0] $end
$var wire 1 0 ex_we_i $end
$var wire 1 1 ex_we_o $end
$var wire 8 2 id_aluop_o [7:0] $end
$var wire 3 3 id_alusel_o [2:0] $end
$var wire 32 4 id_inst_i [31:0] $end
$var wire 32 5 id_pc_i [31:0] $end
$var wire 32 6 id_reg1_o [31:0] $end
$var wire 32 7 id_reg2_o [31:0] $end
$var wire 5 8 id_waddr_o [4:0] $end
$var wire 1 9 id_we_o $end
$var wire 5 : mem_id_waddr_o [4:0] $end
$var wire 32 ; mem_id_wdata_o [31:0] $end
$var wire 1 < mem_id_we_o $end
$var wire 5 = mem_waddr_i [4:0] $end
$var wire 5 > mem_waddr_o [4:0] $end
$var wire 32 ? mem_wdata_i [31:0] $end
$var wire 32 @ mem_wdata_o [31:0] $end
$var wire 1 A mem_we_i $end
$var wire 1 B mem_we_o $end
$var wire 32 C pc [31:0] $end
$var wire 5 D reg_raddr1 [4:0] $end
$var wire 5 E reg_raddr2 [4:0] $end
$var wire 32 F reg_rdata1 [31:0] $end
$var wire 32 G reg_rdata2 [31:0] $end
$var wire 1 H reg_re1 $end
$var wire 1 I reg_re2 $end
$var wire 32 J rom_addr_o [31:0] $end
$var wire 1 $ rom_ce_o $end
$var wire 32 K rom_data_i [31:0] $end
$var wire 1 % rst $end
$var wire 5 L wb_waddr_i [4:0] $end
$var wire 32 M wb_wdata_i [31:0] $end
$var wire 1 N wb_we_i $end
$scope module pc_reg0 $end
$var wire 1 ! clk $end
$var wire 1 % rst $end
$var reg 1 O ce $end
$var reg 32 P pc [31:0] $end
$upscope $end
$scope module if_id0 $end
$var wire 1 ! clk $end
$var wire 32 Q if_inst [31:0] $end
$var wire 32 R if_pc [31:0] $end
$var wire 1 % rst $end
$var reg 32 S id_inst [31:0] $end
$var reg 32 T id_pc [31:0] $end
$upscope $end
$scope module id0 $end
$var wire 5 U ex_waddr_i [4:0] $end
$var wire 32 V ex_wdata_i [31:0] $end
$var wire 1 * ex_we_i $end
$var wire 16 W i_imm [15:0] $end
$var wire 5 X i_write_address [4:0] $end
$var wire 32 Y inst_i [31:0] $end
$var wire 5 Z mem_waddr_i [4:0] $end
$var wire 32 [ mem_wdata_i [31:0] $end
$var wire 1 < mem_we_i $end
$var wire 6 \ op_class [5:0] $end
$var wire 5 ] op_rd [4:0] $end
$var wire 5 ^ op_rs [4:0] $end
$var wire 5 _ op_rt [4:0] $end
$var wire 5 ` op_sa [4:0] $end
$var wire 6 a op_subclass [5:0] $end
$var wire 32 b pc_i [31:0] $end
$var wire 5 c r_read1_address [4:0] $end
$var wire 5 d r_read2_address [4:0] $end
$var wire 5 e r_write_address [4:0] $end
$var wire 32 f reg1_data_i [31:0] $end
$var wire 32 g reg2_data_i [31:0] $end
$var wire 1 % rst $end
$var reg 8 h aluop_o [7:0] $end
$var reg 3 i alusel_o [2:0] $end
$var reg 32 j imm [31:0] $end
$var reg 1 k instvalid $end
$var reg 5 l reg1_addr_o [4:0] $end
$var reg 32 m reg1_o [31:0] $end
$var reg 1 n reg1_re_o $end
$var reg 5 o reg2_addr_o [4:0] $end
$var reg 32 p reg2_o [31:0] $end
$var reg 1 q reg2_re_o $end
$var reg 5 r waddr_o [4:0] $end
$var reg 1 s we_o $end
$upscope $end
$scope module regfile0 $end
$var wire 1 ! clk $end
$var wire 5 t raddr1 [4:0] $end
$var wire 5 u raddr2 [4:0] $end
$var wire 1 H re1 $end
$var wire 1 I re2 $end
$var wire 1 % rst $end
$var wire 5 v waddr [4:0] $end
$var wire 32 w wdata [31:0] $end
$var wire 1 N we $end
$var reg 32 x rdata1 [31:0] $end
$var reg 32 y rdata2 [31:0] $end
$upscope $end
$scope module id_ex0 $end
$var wire 1 ! clk $end
$var wire 8 z id_aluop [7:0] $end
$var wire 3 { id_alusel [2:0] $end
$var wire 32 | id_reg1 [31:0] $end
$var wire 32 } id_reg2 [31:0] $end
$var wire 5 ~ id_waddr [4:0] $end
$var wire 1 9 id_we $end
$var wire 1 % rst $end
$var reg 8 !" ex_aluop [7:0] $end
$var reg 3 "" ex_alusel [2:0] $end
$var reg 32 #" ex_reg1 [31:0] $end
$var reg 32 $" ex_reg2 [31:0] $end
$var reg 5 %" ex_waddr [4:0] $end
$var reg 1 &" ex_we $end
$upscope $end
$scope module ex0 $end
$var wire 8 '" aluop_i [7:0] $end
$var wire 3 (" alusel_i [2:0] $end
$var wire 32 )" reg1_i [31:0] $end
$var wire 32 *" reg2_i [31:0] $end
$var wire 1 % rst $end
$var wire 5 +" waddr_i [4:0] $end
$var wire 1 0 we_i $end
$var reg 32 ," logicout [31:0] $end
$var reg 32 -" shiftout [31:0] $end
$var reg 5 ." waddr_id_o [4:0] $end
$var reg 5 /" waddr_o [4:0] $end
$var reg 32 0" wdata_id_o [31:0] $end
$var reg 32 1" wdata_o [31:0] $end
$var reg 1 2" we_id_o $end
$var reg 1 3" we_o $end
$upscope $end
$scope module ex_mem0 $end
$var wire 1 ! clk $end
$var wire 5 4" ex_waddr [4:0] $end
$var wire 32 5" ex_wdata [31:0] $end
$var wire 1 1 ex_we $end
$var wire 1 % rst $end
$var reg 5 6" mem_waddr [4:0] $end
$var reg 32 7" mem_wdata [31:0] $end
$var reg 1 8" mem_we $end
$upscope $end
$scope module mem0 $end
$var wire 1 % rst $end
$var wire 5 9" waddr_i [4:0] $end
$var wire 32 :" wdata_i [31:0] $end
$var wire 1 A we_i $end
$var reg 5 ;" waddr_id_o [4:0] $end
$var reg 5 <" waddr_o [4:0] $end
$var reg 32 =" wdata_id_o [31:0] $end
$var reg 32 >" wdata_o [31:0] $end
$var reg 1 ?" we_id_o $end
$var reg 1 @" we_o $end
$upscope $end
$scope module mem_wb $end
$var wire 1 ! clk $end
$var wire 5 A" mem_waddr [4:0] $end
$var wire 32 B" mem_wdata [31:0] $end
$var wire 1 B mem_we $end
$var wire 1 % rst $end
$var reg 5 C" wb_waddr [4:0] $end
$var reg 32 D" wb_wdata [31:0] $end
$var reg 1 E" wb_we $end
$upscope $end
$upscope $end
$scope module inst_rom0 $end
$var wire 32 F" addr [31:0] $end
$var wire 1 $ ce $end
$var reg 32 G" inst [31:0] $end
$upscope $end
$upscope $end
$upscope $end
$scope module openmips_min_sopc_tb $end
$scope module openmips_min_sopc0 $end
$scope module openmips0 $end
$scope module regfile0 $end
$var reg 32 H" \regs[0] [31:0] $end
$upscope $end
$upscope $end
$upscope $end
$upscope $end
$scope module openmips_min_sopc_tb $end
$scope module openmips_min_sopc0 $end
$scope module openmips0 $end
$scope module regfile0 $end
$var reg 32 I" \regs[1] [31:0] $end
$upscope $end
$upscope $end
$upscope $end
$upscope $end
$scope module openmips_min_sopc_tb $end
$scope module openmips_min_sopc0 $end
$scope module openmips0 $end
$scope module regfile0 $end
$var reg 32 J" \regs[2] [31:0] $end
$upscope $end
$upscope $end
$upscope $end
$upscope $end
$scope module openmips_min_sopc_tb $end
$scope module openmips_min_sopc0 $end
$scope module openmips0 $end
$scope module regfile0 $end
$var reg 32 K" \regs[3] [31:0] $end
$upscope $end
$upscope $end
$upscope $end
$upscope $end
$scope module openmips_min_sopc_tb $end
$scope module openmips_min_sopc0 $end
$scope module openmips0 $end
$scope module regfile0 $end
$var reg 32 L" \regs[4] [31:0] $end
$upscope $end
$upscope $end
$upscope $end
$upscope $end
$enddefinitions $end
#0
$dumpvars
bx L"
bx K"
bx J"
bx I"
bx H"
b0 G"
b0 F"
0E"
b0 D"
b0 C"
b0 B"
b0 A"
0@"
0?"
b0 >"
b0 ="
b0 <"
b0 ;"
b0 :"
b0 9"
08"
b0 7"
b0 6"
b0 5"
b0 4"
03"
02"
b0 1"
b0 0"
b0 /"
b0 ."
b0 -"
b0 ,"
b0 +"
b0 *"
b0 )"
b0 ("
b0 '"
0&"
b0 %"
b0 $"
b0 #"
b0 ""
b0 !"
b0 ~
b0 }
b0 |
b0 {
b0 z
b0 y
b0 x
b0 w
b0 v
b0 u
b0 t
0s
b0 r
0q
b0 p
b0 o
0n
b0 m
b0 l
0k
b0 j
b0 i
b0 h
b0 g
b0 f
b0 e
b0 d
b0 c
b0 b
b0 a
b0 `
b0 _
b0 ^
b0 ]
b0 \
b0 [
b0 Z
b0 Y
b0 X
b0 W
b0 V
b0 U
b0 T
b0 S
b0 R
b0 Q
b0 P
0O
0N
b0 M
b0 L
b0 K
b0 J
0I
0H
b0 G
b0 F
b0 E
b0 D
b0 C
0B
0A
b0 @
b0 ?
b0 >
b0 =
0<
b0 ;
b0 :
09
b0 8
b0 7
b0 6
b0 5
b0 4
b0 3
b0 2
01
00
b0 /
b0 .
b0 -
b0 ,
b0 +
0*
b0 )
b0 (
b0 '
b0 &
1%
0$
b0 #
b0 "
1!
$end
#20000
0!
#30000
1!
#40000
0!
#50000
1!
#60000
0!
#70000
1!
#80000
0!
#90000
1!
#100000
0!
#110000
1!
#120000
0!
#130000
1!
#140000
0!
#150000
1!
#160000
0!
#170000
1!
#180000
0!
#190000
1!
#195000
1q
1I
1s
19
b101 h
b101 2
b101 z
b10 i
b10 3
b10 {
0k
0%
#200000
0!
#210000
b111100000000100000010000000100 G"
b111100000000100000010000000100 "
b111100000000100000010000000100 K
b111100000000100000010000000100 Q
12"
1*
13"
11
1O
1$
1&"
10
b10 ""
b10 '
b10 ("
b101 !"
b101 &
b101 '"
1!
#220000
0!
#230000
b100000001000000000000000000 p
b100000001000000000000000000 7
b100000001000000000000000000 }
b100000001000000000000000000 j
1n
1H
b10 r
b10 8
b10 ~
b10 o
b10 E
b10 u
0q
0I
1s
19
0k
b10 h
b10 2
b10 z
b1 i
b1 3
b1 {
1?"
1<
1@"
1B
b110100010000100000010000000100 G"
b110100010000100000010000000100 "
b110100010000100000010000000100 K
b110100010000100000010000000100 Q
b1111 \
b10 _
b10 X
b10 d
b10000 `
b100 a
b10000000100 W
18"
1A
b111100000000100000010000000100 S
b111100000000100000010000000100 4
b111100000000100000010000000100 Y
b100 P
b100 C
b100 R
b100 #
b100 J
b100 F"
1!
#240000
0!
#250000
b100000001000000000000000000 m
b100000001000000000000000000 6
b100000001000000000000000000 |
bx x
bx F
bx f
b10000000100 p
b10000000100 7
b10000000100 }
b100000001000000000000000000 0"
b100000001000000000000000000 )
b100000001000000000000000000 V
b100000001000000000000000000 1"
b100000001000000000000000000 /
b100000001000000000000000000 5"
b10000000100 j
b10 l
b10 D
b10 t
1n
1H
b10 r
b10 8
b10 ~
1s
19
0k
b10 h
b10 2
b10 z
b1 i
b1 3
b1 {
b110100000001110000000000000111 G"
b110100000001110000000000000111 "
b110100000001110000000000000111 K
b110100000001110000000000000111 Q
b10 ."
b10 (
b10 U
b10 /"
b10 .
b10 4"
b100000001000000000000000000 ,"
b1101 \
b10 ^
b10 c
b1000 P
b1000 C
b1000 R
b1000 #
b1000 J
b1000 F"
b110100010000100000010000000100 S
b110100010000100000010000000100 4
b110100010000100000010000000100 Y
b100 T
b100 5
b100 b
b10 %"
b10 -
b10 +"
b100000001000000000000000000 $"
b100000001000000000000000000 ,
b100000001000000000000000000 *"
b1 ""
b1 '
b1 ("
b10 !"
b10 &
b10 '"
1E"
1N
1!
#260000
0!
#270000
b0 x
b0 F
b0 f
b0 m
b0 6
b0 |
b111 p
b111 7
b111 }
b100000001000000010000000100 0"
b100000001000000010000000100 )
b100000001000000010000000100 V
b100000001000000010000000100 1"
b100000001000000010000000100 /
b100000001000000010000000100 5"
b111 j
b111 o
b111 E
b111 u
b0 l
b0 D
b0 t
1n
1H
b111 r
b111 8
b111 ~
1s
19
0k
b10 h
b10 2
b10 z
b1 i
b1 3
b1 {
b100000001000000000000000000 ="
b100000001000000000000000000 ;
b100000001000000000000000000 [
b10 ;"
b10 :
b10 Z
b100000001000000000000000000 >"
b100000001000000000000000000 @
b100000001000000000000000000 B"
b10 <"
b10 >
b10 A"
b100000001000000010000000100 ,"
b110100000001010000000000000101 G"
b110100000001010000000000000101 "
b110100000001010000000000000101 K
b110100000001010000000000000101 Q
b0 ^
b0 c
b111 _
b111 X
b111 d
b0 `
b111 a
b111 W
b100000001000000000000000000 7"
b100000001000000000000000000 ?
b100000001000000000000000000 :"
b10 6"
b10 =
b10 9"
b10000000100 $"
b10000000100 ,
b10000000100 *"
b100000001000000000000000000 #"
b100000001000000000000000000 +
b100000001000000000000000000 )"
b110100000001110000000000000111 S
b110100000001110000000000000111 4
b110100000001110000000000000111 Y
b1000 T
b1000 5
b1000 b
b1100 P
b1100 C
b1100 R
b1100 #
b1100 J
b1100 F"
1!
#280000
0!
#290000
b111 0"
b111 )
b111 V
b111 1"
b111 /
b111 5"
b101 p
b101 7
b101 }
b101 j
b101 o
b101 E
b101 u
1n
1H
b101 r
b101 8
b101 ~
1s
19
0k
b10 h
b10 2
b10 z
b1 i
b1 3
b1 {
b110100000010000000000000001000 G"
b110100000010000000000000001000 "
b110100000010000000000000001000 K
b110100000010000000000000001000 Q
b111 ."
b111 (
b111 U
b111 /"
b111 .
b111 4"
b111 ,"
b100000001000000010000000100 ="
b100000001000000010000000100 ;
b100000001000000010000000100 [
b100000001000000010000000100 >"
b100000001000000010000000100 @
b100000001000000010000000100 B"
b101 _
b101 X
b101 d
b101 a
b101 W
b10000 P
b10000 C
b10000 R
b10000 #
b10000 J
b10000 F"
b110100000001010000000000000101 S
b110100000001010000000000000101 4
b110100000001010000000000000101 Y
b1100 T
b1100 5
b1100 b
b111 %"
b111 -
b111 +"
b111 $"
b111 ,
b111 *"
b0 #"
b0 +
b0 )"
b100000001000000010000000100 7"
b100000001000000010000000100 ?
b100000001000000010000000100 :"
b100000001000000000000000000 D"
b100000001000000000000000000 M
b100000001000000000000000000 w
b10 C"
b10 L
b10 v
1!
#300000
0!
#310000
b1000 p
b1000 7
b1000 }
b101 0"
b101 )
b101 V
b101 1"
b101 /
b101 5"
b1000 j
b1000 o
b1000 E
b1000 u
1n
1H
b1000 r
b1000 8
b1000 ~
1s
19
0k
b10 h
b10 2
b10 z
b1 i
b1 3
b1 {
b111 ="
b111 ;
b111 [
b111 ;"
b111 :
b111 Z
b111 >"
b111 @
b111 B"
b111 <"
b111 >
b111 A"
b101 ."
b101 (
b101 U
b101 /"
b101 .
b101 4"
b101 ,"
b1111 G"
b1111 "
b1111 K
b1111 Q
b1000 _
b1000 X
b1000 d
b1000 a
b1000 W
b100000001000000010000000100 D"
b100000001000000010000000100 M
b100000001000000010000000100 w
b111 7"
b111 ?
b111 :"
b111 6"
b111 =
b111 9"
b101 %"
b101 -
b101 +"
b101 $"
b101 ,
b101 *"
b100000001000000000000000000 J"
b110100000010000000000000001000 S
b110100000010000000000000001000 4
b110100000010000000000000001000 Y
b10000 T
b10000 5
b10000 b
b10100 P
b10100 C
b10100 R
b10100 #
b10100 J
b10100 F"
1!
#320000
0!
#330000
b1000 0"
b1000 )
b1000 V
b1000 1"
b1000 /
b1000 5"
b0 p
b0 7
b0 }
b0 j
b0 o
b0 E
b0 u
0n
0H
b0 r
b0 8
b0 ~
0s
09
1k
b0 h
b0 2
b0 z
b0 i
b0 3
b0 {
b100001001000000000 G"
b100001001000000000 "
b100001001000000000 K
b100001001000000000 Q
b1000 ."
b1000 (
b1000 U
b1000 /"
b1000 .
b1000 4"
b1000 ,"
b101 ="
b101 ;
b101 [
b101 ;"
b101 :
b101 Z
b101 >"
b101 @
b101 B"
b101 <"
b101 >
b101 A"
b0 \
b0 _
b0 X
b0 d
b1111 a
b1111 W
b11000 P
b11000 C
b11000 R
b11000 #
b11000 J
b11000 F"
b1111 S
b1111 4
b1111 Y
b10100 T
b10100 5
b10100 b
b100000001000000010000000100 J"
b1000 %"
b1000 -
b1000 +"
b1000 $"
b1000 ,
b1000 *"
b101 7"
b101 ?
b101 :"
b101 6"
b101 =
b101 9"
b111 D"
b111 M
b111 w
b111 C"
b111 L
b111 v
1!
#340000
0!
#350000
b100000001000000010000000100 p
b100000001000000010000000100 7
b100000001000000010000000100 }
b100000001000000010000000100 y
b100000001000000010000000100 G
b100000001000000010000000100 g
b1000 m
b1000 6
b1000 |
b1000 j
1q
1I
1s
19
0k
b101 h
b101 2
b101 z
b10 i
b10 3
b10 {
b10 o
b10 E
b10 u
b10 r
b10 8
b10 ~
b1000 ="
b1000 ;
b1000 [
b1000 ;"
b1000 :
b1000 Z
b1000 >"
b1000 @
b1000 B"
b1000 <"
b1000 >
b1000 A"
b0 0"
b0 )
b0 V
b0 1"
b0 /
b0 5"
02"
0*
b0 ."
b0 (
b0 U
03"
01
b0 /"
b0 .
b0 4"
b0 ,"
b111000100001000000000100 G"
b111000100001000000000100 "
b111000100001000000000100 K
b111000100001000000000100 Q
b10 _
b10 X
b10 d
b10 ]
b10 e
b1000 `
b0 a
b1001000000000 W
b101 D"
b101 M
b101 w
b101 C"
b101 L
b101 v
b1000 7"
b1000 ?
b1000 :"
b1000 6"
b1000 =
b1000 9"
0&"
00
b0 %"
b0 -
b0 +"
b0 $"
b0 ,
b0 *"
b0 ""
b0 '
b0 ("
b0 !"
b0 &
b0 '"
b100001001000000000 S
b100001001000000000 4
b100001001000000000 Y
b11000 T
b11000 5
b11000 b
b11100 P
b11100 C
b11100 R
b11100 #
b11100 J
b11100 F"
1!
#360000
0!
#370000
b111 x
b111 F
b111 f
b100000001000000010000000000 0"
b100000001000000010000000000 )
b100000001000000010000000000 V
b100000001000000010000000000 1"
b100000001000000010000000000 /
b100000001000000010000000000 5"
b111 m
b111 6
b111 |
b100000001000000010000000000 p
b100000001000000010000000000 7
b100000001000000010000000000 }
1n
1H
b0 j
b111 l
b111 D
b111 t
1q
1I
1s
19
0k
b101 h
b101 2
b101 z
b10 i
b10 3
b10 {
b100001001000000010 G"
b100001001000000010 "
b100001001000000010 K
b100001001000000010 Q
12"
1*
b10 ."
b10 (
b10 U
13"
11
b10 /"
b10 .
b10 4"
b100000001000000010000000000 -"
b100000001000000010000000000 ,"
b0 ="
b0 ;
b0 [
0?"
0<
b0 ;"
b0 :
b0 Z
b0 >"
b0 @
b0 B"
0@"
0B
b0 <"
b0 >
b0 A"
b111 ^
b111 c
b0 `
b100 a
b1000000000100 W
b100000 P
b100000 C
b100000 R
b100000 #
b100000 J
b100000 F"
b111000100001000000000100 S
b111000100001000000000100 4
b111000100001000000000100 Y
b11100 T
b11100 5
b11100 b
1&"
10
b10 %"
b10 -
b10 +"
b100000001000000010000000100 $"
b100000001000000010000000100 ,
b100000001000000010000000100 *"
b1000 #"
b1000 +
b1000 )"
b10 ""
b10 '
b10 ("
b101 !"
b101 &
b101 '"
b0 7"
b0 ?
b0 :"
08"
0A
b0 6"
b0 =
b0 9"
b1000 D"
b1000 M
b1000 w
b1000 C"
b1000 L
b1000 v
1!
#380000
0!
#390000
b10000000100000000000000000 p
b10000000100000000000000000 7
b10000000100000000000000000 }
b0 x
b0 F
b0 f
b1000 m
b1000 6
b1000 |
b10000000100000000000000000 0"
b10000000100000000000000000 )
b10000000100000000000000000 V
b10000000100000000000000000 1"
b10000000100000000000000000 /
b10000000100000000000000000 5"
b1000 j
b0 l
b0 D
b0 t
1q
1I
0n
0H
1s
19
0k
b110 h
b110 2
b110 z
b10 i
b10 3
b10 {
b100000001000000010000000000 ="
b100000001000000010000000000 ;
b100000001000000010000000000 [
1?"
1<
b10 ;"
b10 :
b10 Z
b100000001000000010000000000 >"
b100000001000000010000000000 @
b100000001000000010000000000 B"
1@"
1B
b10 <"
b10 >
b10 A"
b10000000100000000000000000 -"
b10000000100000000000000000 ,"
b101000100001000000000110 G"
b101000100001000000000110 "
b101000100001000000000110 K
b101000100001000000000110 Q
b0 ^
b0 c
b1000 `
b10 a
b1001000000010 W
b0 D"
b0 M
b0 w
0E"
0N
b0 C"
b0 L
b0 v
b100000001000000010000000000 7"
b100000001000000010000000000 ?
b100000001000000010000000000 :"
18"
1A
b10 6"
b10 =
b10 9"
b100000001000000010000000000 $"
b100000001000000010000000000 ,
b100000001000000010000000000 *"
b111 #"
b111 +
b111 )"
b100001001000000010 S
b100001001000000010 4
b100001001000000010 Y
b100000 T
b100000 5
b100000 b
b100100 P
b100100 C
b100100 R
b100100 #
b100100 J
b100100 F"
1!
#400000
0!
#410000
b100000001000000000 p
b100000001000000000 7
b100000001000000000 }
b101 x
b101 F
b101 f
b100000001000000000 0"
b100000001000000000 )
b100000001000000000 V
b100000001000000000 1"
b100000001000000000 /
b100000001000000000 5"
b101 m
b101 6
b101 |
1n
1H
b0 j
b101 l
b101 D
b101 t
1q
1I
1s
19
0k
b110 h
b110 2
b110 z
b10 i
b10 3
b10 {
b0 G"
b0 "
b0 K
b0 Q
b100000001000000000 -"
b100000001000000000 ,"
b10000000100000000000000000 ="
b10000000100000000000000000 ;
b10000000100000000000000000 [
b10000000100000000000000000 >"
b10000000100000000000000000 @
b10000000100000000000000000 B"
b100000001000000010000000000 y
b100000001000000010000000000 G
b100000001000000010000000000 g
b101 ^
b101 c
b0 `
b110 a
b1000000000110 W
b101000 P
b101000 C
b101000 R
b101000 #
b101000 J
b101000 F"
b101000100001000000000110 S
b101000100001000000000110 4
b101000100001000000000110 Y
b100100 T
b100100 5
b100100 b
b10000000100000000000000000 $"
b10000000100000000000000000 ,
b10000000100000000000000000 *"
b1000 #"
b1000 +
b1000 )"
b110 !"
b110 &
b110 '"
b10000000100000000000000000 7"
b10000000100000000000000000 ?
b10000000100000000000000000 :"
b100000001000000010000000000 D"
b100000001000000010000000000 M
b100000001000000010000000000 w
1E"
1N
b10 C"
b10 L
b10 v
1!
#420000
0!
#430000
b0 x
b0 F
b0 f
b0 m
b0 6
b0 |
b1000000010000 0"
b1000000010000 )
b1000000010000 V
b1000000010000 1"
b1000000010000 /
b1000000010000 5"
b0 p
b0 7
b0 }
b0 o
b0 E
b0 u
b0 l
b0 D
b0 t
1q
1I
0n
0H
b0 r
b0 8
b0 ~
1s
19
0k
b101 h
b101 2
b101 z
b10 i
b10 3
b10 {
b100000001000000000 ="
b100000001000000000 ;
b100000001000000000 [
b100000001000000000 >"
b100000001000000000 @
b100000001000000000 B"
b1000000010000 -"
b1000000010000 ,"
b0 y
b0 G
b0 g
b100001010011000000 G"
b100001010011000000 "
b100001010011000000 K
b100001010011000000 Q
b0 ^
b0 c
b0 _
b0 X
b0 d
b0 ]
b0 e
b0 a
b0 W
b10000000100000000000000000 D"
b10000000100000000000000000 M
b10000000100000000000000000 w
b100000001000000000 7"
b100000001000000000 ?
b100000001000000000 :"
b100000001000000000 $"
b100000001000000000 ,
b100000001000000000 *"
b101 #"
b101 +
b101 )"
b100000001000000010000000000 J"
b0 S
b0 4
b0 Y
b101000 T
b101000 5
b101000 b
b101100 P
b101100 C
b101100 R
b101100 #
b101100 J
b101100 F"
1!
#440000
0!
#450000
b100000001000000000 y
b100000001000000000 G
b100000001000000000 g
b0 0"
b0 )
b0 V
b0 1"
b0 /
b0 5"
b10011 m
b10011 6
b10011 |
b1000000010000 p
b1000000010000 7
b1000000010000 }
b10011 j
b10 o
b10 E
b10 u
1q
1I
b10 r
b10 8
b10 ~
1s
19
0k
b101 h
b101 2
b101 z
b10 i
b10 3
b10 {
b1000000 G"
b1000000 "
b1000000 K
b1000000 Q
b0 ."
b0 (
b0 U
b0 /"
b0 .
b0 4"
b0 -"
b0 ,"
b1000000010000 ="
b1000000010000 ;
b1000000010000 [
b1000000010000 >"
b1000000010000 @
b1000000010000 B"
b10 _
b10 X
b10 d
b10 ]
b10 e
b10011 `
b1010011000000 W
b110000 P
b110000 C
b110000 R
b110000 #
b110000 J
b110000 F"
b100001010011000000 S
b100001010011000000 4
b100001010011000000 Y
b101100 T
b101100 5
b101100 b
b10000000100000000000000000 J"
b0 %"
b0 -
b0 +"
b0 $"
b0 ,
b0 *"
b0 #"
b0 +
b0 )"
b101 !"
b101 &
b101 '"
b1000000010000 7"
b1000000010000 ?
b1000000010000 :"
b100000001000000000 D"
b100000001000000000 M
b100000001000000000 w
1!
#460000
0!
#470000
b1 m
b1 6
b1 |
b10000000100000000000000000000000 0"
b10000000100000000000000000000000 )
b10000000100000000000000000000000 V
b10000000100000000000000000000000 1"
b10000000100000000000000000000000 /
b10000000100000000000000000000000 5"
b0 p
b0 7
b0 }
b1 j
b0 o
b0 E
b0 u
1q
1I
b0 r
b0 8
b0 ~
1s
19
0k
b101 h
b101 2
b101 z
b10 i
b10 3
b10 {
b0 ="
b0 ;
b0 [
b0 ;"
b0 :
b0 Z
b0 >"
b0 @
b0 B"
b0 <"
b0 >
b0 A"
b10 ."
b10 (
b10 U
b10 /"
b10 .
b10 4"
b10000000100000000000000000000000 -"
b10000000100000000000000000000000 ,"
b0 y
b0 G
b0 g
b100001010000000011 G"
b100001010000000011 "
b100001010000000011 K
b100001010000000011 Q
b0 _
b0 X
b0 d
b0 ]
b0 e
b1 `
b1000000 W
b1000000010000 D"
b1000000010000 M
b1000000010000 w
b0 7"
b0 ?
b0 :"
b0 6"
b0 =
b0 9"
b10 %"
b10 -
b10 +"
b1000000010000 $"
b1000000010000 ,
b1000000010000 *"
b10011 #"
b10011 +
b10011 )"
b100000001000000000 J"
b1000000 S
b1000000 4
b1000000 Y
b110000 T
b110000 5
b110000 b
b110100 P
b110100 C
b110100 R
b110100 #
b110100 J
b110100 F"
1!
#480000
0!
#490000
b1000000010000 y
b1000000010000 G
b1000000010000 g
b0 0"
b0 )
b0 V
b0 1"
b0 /
b0 5"
b10000 m
b10000 6
b10000 |
b10000000100000000000000000000000 p
b10000000100000000000000000000000 7
b10000000100000000000000000000000 }
b10000 j
b10 o
b10 E
b10 u
1q
1I
b10 r
b10 8
b10 ~
1s
19
0k
b111 h
b111 2
b111 z
b10 i
b10 3
b10 {
b1000000100001000000000111 G"
b1000000100001000000000111 "
b1000000100001000000000111 K
b1000000100001000000000111 Q
b0 ."
b0 (
b0 U
b0 /"
b0 .
b0 4"
b0 -"
b0 ,"
b10000000100000000000000000000000 ="
b10000000100000000000000000000000 ;
b10000000100000000000000000000000 [
b10 ;"
b10 :
b10 Z
b10000000100000000000000000000000 >"
b10000000100000000000000000000000 @
b10000000100000000000000000000000 B"
b10 <"
b10 >
b10 A"
b10 _
b10 X
b10 d
b10 ]
b10 e
b10000 `
b11 a
b1010000000011 W
b111000 P
b111000 C
b111000 R
b111000 #
b111000 J
b111000 F"
b100001010000000011 S
b100001010000000011 4
b100001010000000011 Y
b110100 T
b110100 5
b110100 b
b1000000010000 J"
b0 %"
b0 -
b0 +"
b0 $"
b0 ,
b0 *"
b1 #"
b1 +
b1 )"
b10000000100000000000000000000000 7"
b10000000100000000000000000000000 ?
b10000000100000000000000000000000 :"
b10 6"
b10 =
b10 9"
b0 D"
b0 M
b0 w
b0 C"
b0 L
b0 v
1!
#500000
0!
#510000
b1000 x
b1000 F
b1000 f
b1000 m
b1000 6
b1000 |
b11111111111111111000000010000000 p
b11111111111111111000000010000000 7
b11111111111111111000000010000000 }
b11111111111111111000000010000000 0"
b11111111111111111000000010000000 )
b11111111111111111000000010000000 V
b11111111111111111000000010000000 1"
b11111111111111111000000010000000 /
b11111111111111111000000010000000 5"
1n
1H
b0 j
b1000 l
b1000 D
b1000 t
1q
1I
1s
19
0k
b111 h
b111 2
b111 z
b10 i
b10 3
b10 {
b10000000100000000000000000000000 y
b10000000100000000000000000000000 G
b10000000100000000000000000000000 g
b0 ="
b0 ;
b0 [
b0 ;"
b0 :
b0 Z
b0 >"
b0 @
b0 B"
b0 <"
b0 >
b0 A"
b10 ."
b10 (
b10 U
b10 /"
b10 .
b10 4"
b11111111111111111000000010000000 -"
bx G"
bx "
bx K
bx Q
b1000 ^
b1000 c
b0 `
b111 a
b1000000000111 W
b10000000100000000000000000000000 D"
b10000000100000000000000000000000 M
b10000000100000000000000000000000 w
b10 C"
b10 L
b10 v
b0 7"
b0 ?
b0 :"
b0 6"
b0 =
b0 9"
b10 %"
b10 -
b10 +"
b10000000100000000000000000000000 $"
b10000000100000000000000000000000 ,
b10000000100000000000000000000000 *"
b10000 #"
b10000 +
b10000 )"
b111 !"
b111 &
b111 '"
b1000000100001000000000111 S
b1000000100001000000000111 4
b1000000100001000000000111 Y
b111000 T
b111000 5
b111000 b
b111100 P
b111100 C
b111100 R
b111100 #
b111100 J
b111100 F"
1!
#520000
0!
