cpu-code/openmips_min_sopc.vcd
$date
	Wed Apr 22 12:26:59 2015
$end
$version
	Icarus Verilog
$end
$timescale
	1ps
$end
$scope module openmips_min_sopc_tb $end
$scope module openmips_min_sopc0 $end
$var wire 1 ! clk $end
$var wire 32 " inst [31:0] $end
$var wire 32 # inst_addr [31:0] $end
$var wire 1 $ rom_ce $end
$var wire 1 % rst $end
$scope module openmips0 $end
$var wire 1 & branch_flag_o $end
$var wire 32 ' branch_target_address_o [31:0] $end
$var wire 1 ! clk $end
$var wire 2 ( cnt_ex_mem_o [1:0] $end
$var wire 2 ) cnt_ex_o [1:0] $end
$var wire 32 * div_opdata1_o [31:0] $end
$var wire 32 + div_opdata2_o [31:0] $end
$var wire 64 , div_result_o [63:0] $end
$var wire 1 - div_result_ready_o $end
$var wire 1 . div_start_o $end
$var wire 8 / ex_aluop_i [7:0] $end
$var wire 3 0 ex_alusel_i [2:0] $end
$var wire 32 1 ex_hi_o [31:0] $end
$var wire 1 2 ex_is_in_delayslot $end
$var wire 32 3 ex_link_address [31:0] $end
$var wire 32 4 ex_lo_o [31:0] $end
$var wire 32 5 ex_reg1_i [31:0] $end
$var wire 32 6 ex_reg2_i [31:0] $end
$var wire 5 7 ex_waddr_i [4:0] $end
$var wire 5 8 ex_waddr_o [4:0] $end
$var wire 32 9 ex_wdata_o [31:0] $end
$var wire 1 : ex_we_i $end
$var wire 1 ; ex_we_o $end
$var wire 1 < ex_whilo_o $end
$var wire 32 = hilo_hi_i [31:0] $end
$var wire 32 > hilo_hi_o [31:0] $end
$var wire 32 ? hilo_lo_i [31:0] $end
$var wire 32 @ hilo_lo_o [31:0] $end
$var wire 64 A hilo_temp_ex_mem_o [63:0] $end
$var wire 64 B hilo_temp_ex_o [63:0] $end
$var wire 1 C hilo_whilo_i $end
$var wire 8 D id_aluop_o [7:0] $end
$var wire 3 E id_alusel_o [2:0] $end
$var wire 32 F id_inst_i [31:0] $end
$var wire 32 G id_pc_i [31:0] $end
$var wire 32 H id_reg1_o [31:0] $end
$var wire 32 I id_reg2_o [31:0] $end
$var wire 5 J id_waddr_o [4:0] $end
$var wire 1 K id_we_o $end
$var wire 1 L is_delayslot_o $end
$var wire 1 M is_in_delayslot_o $end
$var wire 32 N link_addr_o [31:0] $end
$var wire 32 O mem_hi_i [31:0] $end
$var wire 32 P mem_hi_o [31:0] $end
$var wire 32 Q mem_lo_i [31:0] $end
$var wire 32 R mem_lo_o [31:0] $end
$var wire 5 S mem_waddr_i [4:0] $end
$var wire 5 T mem_waddr_o [4:0] $end
$var wire 32 U mem_wdata_i [31:0] $end
$var wire 32 V mem_wdata_o [31:0] $end
$var wire 1 W mem_we_i $end
$var wire 1 X mem_we_o $end
$var wire 1 Y mem_whilo_i $end
$var wire 1 Z mem_whilo_o $end
$var wire 1 [ next_inst_in_delayslot_o $end
$var wire 32 \ pc [31:0] $end
$var wire 5 ] reg_raddr1 [4:0] $end
$var wire 5 ^ reg_raddr2 [4:0] $end
$var wire 32 _ reg_rdata1 [31:0] $end
$var wire 32 ` reg_rdata2 [31:0] $end
$var wire 1 a reg_re1 $end
$var wire 1 b reg_re2 $end
$var wire 32 c rom_addr_o [31:0] $end
$var wire 1 $ rom_ce_o $end
$var wire 32 d rom_data_i [31:0] $end
$var wire 1 % rst $end
$var wire 1 e signed_div_o $end
$var wire 6 f stall [5:0] $end
$var wire 1 g stallreq_from_ex $end
$var wire 1 h stallreq_from_id $end
$var wire 5 i wb_waddr_i [4:0] $end
$var wire 32 j wb_wdata_i [31:0] $end
$var wire 1 k wb_we_i $end
$scope module pc_reg0 $end
$var wire 1 & branch_flag_i $end
$var wire 32 l branch_target_address_i [31:0] $end
$var wire 1 ! clk $end
$var wire 1 % rst $end
$var wire 6 m stall [5:0] $end
$var reg 1 n ce $end
$var reg 32 o pc [31:0] $end
$upscope $end
$scope module if_id0 $end
$var wire 1 ! clk $end
$var wire 32 p if_inst [31:0] $end
$var wire 32 q if_pc [31:0] $end
$var wire 1 % rst $end
$var wire 6 r stall [5:0] $end
$var reg 32 s id_inst [31:0] $end
$var reg 32 t id_pc [31:0] $end
$upscope $end
$scope module id0 $end
$var wire 5 u ex_waddr_i [4:0] $end
$var wire 32 v ex_wdata_i [31:0] $end
$var wire 1 ; ex_we_i $end
$var wire 16 w i_imm [15:0] $end
$var wire 5 x i_write_address [4:0] $end
$var wire 32 y imm_sll2_signedext [31:0] $end
$var wire 32 z inst_i [31:0] $end
$var wire 1 L is_in_delayslot_i $end
$var wire 5 { mem_waddr_i [4:0] $end
$var wire 32 | mem_wdata_i [31:0] $end
$var wire 1 X mem_we_i $end
$var wire 6 } op_class [5:0] $end
$var wire 5 ~ op_rd [4:0] $end
$var wire 5 !" op_rs [4:0] $end
$var wire 5 "" op_rt [4:0] $end
$var wire 5 #" op_sa [4:0] $end
$var wire 6 $" op_subclass [5:0] $end
$var wire 32 %" pc_i [31:0] $end
$var wire 32 &" pc_plus_4 [31:0] $end
$var wire 32 '" pc_plus_8 [31:0] $end
$var wire 5 (" r_read1_address [4:0] $end
$var wire 5 )" r_read2_address [4:0] $end
$var wire 5 *" r_write_address [4:0] $end
$var wire 32 +" reg1_data_i [31:0] $end
$var wire 32 ," reg2_data_i [31:0] $end
$var wire 1 % rst $end
$var reg 8 -" aluop_o [7:0] $end
$var reg 3 ." alusel_o [2:0] $end
$var reg 1 /" branch_flag_o $end
$var reg 32 0" branch_target_address_o [31:0] $end
$var reg 32 1" imm [31:0] $end
$var reg 1 2" instvalid $end
$var reg 1 3" is_in_delayslot_o $end
$var reg 32 4" link_addr_o [31:0] $end
$var reg 1 5" next_inst_in_delayslot_o $end
$var reg 5 6" reg1_addr_o [4:0] $end
$var reg 32 7" reg1_o [31:0] $end
$var reg 1 8" reg1_re_o $end
$var reg 5 9" reg2_addr_o [4:0] $end
$var reg 32 :" reg2_o [31:0] $end
$var reg 1 ;" reg2_re_o $end
$var reg 1 <" stallreq $end
$var reg 5 =" waddr_o [4:0] $end
$var reg 1 >" we_o $end
$upscope $end
$scope module regfile0 $end
$var wire 1 ! clk $end
$var wire 5 ?" raddr1 [4:0] $end
$var wire 5 @" raddr2 [4:0] $end
$var wire 1 a re1 $end
$var wire 1 b re2 $end
$var wire 1 % rst $end
$var wire 5 A" waddr [4:0] $end
$var wire 32 B" wdata [31:0] $end
$var wire 1 k we $end
$var reg 32 C" rdata1 [31:0] $end
$var reg 32 D" rdata2 [31:0] $end
$upscope $end
$scope module id_ex0 $end
$var wire 1 ! clk $end
$var wire 8 E" id_aluop [7:0] $end
$var wire 3 F" id_alusel [2:0] $end
$var wire 1 M id_is_in_delayslot $end
$var wire 32 G" id_link_address [31:0] $end
$var wire 32 H" id_reg1 [31:0] $end
$var wire 32 I" id_reg2 [31:0] $end
$var wire 5 J" id_waddr [4:0] $end
$var wire 1 K id_we $end
$var wire 1 [ next_inst_in_delayslot_i $end
$var wire 1 % rst $end
$var wire 6 K" stall [5:0] $end
$var reg 8 L" ex_aluop [7:0] $end
$var reg 3 M" ex_alusel [2:0] $end
$var reg 1 N" ex_is_in_delayslot $end
$var reg 32 O" ex_link_address [31:0] $end
$var reg 32 P" ex_reg1 [31:0] $end
$var reg 32 Q" ex_reg2 [31:0] $end
$var reg 5 R" ex_waddr [4:0] $end
$var reg 1 S" ex_we $end
$var reg 1 T" is_delayslot_o $end
$upscope $end
$scope module ex0 $end
$var wire 8 U" aluop_i [7:0] $end
$var wire 3 V" alusel_i [2:0] $end
$var wire 2 W" cnt_i [1:0] $end
$var wire 64 X" div_result_i [63:0] $end
$var wire 1 - div_result_ready_i $end
$var wire 32 Y" hi_i [31:0] $end
$var wire 64 Z" hilo_temp [63:0] $end
$var wire 64 [" hilo_temp_i [63:0] $end
$var wire 1 2 is_in_delayslot_i $end
$var wire 32 \" link_address_i [31:0] $end
$var wire 32 ]" lo_i [31:0] $end
$var wire 32 ^" mem_hi_i [31:0] $end
$var wire 32 _" mem_lo_i [31:0] $end
$var wire 1 Z mem_whilo_i $end
$var wire 32 `" opdata1_mult [31:0] $end
$var wire 32 a" opdata2_mult [31:0] $end
$var wire 1 b" overflow_sum $end
$var wire 32 c" reg1_i [31:0] $end
$var wire 32 d" reg1_i_not [31:0] $end
$var wire 1 e" reg1_lt_reg2 $end
$var wire 32 f" reg2_i [31:0] $end
$var wire 32 g" reg2_i_mux [31:0] $end
$var wire 32 h" result_sum [31:0] $end
$var wire 1 % rst $end
$var wire 5 i" waddr_i [4:0] $end
$var wire 32 j" wb_hi_i [31:0] $end
$var wire 32 k" wb_lo_i [31:0] $end
$var wire 1 C wb_whilo_i $end
$var wire 1 : we_i $end
$var reg 2 l" cnt_o [1:0] $end
$var reg 32 m" div_opdata1_o [31:0] $end
$var reg 32 n" div_opdata2_o [31:0] $end
$var reg 1 o" div_start_o $end
$var reg 32 p" hi_i_reg [31:0] $end
$var reg 32 q" hi_o [31:0] $end
$var reg 64 r" hilo_temp_o [63:0] $end
$var reg 64 s" hilo_temp_stall [63:0] $end
$var reg 32 t" lo_i_reg [31:0] $end
$var reg 32 u" lo_o [31:0] $end
$var reg 32 v" logicout [31:0] $end
$var reg 32 w" mathout [31:0] $end
$var reg 32 x" moveout [31:0] $end
$var reg 64 y" mulout [63:0] $end
$var reg 32 z" shiftout [31:0] $end
$var reg 1 {" signed_div_o $end
$var reg 1 |" stallreq $end
$var reg 1 }" stallreq_for_div $end
$var reg 1 ~" stallreq_for_madd_msub $end
$var reg 5 !# waddr_o [4:0] $end
$var reg 32 "# wdata_o [31:0] $end
$var reg 1 ## we_o $end
$var reg 1 $# whilo_o $end
$upscope $end
$scope module ex_mem0 $end
$var wire 1 ! clk $end
$var wire 2 %# cnt_i [1:0] $end
$var wire 32 &# ex_hi [31:0] $end
$var wire 32 '# ex_lo [31:0] $end
$var wire 5 (# ex_waddr [4:0] $end
$var wire 32 )# ex_wdata [31:0] $end
$var wire 1 ; ex_we $end
$var wire 1 < ex_whilo $end
$var wire 64 *# hilo_i [63:0] $end
$var wire 1 % rst $end
$var wire 6 +# stall [5:0] $end
$var reg 2 ,# cnt_o [1:0] $end
$var reg 64 -# hilo_o [63:0] $end
$var reg 32 .# mem_hi [31:0] $end
$var reg 32 /# mem_lo [31:0] $end
$var reg 5 0# mem_waddr [4:0] $end
$var reg 32 1# mem_wdata [31:0] $end
$var reg 1 2# mem_we $end
$var reg 1 3# mem_whilo $end
$upscope $end
$scope module mem0 $end
$var wire 32 4# hi_i [31:0] $end
$var wire 32 5# lo_i [31:0] $end
$var wire 1 % rst $end
$var wire 5 6# waddr_i [4:0] $end
$var wire 32 7# wdata_i [31:0] $end
$var wire 1 W we_i $end
$var wire 1 Y whilo_i $end
$var reg 32 8# hi_o [31:0] $end
$var reg 32 9# lo_o [31:0] $end
$var reg 5 :# waddr_o [4:0] $end
$var reg 32 ;# wdata_o [31:0] $end
$var reg 1 <# we_o $end
$var reg 1 =# whilo_o $end
$upscope $end
$scope module mem_wb0 $end
$var wire 1 ! clk $end
$var wire 32 ># mem_hi [31:0] $end
$var wire 32 ?# mem_lo [31:0] $end
$var wire 5 @# mem_waddr [4:0] $end
$var wire 32 A# mem_wdata [31:0] $end
$var wire 1 X mem_we $end
$var wire 1 Z mem_whilo $end
$var wire 1 % rst $end
$var wire 6 B# stall [5:0] $end
$var reg 32 C# wb_hi [31:0] $end
$var reg 32 D# wb_lo [31:0] $end
$var reg 5 E# wb_waddr [4:0] $end
$var reg 32 F# wb_wdata [31:0] $end
$var reg 1 G# wb_we $end
$var reg 1 H# wb_whilo $end
$upscope $end
$scope module hilo_reg0 $end
$var wire 1 ! clk $end
$var wire 32 I# hi_i [31:0] $end
$var wire 32 J# lo_i [31:0] $end
$var wire 1 % rst $end
$var wire 1 C we $end
$var reg 32 K# hi_o [31:0] $end
$var reg 32 L# lo_o [31:0] $end
$upscope $end
$scope module ctrl0 $end
$var wire 1 % rst $end
$var wire 1 g stallreq_from_ex $end
$var wire 1 h stallreq_from_id $end
$var reg 6 M# stall [5:0] $end
$upscope $end
$scope module div0 $end
$var wire 1 N# annul_i $end
$var wire 1 ! clk $end
$var wire 33 O# div_temp [32:0] $end
$var wire 32 P# opdata1_i [31:0] $end
$var wire 32 Q# opdata2_i [31:0] $end
$var wire 1 % rst $end
$var wire 1 e signed_div_i $end
$var wire 1 . start_i $end
$var wire 32 R# temp_op1 [31:0] $end
$var wire 32 S# temp_op2 [31:0] $end
$var reg 6 T# cnt [5:0] $end
$var reg 64 U# dividend [63:0] $end
$var reg 32 V# divisor [31:0] $end
$var reg 64 W# result_o [63:0] $end
$var reg 1 X# result_ready_o $end
$var reg 2 Y# state [1:0] $end
$upscope $end
$upscope $end
$scope module inst_rom0 $end
$var wire 32 Z# addr [31:0] $end
$var wire 1 $ ce $end
$var reg 32 [# inst [31:0] $end
$upscope $end
$upscope $end
$upscope $end
$scope module openmips_min_sopc_tb $end
$scope module openmips_min_sopc0 $end
$scope module openmips0 $end
$scope module regfile0 $end
$var reg 32 \# \regs[0] [31:0] $end
$upscope $end
$upscope $end
$upscope $end
$upscope $end
$scope module openmips_min_sopc_tb $end
$scope module openmips_min_sopc0 $end
$scope module openmips0 $end
$scope module regfile0 $end
$var reg 32 ]# \regs[1] [31:0] $end
$upscope $end
$upscope $end
$upscope $end
$upscope $end
$scope module openmips_min_sopc_tb $end
$scope module openmips_min_sopc0 $end
$scope module openmips0 $end
$scope module regfile0 $end
$var reg 32 ^# \regs[2] [31:0] $end
$upscope $end
$upscope $end
$upscope $end
$upscope $end
$scope module openmips_min_sopc_tb $end
$scope module openmips_min_sopc0 $end
$scope module openmips0 $end
$scope module regfile0 $end
$var reg 32 _# \regs[3] [31:0] $end
$upscope $end
$upscope $end
$upscope $end
$upscope $end
$scope module openmips_min_sopc_tb $end
$scope module openmips_min_sopc0 $end
$scope module openmips0 $end
$scope module regfile0 $end
$var reg 32 `# \regs[4] [31:0] $end
$upscope $end
$upscope $end
$upscope $end
$upscope $end
$scope module openmips_min_sopc_tb $end
$scope module openmips_min_sopc0 $end
$scope module openmips0 $end
$scope module regfile0 $end
$var reg 32 a# \regs[31] [31:0] $end
$upscope $end
$upscope $end
$upscope $end
$upscope $end
$enddefinitions $end
#0
$dumpvars
bx a#
bx `#
bx _#
bx ^#
bx ]#
bx \#
b0 [#
bx Z#
b0 Y#
0X#
b0 W#
bx V#
bx U#
bx T#
b0 S#
b0 R#
b0 Q#
b0 P#
bx O#
0N#
b0 M#
b0 L#
b0 K#
b0 J#
b0 I#
0H#
0G#
b0 F#
b0 E#
b0 D#
b0 C#
b0 B#
b0 A#
b0 @#
b0 ?#
b0 >#
0=#
0<#
b0 ;#
b0 :#
b0 9#
b0 8#
b0 7#
b0 6#
b0 5#
b0 4#
03#
02#
b0 1#
b0 0#
b0 /#
b0 .#
b0 -#
b0 ,#
b0 +#
b0 *#
b0 )#
b0 (#
b0 '#
b0 &#
b0 %#
0$#
0##
b0 "#
b0 !#
0~"
0}"
0|"
0{"
b0 z"
b0 y"
b0 x"
b0 w"
b0 v"
b0 u"
b0 t"
bx s"
b0 r"
b0 q"
b0 p"
0o"
b0 n"
b0 m"
b0 l"
b0 k"
b0 j"
b0 i"
b0 h"
b0 g"
b0 f"
0e"
b11111111111111111111111111111111 d"
b0 c"
0b"
b0 a"
b0 `"
b0 _"
b0 ^"
b0 ]"
bx \"
b0 ["
b0 Z"
b0 Y"
b0 X"
b0 W"
b0 V"
b0 U"
xT"
0S"
b0 R"
b0 Q"
b0 P"
bx O"
xN"
b0 M"
b0 L"
b0 K"
b0 J"
b0 I"
b0 H"
b0 G"
b0 F"
b0 E"
b0 D"
b0 C"
b0 B"
b0 A"
b0 @"
b0 ?"
0>"
b0 ="
0<"
0;"
b0 :"
b0 9"
08"
b0 7"
b0 6"
05"
b0 4"
03"
02"
b0 1"
b0 0"
0/"
b0 ."
b0 -"
b0 ,"
b0 +"
b0 *"
b0 )"
b0 ("
b1000 '"
b100 &"
b0 %"
b0 $"
b0 #"
b0 ""
b0 !"
b0 ~
b0 }
b0 |
b0 {
b0 z
b0 y
b0 x
b0 w
b0 v
b0 u
b0 t
b0 s
b0 r
bx q
b0 p
bx o
0n
b0 m
b0 l
0k
b0 j
b0 i
0h
0g
b0 f
0e
b0 d
bx c
0b
0a
b0 `
b0 _
b0 ^
b0 ]
bx \
0[
0Z
0Y
0X
0W
b0 V
b0 U
b0 T
b0 S
b0 R
b0 Q
b0 P
b0 O
b0 N
0M
xL
0K
b0 J
b0 I
b0 H
b0 G
b0 F
b0 E
b0 D
0C
b0 B
b0 A
b0 @
b0 ?
b0 >
b0 =
0<
0;
0:
b0 9
b0 8
b0 7
b0 6
b0 5
b0 4
bx 3
x2
b0 1
b0 0
b0 /
0.
0-
b0 ,
b0 +
b0 *
b0 )
b0 (
b0 '
0&
1%
0$
bx #
b0 "
1!
$end
#20000
0!
#30000
b0 o
b0 \
b0 q
b0 #
b0 c
b0 Z#
1!
#40000
0!
#50000
1!
#60000
0!
#70000
1!
#80000
0!
#90000
1!
#100000
0!
#110000
1!
#120000
0!
#130000
1!
#140000
0!
#150000
1!
#160000
0!
#170000
1!
#180000
0!
#190000
1!
#195000
1;"
1b
1>"
1K
b101 -"
b101 D
b101 E"
b10 ."
b10 E
b10 F"
02"
x3"
xM
0%
#200000
0!
#210000
b110100000000111000000000000000 [#
b110100000000111000000000000000 "
b110100000000111000000000000000 d
b110100000000111000000000000000 p
03"
0M
1##
1;
1n
1$
0T"
0L
b0 O"
b0 3
b0 \"
1S"
1:
b10 M"
b10 0
b10 V"
b101 L"
b101 /
b101 U"
1!
#220000
0!
#230000
b1000000000000000 :"
b1000000000000000 I
b1000000000000000 I"
b1000000000000000 1"
18"
1a
b11 9"
b11 ^
b11 @"
b11 ="
b11 J
b11 J"
1<#
1X
0;"
0b
1>"
1K
02"
b10 -"
b10 D
b10 E"
b1 ."
b1 E
b1 F"
b110001110000000000 [#
b110001110000000000 "
b110001110000000000 d
b110001110000000000 p
b1101 }
b11 ""
b11 x
b11 )"
b10000 ~
b10000 *"
b1000000000000000 w
b11111111111111100000000000000000 y
12#
1W
0N"
02
b110100000000111000000000000000 s
b110100000000111000000000000000 F
b110100000000111000000000000000 z
b100 o
b100 \
b100 q
b100 #
b100 c
b100 Z#
1!
#240000
0!
#250000
bx D"
bx `
bx ,"
b10000 7"
b10000 H
b10000 H"
b1000000000000000 :"
b1000000000000000 I
b1000000000000000 I"
b1000000000000000 "#
b1000000000000000 9
b1000000000000000 v
b1000000000000000 )#
1;"
1b
b110100000000010000000000000001 [#
b110100000000010000000000000001 "
b110100000000010000000000000001 d
b110100000000010000000000000001 p
b10000 1"
08"
0a
b11 ="
b11 J
b11 J"
1>"
1K
02"
b101 -"
b101 D
b101 E"
b10 ."
b10 E
b10 F"
b11 !#
b11 8
b11 u
b11 (#
b1000000000000000 v"
b1000000000000000 h"
b1000000000000000 g"
b1000000000000000 a"
b0 }
b11 ~
b11 *"
b10000 #"
b1110000000000 w
b111000000000000 y
b1100 '"
b1000 &"
1e"
b1000 o
b1000 \
b1000 q
b1000 #
b1000 c
b1000 Z#
b110001110000000000 s
b110001110000000000 F
b110001110000000000 z
b100 t
b100 G
b100 %"
b11 R"
b11 7
b11 i"
b1000000000000000 Q"
b1000000000000000 6
b1000000000000000 f"
b1 M"
b1 0
b1 V"
b10 L"
b10 /
b10 U"
1G#
1k
1!
#260000
0!
#270000
b0 7"
b0 H
b0 H"
b0 D"
b0 `
b0 ,"
b1 :"
b1 I
b1 I"
b10000000000000000000 y"
18"
1a
b1 9"
b1 ^
b1 @"
b1 ="
b1 J
b1 J"
b1000000000000000 ;#
b1000000000000000 V
b1000000000000000 |
b1000000000000000 A#
b11 :#
b11 T
b11 {
b11 @#
b10000000000000000000000000000000 "#
b10000000000000000000000000000000 9
b10000000000000000000000000000000 v
b10000000000000000000000000000000 )#
b10000000000000000000000000000000 z"
b0 v"
b1 1"
0;"
0b
1>"
1K
02"
b10 -"
b10 D
b10 E"
b1 ."
b1 E
b1 F"
b10000000000000000000000000100 [#
b10000000000000000000000000100 "
b10000000000000000000000000100 d
b10000000000000000000000000100 p
b10000000000000000000 Z"
b10000 `"
b11111111111111111111111111101111 d"
b1101 }
b1 ""
b1 x
b1 )"
b0 ~
b0 *"
b0 #"
b1 $"
b1 w
b100 y
b10000 '"
b1100 &"
b1000000000000000 1#
b1000000000000000 U
b1000000000000000 7#
b11 0#
b11 S
b11 6#
b10000 P"
b1000000000010000 h"
b10000 5
b10000 c"
b10 M"
b10 0
b10 V"
b101 L"
b101 /
b101 U"
b110100000000010000000000000001 s
b110100000000010000000000000001 F
b110100000000010000000000000001 z
b1000 t
b1000 G
b1000 %"
b1100 o
b1100 \
b1100 q
b1100 #
b1100 c
b1100 Z#
1!
#280000
0!
#290000
15"
1[
1/"
1&
b100000 0"
b100000 '
b100000 l
b0 :"
b0 I
b0 I"
b0 y"
1;"
1b
b0 9"
b0 ^
b0 @"
b110100000000010000000000000010 [#
b110100000000010000000000000010 "
b110100000000010000000000000010 d
b110100000000010000000000000010 p
b0 1"
18"
1a
b0 ="
b0 J
b0 J"
0>"
0K
02"
b101000 -"
b101000 D
b101000 E"
b110 ."
b110 E
b110 F"
b1 "#
b1 9
b1 v
b1 )#
b1 !#
b1 8
b1 u
b1 (#
b0 z"
b1 v"
b10000000000000000000000000000000 ;#
b10000000000000000000000000000000 V
b10000000000000000000000000000000 |
b10000000000000000000000000000000 A#
b1 g"
b1 a"
b0 Z"
b0 `"
b100 }
b0 ""
b0 x
b0 )"
b100 $"
b100 w
b10000 y
b10100 '"
b10000 &"
b11111111111111111111111111111111 d"
b10000 o
b10000 \
b10000 q
b10000 #
b10000 c
b10000 Z#
b10000000000000000000000000100 s
b10000000000000000000000000100 F
b10000000000000000000000000100 z
b1100 t
b1100 G
b1100 %"
b1 R"
b1 7
b1 i"
b1 Q"
b1 6
b1 f"
b0 P"
b1 h"
b0 5
b0 c"
b1 M"
b1 0
b1 V"
b10 L"
b10 /
b10 U"
b10000000000000000000000000000000 1#
b10000000000000000000000000000000 U
b10000000000000000000000000000000 7#
b1000000000000000 F#
b1000000000000000 j
b1000000000000000 B"
b11 E#
b11 i
b11 A"
1!
#300000
0!
#310000
b10 :"
b10 I
b10 I"
b10 1"
b1 ="
b1 J
b1 J"
1>"
1K
b1 9"
b1 ^
b1 @"
b1 ;#
b1 V
b1 |
b1 A#
b1 :#
b1 T
b1 {
b1 @#
13"
1M
b0 "#
b0 9
b0 v
b0 )#
0##
0;
b0 !#
b0 8
b0 u
b0 (#
b0 v"
05"
0[
0/"
0&
b0 0"
b0 '
b0 l
0;"
0b
18"
1a
02"
b10 -"
b10 D
b10 E"
b1 ."
b1 E
b1 F"
b110100000000010000000000000011 [#
b110100000000010000000000000011 "
b110100000000010000000000000011 d
b110100000000010000000000000011 p
b0 h"
b0 g"
b0 a"
0e"
b1101 }
b1 ""
b1 x
b1 )"
b10 $"
b10 w
b1000 y
b11000 '"
b10100 &"
b10000000000000000000000000000000 F#
b10000000000000000000000000000000 j
b10000000000000000000000000000000 B"
b1 1#
b1 U
b1 7#
b1 0#
b1 S
b1 6#
1T"
1L
0S"
0:
b0 R"
b0 7
b0 i"
b0 Q"
b0 6
b0 f"
b110 M"
b110 0
b110 V"
b101000 L"
b101000 /
b101000 U"
b1000000000000000 _#
b110100000000010000000000000010 s
b110100000000010000000000000010 F
b110100000000010000000000000010 z
b10000 t
b10000 G
b10000 %"
b100000 o
b100000 \
b100000 q
b100000 #
b100000 c
b100000 Z#
1!
#320000
0!
#330000
b10 "#
b10 9
b10 v
b10 )#
b11 :"
b11 I
b11 I"
b100000100010000000000001010 [#
b100000100010000000000001010 "
b100000100010000000000001010 d
b100000100010000000000001010 p
b11 1"
18"
1a
b1 ="
b1 J
b1 J"
1>"
1K
02"
b10 -"
b10 D
b10 E"
b1 ."
b1 E
b1 F"
03"
0M
1##
1;
b1 !#
b1 8
b1 u
b1 (#
b10 v"
b0 ;#
b0 V
b0 |
b0 A#
0<#
0X
b0 :#
b0 T
b0 {
b0 @#
b10 h"
b10 g"
b10 a"
b11 $"
b11 w
b1100 y
b101000 '"
b100100 &"
1e"
b100100 o
b100100 \
b100100 q
b100100 #
b100100 c
b100100 Z#
b110100000000010000000000000011 s
b110100000000010000000000000011 F
b110100000000010000000000000011 z
b100000 t
b100000 G
b100000 %"
b10000000000000000000000000000000 _#
0T"
0L
1N"
12
1S"
1:
b1 R"
b1 7
b1 i"
b10 Q"
b10 6
b10 f"
b1 M"
b1 0
b1 V"
b10 L"
b10 /
b10 U"
b0 1#
b0 U
b0 7#
02#
0W
b0 0#
b0 S
b0 6#
b1 F#
b1 j
b1 B"
b1 E#
b1 i
b1 A"
1!
#340000
0!
#350000
b11 "#
b11 9
b11 v
b11 )#
b0 :"
b0 I
b0 I"
15"
1[
1/"
1&
b1010000 0"
b1010000 '
b1010000 l
b101100 4"
b101100 N
b101100 G"
b10001 9"
b10001 ^
b10001 @"
b10 ;#
b10 V
b10 |
b10 A#
1<#
1X
b1 :#
b1 T
b1 {
b1 @#
b11 v"
b0 1"
18"
1a
b11111 ="
b11111 J
b11111 J"
1>"
1K
02"
b101111 -"
b101111 D
b101111 E"
b110 ."
b110 E
b110 F"
b11111000010000000000011010 [#
b11111000010000000000011010 "
b11111000010000000000011010 d
b11111000010000000000011010 p
b11 h"
b11 g"
b11 a"
b1 }
b10001 ""
b10001 x
b10001 )"
b1010 $"
b1010 w
b101000 y
b101100 '"
b101000 &"
b0 F#
b0 j
b0 B"
0G#
0k
b0 E#
b0 i
b0 A"
b10 1#
b10 U
b10 7#
12#
1W
b1 0#
b1 S
b1 6#
0N"
02
b11 Q"
b11 6
b11 f"
b1 ]#
b100000100010000000000001010 s
b100000100010000000000001010 F
b100000100010000000000001010 z
b100100 t
b100100 G
b100100 %"
b101000 o
b101000 \
b101000 q
b101000 #
b101000 c
b101000 Z#
1!
#360000
0!
#370000
b10 D"
b10 `
b10 ,"
bx C"
bx _
bx +"
b101100 7"
b101100 H
b101100 H"
b11 :"
b11 I
b11 I"
1;"
1b
b1 9"
b1 ^
b1 @"
b11111 6"
b11111 ]
b11111 ?"
b110100000000010000000000000100 [#
b110100000000010000000000000100 "
b110100000000010000000000000100 d
b110100000000010000000000000100 p
05"
0[
0/"
0&
b0 0"
b0 '
b0 l
b0 4"
b0 N
b0 G"
18"
1a
b0 ="
b0 J
b0 J"
0>"
0K
02"
b100001 -"
b100001 D
b100001 E"
b0 ."
b0 E
b0 F"
13"
1M
b101100 "#
b101100 9
b101100 v
b101100 )#
b11111 !#
b11111 8
b11111 u
b11111 (#
b0 v"
b11 ;#
b11 V
b11 |
b11 A#
b0 h"
b0 g"
b0 a"
b0 }
b11111 !"
b11111 ("
b1 ""
b1 x
b1 )"
b11010 $"
b11010 w
b1101000 y
b110000 '"
b101100 &"
0e"
b1010000 o
b1010000 \
b1010000 q
b1010000 #
b1010000 c
b1010000 Z#
b11111000010000000000011010 s
b11111000010000000000011010 F
b11111000010000000000011010 z
b101000 t
b101000 G
b101000 %"
1T"
1L
b101100 O"
b101100 3
b101100 \"
b11111 R"
b11111 7
b11111 i"
b0 Q"
b0 6
b0 f"
b110 M"
b110 0
b110 V"
b101111 L"
b101111 /
b101111 U"
b11 1#
b11 U
b11 7#
b10 F#
b10 j
b10 B"
1G#
1k
b1 E#
b1 i
b1 A"
1!
#380000
0!
#390000
b1111 M#
b1111 f
b1111 m
b1111 r
b1111 K"
b1111 +#
b1111 B#
b100 :"
b100 I
b100 I"
b0 C"
b0 _
b0 +"
b0 7"
b0 H
b0 H"
b11 S#
b101100 R#
1|"
1g
b10000100 y"
b100 1"
b1 ="
b1 J
b1 J"
1>"
1K
b1 ."
b1 E
b1 F"
b0 6"
b0 ]
b0 ?"
b101100 ;#
b101100 V
b101100 |
b101100 A#
b11111 :#
b11111 T
b11111 {
b11111 @#
03"
0M
b0 "#
b0 9
b0 v
b0 )#
0##
0;
b0 !#
b0 8
b0 u
b0 (#
1$#
1<
1}"
1{"
1e
1o"
1.
b11 n"
b11 +
b11 Q#
b101100 m"
b101100 *
b101100 P#
b0 D"
b0 `
b0 ,"
0;"
0b
18"
1a
02"
b10 -"
b10 D
b10 E"
b10000011000110000000000001010 [#
b10000011000110000000000001010 "
b10000011000110000000000001010 d
b10000011000110000000000001010 p
b11 g"
b10000100 Z"
b11 a"
b101100 `"
b11111111111111111111111111010011 d"
b1101 }
b0 !"
b0 ("
b100 $"
b100 w
b10000 y
b1011000 '"
b1010100 &"
b11 F#
b11 j
b11 B"
b101100 1#
b101100 U
b101100 7#
b11111 0#
b11111 S
b11111 6#
0T"
0L
1N"
12
b0 O"
b0 3
b0 \"
0S"
0:
b0 R"
b0 7
b0 i"
b11 Q"
b11 6
b11 f"
b101100 P"
b101111 h"
b101100 5
b101100 c"
b0 M"
b0 0
b0 V"
b100001 L"
b100001 /
b100001 U"
b10 ]#
b110100000000010000000000000100 s
b110100000000010000000000000100 F
b110100000000010000000000000100 z
b1010000 t
b1010000 G
b1010000 %"
b1010100 o
b1010100 \
b1010100 q
b1010100 #
b1010100 c
b1010100 Z#
1!
#400000
0!
#410000
b0 ;#
b0 V
b0 |
b0 A#
0<#
0X
b0 :#
b0 T
b0 {
b0 @#
b111111111111111111111111111111101 O#
b11 ]#
b0 1#
b0 U
b0 7#
02#
0W
b0 0#
b0 S
b0 6#
b101100 F#
b101100 j
b101100 B"
b11111 E#
b11111 i
b11111 A"
b11 V#
b101100 U#
b0 T#
b1 Y#
1!
#420000
0!
