cpu-code/openmips_min_sopc.vcd
$date
	Sun Apr 19 21:34:15 2015
$end
$version
	Icarus Verilog
$end
$timescale
	1ps
$end
$scope module openmips_min_sopc_tb $end
$scope module openmips_min_sopc0 $end
$var wire 1 ! clk $end
$var wire 32 " inst [31:0] $end
$var wire 32 # inst_addr [31:0] $end
$var wire 1 $ rom_ce $end
$var wire 1 % rst $end
$scope module openmips0 $end
$var wire 1 ! clk $end
$var wire 8 & ex_aluop_i [7:0] $end
$var wire 3 ' ex_alusel_i [2:0] $end
$var wire 32 ( ex_hi_o [31:0] $end
$var wire 32 ) ex_lo_o [31:0] $end
$var wire 32 * ex_reg1_i [31:0] $end
$var wire 32 + ex_reg2_i [31:0] $end
$var wire 5 , ex_waddr_i [4:0] $end
$var wire 5 - ex_waddr_o [4:0] $end
$var wire 32 . ex_wdata_o [31:0] $end
$var wire 1 / ex_we_i $end
$var wire 1 0 ex_we_o $end
$var wire 1 1 ex_whilo_o $end
$var wire 32 2 hilo_hi_i [31:0] $end
$var wire 32 3 hilo_hi_o [31:0] $end
$var wire 32 4 hilo_lo_i [31:0] $end
$var wire 32 5 hilo_lo_o [31:0] $end
$var wire 1 6 hilo_whilo_i $end
$var wire 8 7 id_aluop_o [7:0] $end
$var wire 3 8 id_alusel_o [2:0] $end
$var wire 32 9 id_inst_i [31:0] $end
$var wire 32 : id_pc_i [31:0] $end
$var wire 32 ; id_reg1_o [31:0] $end
$var wire 32 < id_reg2_o [31:0] $end
$var wire 5 = id_waddr_o [4:0] $end
$var wire 1 > id_we_o $end
$var wire 32 ? mem_hi_i [31:0] $end
$var wire 32 @ mem_hi_o [31:0] $end
$var wire 32 A mem_lo_i [31:0] $end
$var wire 32 B mem_lo_o [31:0] $end
$var wire 5 C mem_waddr_i [4:0] $end
$var wire 5 D mem_waddr_o [4:0] $end
$var wire 32 E mem_wdata_i [31:0] $end
$var wire 32 F mem_wdata_o [31:0] $end
$var wire 1 G mem_we_i $end
$var wire 1 H mem_we_o $end
$var wire 1 I mem_whilo_i $end
$var wire 1 J mem_whilo_o $end
$var wire 32 K pc [31:0] $end
$var wire 5 L reg_raddr1 [4:0] $end
$var wire 5 M reg_raddr2 [4:0] $end
$var wire 32 N reg_rdata1 [31:0] $end
$var wire 32 O reg_rdata2 [31:0] $end
$var wire 1 P reg_re1 $end
$var wire 1 Q reg_re2 $end
$var wire 32 R rom_addr_o [31:0] $end
$var wire 1 $ rom_ce_o $end
$var wire 32 S rom_data_i [31:0] $end
$var wire 1 % rst $end
$var wire 5 T wb_waddr_i [4:0] $end
$var wire 32 U wb_wdata_i [31:0] $end
$var wire 1 V wb_we_i $end
$scope module pc_reg0 $end
$var wire 1 ! clk $end
$var wire 1 % rst $end
$var reg 1 W ce $end
$var reg 32 X pc [31:0] $end
$upscope $end
$scope module if_id0 $end
$var wire 1 ! clk $end
$var wire 32 Y if_inst [31:0] $end
$var wire 32 Z if_pc [31:0] $end
$var wire 1 % rst $end
$var reg 32 [ id_inst [31:0] $end
$var reg 32 \ id_pc [31:0] $end
$upscope $end
$scope module id0 $end
$var wire 5 ] ex_waddr_i [4:0] $end
$var wire 32 ^ ex_wdata_i [31:0] $end
$var wire 1 0 ex_we_i $end
$var wire 16 _ i_imm [15:0] $end
$var wire 5 ` i_write_address [4:0] $end
$var wire 32 a inst_i [31:0] $end
$var wire 5 b mem_waddr_i [4:0] $end
$var wire 32 c mem_wdata_i [31:0] $end
$var wire 1 H mem_we_i $end
$var wire 6 d op_class [5:0] $end
$var wire 5 e op_rd [4:0] $end
$var wire 5 f op_rs [4:0] $end
$var wire 5 g op_rt [4:0] $end
$var wire 5 h op_sa [4:0] $end
$var wire 6 i op_subclass [5:0] $end
$var wire 32 j pc_i [31:0] $end
$var wire 5 k r_read1_address [4:0] $end
$var wire 5 l r_read2_address [4:0] $end
$var wire 5 m r_write_address [4:0] $end
$var wire 32 n reg1_data_i [31:0] $end
$var wire 32 o reg2_data_i [31:0] $end
$var wire 1 % rst $end
$var reg 8 p aluop_o [7:0] $end
$var reg 3 q alusel_o [2:0] $end
$var reg 32 r imm [31:0] $end
$var reg 1 s instvalid $end
$var reg 5 t reg1_addr_o [4:0] $end
$var reg 32 u reg1_o [31:0] $end
$var reg 1 v reg1_re_o $end
$var reg 5 w reg2_addr_o [4:0] $end
$var reg 32 x reg2_o [31:0] $end
$var reg 1 y reg2_re_o $end
$var reg 5 z waddr_o [4:0] $end
$var reg 1 { we_o $end
$upscope $end
$scope module regfile0 $end
$var wire 1 ! clk $end
$var wire 5 | raddr1 [4:0] $end
$var wire 5 } raddr2 [4:0] $end
$var wire 1 P re1 $end
$var wire 1 Q re2 $end
$var wire 1 % rst $end
$var wire 5 ~ waddr [4:0] $end
$var wire 32 !" wdata [31:0] $end
$var wire 1 V we $end
$var reg 32 "" rdata1 [31:0] $end
$var reg 32 #" rdata2 [31:0] $end
$upscope $end
$scope module id_ex0 $end
$var wire 1 ! clk $end
$var wire 8 $" id_aluop [7:0] $end
$var wire 3 %" id_alusel [2:0] $end
$var wire 32 &" id_reg1 [31:0] $end
$var wire 32 '" id_reg2 [31:0] $end
$var wire 5 (" id_waddr [4:0] $end
$var wire 1 > id_we $end
$var wire 1 % rst $end
$var reg 8 )" ex_aluop [7:0] $end
$var reg 3 *" ex_alusel [2:0] $end
$var reg 32 +" ex_reg1 [31:0] $end
$var reg 32 ," ex_reg2 [31:0] $end
$var reg 5 -" ex_waddr [4:0] $end
$var reg 1 ." ex_we $end
$upscope $end
$scope module ex0 $end
$var wire 8 /" aluop_i [7:0] $end
$var wire 3 0" alusel_i [2:0] $end
$var wire 32 1" hi_i [31:0] $end
$var wire 64 2" hilo_temp [63:0] $end
$var wire 32 3" lo_i [31:0] $end
$var wire 32 4" mem_hi_i [31:0] $end
$var wire 32 5" mem_lo_i [31:0] $end
$var wire 1 J mem_whilo_i $end
$var wire 32 6" opdata1_mult [31:0] $end
$var wire 32 7" opdata2_mult [31:0] $end
$var wire 1 8" overflow_sum $end
$var wire 32 9" reg1_i [31:0] $end
$var wire 32 :" reg1_i_not [31:0] $end
$var wire 1 ;" reg1_lt_reg2 $end
$var wire 32 <" reg2_i [31:0] $end
$var wire 32 =" reg2_i_mux [31:0] $end
$var wire 32 >" result_sum [31:0] $end
$var wire 1 % rst $end
$var wire 5 ?" waddr_i [4:0] $end
$var wire 32 @" wb_hi_i [31:0] $end
$var wire 32 A" wb_lo_i [31:0] $end
$var wire 1 6 wb_whilo_i $end
$var wire 1 / we_i $end
$var reg 32 B" hi_i_reg [31:0] $end
$var reg 32 C" hi_o [31:0] $end
$var reg 32 D" lo_i_reg [31:0] $end
$var reg 32 E" lo_o [31:0] $end
$var reg 32 F" logicout [31:0] $end
$var reg 32 G" mathout [31:0] $end
$var reg 32 H" moveout [31:0] $end
$var reg 64 I" mulout [63:0] $end
$var reg 32 J" shiftout [31:0] $end
$var reg 5 K" waddr_o [4:0] $end
$var reg 32 L" wdata_o [31:0] $end
$var reg 1 M" we_o $end
$var reg 1 N" whilo_o $end
$upscope $end
$scope module ex_mem0 $end
$var wire 1 ! clk $end
$var wire 32 O" ex_hi [31:0] $end
$var wire 32 P" ex_lo [31:0] $end
$var wire 5 Q" ex_waddr [4:0] $end
$var wire 32 R" ex_wdata [31:0] $end
$var wire 1 0 ex_we $end
$var wire 1 1 ex_whilo $end
$var wire 1 % rst $end
$var reg 32 S" mem_hi [31:0] $end
$var reg 32 T" mem_lo [31:0] $end
$var reg 5 U" mem_waddr [4:0] $end
$var reg 32 V" mem_wdata [31:0] $end
$var reg 1 W" mem_we $end
$var reg 1 X" mem_whilo $end
$upscope $end
$scope module mem0 $end
$var wire 32 Y" hi_i [31:0] $end
$var wire 32 Z" lo_i [31:0] $end
$var wire 1 % rst $end
$var wire 5 [" waddr_i [4:0] $end
$var wire 32 \" wdata_i [31:0] $end
$var wire 1 G we_i $end
$var wire 1 I whilo_i $end
$var reg 32 ]" hi_o [31:0] $end
$var reg 32 ^" lo_o [31:0] $end
$var reg 5 _" waddr_o [4:0] $end
$var reg 32 `" wdata_o [31:0] $end
$var reg 1 a" we_o $end
$var reg 1 b" whilo_o $end
$upscope $end
$scope module mem_wb0 $end
$var wire 1 ! clk $end
$var wire 32 c" mem_hi [31:0] $end
$var wire 32 d" mem_lo [31:0] $end
$var wire 5 e" mem_waddr [4:0] $end
$var wire 32 f" mem_wdata [31:0] $end
$var wire 1 H mem_we $end
$var wire 1 J mem_whilo $end
$var wire 1 % rst $end
$var reg 32 g" wb_hi [31:0] $end
$var reg 32 h" wb_lo [31:0] $end
$var reg 5 i" wb_waddr [4:0] $end
$var reg 32 j" wb_wdata [31:0] $end
$var reg 1 k" wb_we $end
$var reg 1 l" wb_whilo $end
$upscope $end
$scope module hilo_reg0 $end
$var wire 1 ! clk $end
$var wire 32 m" hi_i [31:0] $end
$var wire 32 n" lo_i [31:0] $end
$var wire 1 % rst $end
$var wire 1 6 we $end
$var reg 32 o" hi_o [31:0] $end
$var reg 32 p" lo_o [31:0] $end
$upscope $end
$upscope $end
$scope module inst_rom0 $end
$var wire 32 q" addr [31:0] $end
$var wire 1 $ ce $end
$var reg 32 r" inst [31:0] $end
$upscope $end
$upscope $end
$upscope $end
$scope module openmips_min_sopc_tb $end
$scope module openmips_min_sopc0 $end
$scope module openmips0 $end
$scope module regfile0 $end
$var reg 32 s" \regs[0] [31:0] $end
$upscope $end
$upscope $end
$upscope $end
$upscope $end
$scope module openmips_min_sopc_tb $end
$scope module openmips_min_sopc0 $end
$scope module openmips0 $end
$scope module regfile0 $end
$var reg 32 t" \regs[1] [31:0] $end
$upscope $end
$upscope $end
$upscope $end
$upscope $end
$scope module openmips_min_sopc_tb $end
$scope module openmips_min_sopc0 $end
$scope module openmips0 $end
$scope module regfile0 $end
$var reg 32 u" \regs[2] [31:0] $end
$upscope $end
$upscope $end
$upscope $end
$upscope $end
$scope module openmips_min_sopc_tb $end
$scope module openmips_min_sopc0 $end
$scope module openmips0 $end
$scope module regfile0 $end
$var reg 32 v" \regs[3] [31:0] $end
$upscope $end
$upscope $end
$upscope $end
$upscope $end
$scope module openmips_min_sopc_tb $end
$scope module openmips_min_sopc0 $end
$scope module openmips0 $end
$scope module regfile0 $end
$var reg 32 w" \regs[4] [31:0] $end
$upscope $end
$upscope $end
$upscope $end
$upscope $end
$enddefinitions $end
#0
$dumpvars
bx w"
bx v"
bx u"
bx t"
bx s"
b0 r"
b0 q"
b0 p"
b0 o"
b0 n"
b0 m"
0l"
0k"
b0 j"
b0 i"
b0 h"
b0 g"
b0 f"
b0 e"
b0 d"
b0 c"
0b"
0a"
b0 `"
b0 _"
b0 ^"
b0 ]"
b0 \"
b0 ["
b0 Z"
b0 Y"
0X"
0W"
b0 V"
b0 U"
b0 T"
b0 S"
b0 R"
b0 Q"
b0 P"
b0 O"
0N"
0M"
b0 L"
b0 K"
b0 J"
b0 I"
b0 H"
b0 G"
b0 F"
b0 E"
b0 D"
b0 C"
b0 B"
b0 A"
b0 @"
b0 ?"
b0 >"
b0 ="
b0 <"
0;"
b11111111111111111111111111111111 :"
b0 9"
08"
b0 7"
b0 6"
b0 5"
b0 4"
b0 3"
b0 2"
b0 1"
b0 0"
b0 /"
0."
b0 -"
b0 ,"
b0 +"
b0 *"
b0 )"
b0 ("
b0 '"
b0 &"
b0 %"
b0 $"
b0 #"
b0 ""
b0 !"
b0 ~
b0 }
b0 |
0{
b0 z
0y
b0 x
b0 w
0v
b0 u
b0 t
0s
b0 r
b0 q
b0 p
b0 o
b0 n
b0 m
b0 l
b0 k
b0 j
b0 i
b0 h
b0 g
b0 f
b0 e
b0 d
b0 c
b0 b
b0 a
b0 `
b0 _
b0 ^
b0 ]
b0 \
b0 [
b0 Z
b0 Y
b0 X
0W
0V
b0 U
b0 T
b0 S
b0 R
0Q
0P
b0 O
b0 N
b0 M
b0 L
b0 K
0J
0I
0H
0G
b0 F
b0 E
b0 D
b0 C
b0 B
b0 A
b0 @
b0 ?
0>
b0 =
b0 <
b0 ;
b0 :
b0 9
b0 8
b0 7
06
b0 5
b0 4
b0 3
b0 2
01
00
0/
b0 .
b0 -
b0 ,
b0 +
b0 *
b0 )
b0 (
b0 '
b0 &
1%
0$
b0 #
b0 "
1!
$end
#20000
0!
#30000
1!
#40000
0!
#50000
1!
#60000
0!
#70000
1!
#80000
0!
#90000
1!
#100000
0!
#110000
1!
#120000
0!
#130000
1!
#140000
0!
#150000
1!
#160000
0!
#170000
1!
#180000
0!
#190000
1!
#195000
1y
1Q
1{
1>
b101 p
b101 7
b101 $"
b10 q
b10 8
b10 %"
0s
0%
#200000
0!
#210000
b110100000000011000000000000000 r"
b110100000000011000000000000000 "
b110100000000011000000000000000 S
b110100000000011000000000000000 Y
1M"
10
1W
1$
1."
1/
b10 *"
b10 '
b10 0"
b101 )"
b101 &
b101 /"
1!
#220000
0!
#230000
b1000000000000000 x
b1000000000000000 <
b1000000000000000 '"
b1000000000000000 r
1v
1P
b1 w
b1 M
b1 }
0y
0Q
b1 z
b1 =
b1 ("
1{
1>
0s
b10 p
b10 7
b10 $"
b1 q
b1 8
b1 %"
1a"
1H
b10000110000000000 r"
b10000110000000000 "
b10000110000000000 S
b10000110000000000 Y
b1101 d
b1 g
b1 `
b1 l
b10000 e
b10000 m
b1000000000000000 _
1W"
1G
b110100000000011000000000000000 [
b110100000000011000000000000000 9
b110100000000011000000000000000 a
b100 X
b100 K
b100 Z
b100 #
b100 R
b100 q"
1!
#240000
0!
#250000
bx #"
bx O
bx o
b10000 u
b10000 ;
b10000 &"
b1000000000000000 x
b1000000000000000 <
b1000000000000000 '"
b1000000000000000 L"
b1000000000000000 .
b1000000000000000 ^
b1000000000000000 R"
1y
1Q
b10000 r
0v
0P
1{
1>
0s
b101 p
b101 7
b101 $"
b10 q
b10 8
b10 %"
b110100001000010000000000010000 r"
b110100001000010000000000010000 "
b110100001000010000000000010000 S
b110100001000010000000000010000 Y
b1 K"
b1 -
b1 ]
b1 Q"
b1000000000000000 F"
b1000000000000000 >"
b1000000000000000 ="
b1000000000000000 7"
b0 d
b1 e
b1 m
b10000 h
b110000000000 _
1;"
b1000 X
b1000 K
b1000 Z
b1000 #
b1000 R
b1000 q"
b10000110000000000 [
b10000110000000000 9
b10000110000000000 a
b100 \
b100 :
b100 j
b1 -"
b1 ,
b1 ?"
b1000000000000000 ,"
b1000000000000000 +
b1000000000000000 <"
b1 *"
b1 '
b1 0"
b10 )"
b10 &
b10 /"
1k"
1V
1!
#260000
0!
#270000
bx ""
bx N
bx n
b0 #"
b0 O
b0 o
b10000000000000000000000000000000 u
b10000000000000000000000000000000 ;
b10000000000000000000000000000000 &"
b10000 x
b10000 <
b10000 '"
b10000000000000000000 I"
1v
1P
b10000 r
b1 t
b1 L
b1 |
0y
0Q
b1 z
b1 =
b1 ("
1{
1>
0s
b10 p
b10 7
b10 $"
b1 q
b1 8
b1 %"
b1000000000000000 `"
b1000000000000000 F
b1000000000000000 c
b1000000000000000 f"
b1 _"
b1 D
b1 b
b1 e"
b10000000000000000000000000000000 L"
b10000000000000000000000000000000 .
b10000000000000000000000000000000 ^
b10000000000000000000000000000000 R"
b10000000000000000000000000000000 J"
b0 F"
b110100000000101000000000000000 r"
b110100000000101000000000000000 "
b110100000000101000000000000000 S
b110100000000101000000000000000 Y
b10000000000000000000 2"
b10000 6"
b11111111111111111111111111101111 :"
b1101 d
b1 f
b1 k
b0 e
b0 m
b0 h
b10000 i
b10000 _
b1000000000000000 V"
b1000000000000000 E
b1000000000000000 \"
b1 U"
b1 C
b1 ["
b10000 +"
b1000000000010000 >"
b10000 *
b10000 9"
b10 *"
b10 '
b10 0"
b101 )"
b101 &
b101 /"
b110100001000010000000000010000 [
b110100001000010000000000010000 9
b110100001000010000000000010000 a
b1000 \
b1000 :
b1000 j
b1100 X
b1100 K
b1100 Z
b1100 #
b1100 R
b1100 q"
1!
#280000
0!
#290000
b1000000000000000 x
b1000000000000000 <
b1000000000000000 '"
b0 u
b0 ;
b0 &"
b100000000000000000000000000000000000 I"
b1000000000000000 r
b10 w
b10 M
b10 }
b0 t
b0 L
b0 |
1v
1P
b10 z
b10 =
b10 ("
1{
1>
0s
b10 p
b10 7
b10 $"
b1 q
b1 8
b1 %"
b100001010000000000 r"
b100001010000000000 "
b100001010000000000 S
b100001010000000000 Y
b10000000000000000000000000010000 L"
b10000000000000000000000000010000 .
b10000000000000000000000000010000 ^
b10000000000000000000000000010000 R"
b0 J"
b10000000000000000000000000010000 F"
b10000000000000000000000000000000 `"
b10000000000000000000000000000000 F
b10000000000000000000000000000000 c
b10000000000000000000000000000000 f"
b0 ""
b0 N
b0 n
b10000 ="
b10000 7"
b100000000000000000000000000000000000 2"
b10000000000000000000000000000000 6"
b0 f
b0 k
b10 g
b10 `
b10 l
b10000 e
b10000 m
b0 i
b1000000000000000 _
b1111111111111111111111111111111 :"
0;"
b10000 X
b10000 K
b10000 Z
b10000 #
b10000 R
b10000 q"
b110100000000101000000000000000 [
b110100000000101000000000000000 9
b110100000000101000000000000000 a
b1100 \
b1100 :
b1100 j
b10000 ,"
b10000 +
b10000 <"
b10000000000000000000000000000000 +"
b10000000000000000000000000010000 >"
b10000000000000000000000000000000 *
b10000000000000000000000000000000 9"
b1 *"
b1 '
b1 0"
b10 )"
b10 &
b10 /"
b10000000000000000000000000000000 V"
b10000000000000000000000000000000 E
b10000000000000000000000000000000 \"
b1000000000000000 j"
b1000000000000000 U
b1000000000000000 !"
b1 i"
b1 T
b1 ~
1!
#300000
0!
#310000
bx #"
bx O
bx o
b10000 u
b10000 ;
b10000 &"
b1000000000000000 x
b1000000000000000 <
b1000000000000000 '"
b1000000000000000 L"
b1000000000000000 .
b1000000000000000 ^
b1000000000000000 R"
b0 I"
1y
1Q
b10000 r
0v
0P
1{
1>
0s
b101 p
b101 7
b101 $"
b10 q
b10 8
b10 %"
b10000000000000000000000000010000 `"
b10000000000000000000000000010000 F
b10000000000000000000000000010000 c
b10000000000000000000000000010000 f"
b10 K"
b10 -
b10 ]
b10 Q"
b1000000000000000 F"
b110100010000100000000000000001 r"
b110100010000100000000000000001 "
b110100010000100000000000000001 S
b110100010000100000000000000001 Y
b1000000000000000 ="
b1000000000000000 7"
b0 2"
b0 6"
b11111111111111111111111111111111 :"
1;"
b0 d
b10 e
b10 m
b10000 h
b1010000000000 _
b10000000000000000000000000000000 j"
b10000000000000000000000000000000 U
b10000000000000000000000000000000 !"
b10000000000000000000000000010000 V"
b10000000000000000000000000010000 E
b10000000000000000000000000010000 \"
b10 -"
b10 ,
b10 ?"
b1000000000000000 ,"
b1000000000000000 +
b1000000000000000 <"
b0 +"
b1000000000000000 >"
b0 *
b0 9"
b1000000000000000 t"
b100001010000000000 [
b100001010000000000 9
b100001010000000000 a
b10000 \
b10000 :
b10000 j
b10100 X
b10100 K
b10100 Z
b10100 #
b10100 R
b10100 q"
1!
#320000
0!
#330000
bx ""
bx N
bx n
b0 #"
b0 O
b0 o
b10000000000000000000000000000000 u
b10000000000000000000000000000000 ;
b10000000000000000000000000000000 &"
b1 x
b1 <
b1 '"
b10000000000000000000 I"
1v
1P
b1 r
b10 t
b10 L
b10 |
0y
0Q
b10 z
b10 =
b10 ("
1{
1>
0s
b10 p
b10 7
b10 $"
b1 q
b1 8
b1 %"
b110100000000110000000000000000 r"
b110100000000110000000000000000 "
b110100000000110000000000000000 S
b110100000000110000000000000000 Y
b10000000000000000000000000000000 L"
b10000000000000000000000000000000 .
b10000000000000000000000000000000 ^
b10000000000000000000000000000000 R"
b10000000000000000000000000000000 J"
b0 F"
b1000000000000000 `"
b1000000000000000 F
b1000000000000000 c
b1000000000000000 f"
b10 _"
b10 D
b10 b
b10 e"
b10000000000000000000 2"
b10000 6"
b1101 d
b10 f
b10 k
b0 e
b0 m
b0 h
b1 i
b1 _
b11111111111111111111111111101111 :"
b11000 X
b11000 K
b11000 Z
b11000 #
b11000 R
b11000 q"
b110100010000100000000000000001 [
b110100010000100000000000000001 9
b110100010000100000000000000001 a
b10100 \
b10100 :
b10100 j
b10000000000000000000000000000000 t"
b10000 +"
b1000000000010000 >"
b10000 *
b10000 9"
b10 *"
b10 '
b10 0"
b101 )"
b101 &
b101 /"
b1000000000000000 V"
b1000000000000000 E
b1000000000000000 \"
b10 U"
b10 C
b10 ["
b10000000000000000000000000010000 j"
b10000000000000000000000000010000 U
b10000000000000000000000000010000 !"
1!
#340000
0!
#350000
b0 x
b0 <
b0 '"
b0 u
b0 ;
b0 &"
b10000000000000000000000000000000 I"
b0 r
b11 w
b11 M
b11 }
b0 t
b0 L
b0 |
1v
1P
b11 z
b11 =
b11 ("
1{
1>
0s
b10 p
b10 7
b10 $"
b1 q
b1 8
b1 %"
b10000000000000000000000000000000 `"
b10000000000000000000000000000000 F
b10000000000000000000000000000000 c
b10000000000000000000000000000000 f"
b10000000000000000000000000000001 L"
b10000000000000000000000000000001 .
b10000000000000000000000000000001 ^
b10000000000000000000000000000001 R"
b0 J"
b10000000000000000000000000000001 F"
b0 ""
b0 N
b0 n
b10000010001100000100001 r"
b10000010001100000100001 "
b10000010001100000100001 S
b10000010001100000100001 Y
b1 ="
b1 7"
b10000000000000000000000000000000 2"
b10000000000000000000000000000000 6"
b1111111111111111111111111111111 :"
0;"
b0 f
b0 k
b11 g
b11 `
b11 l
b0 i
b0 _
b1000000000000000 j"
b1000000000000000 U
b1000000000000000 !"
b10 i"
b10 T
b10 ~
b10000000000000000000000000000000 V"
b10000000000000000000000000000000 E
b10000000000000000000000000000000 \"
b1 ,"
b1 +
b1 <"
b10000000000000000000000000000000 +"
b10000000000000000000000000000001 >"
b10000000000000000000000000000000 *
b10000000000000000000000000000000 9"
b1 *"
b1 '
b1 0"
b10 )"
b10 &
b10 /"
b10000000000000000000000000010000 t"
b110100000000110000000000000000 [
b110100000000110000000000000000 9
b110100000000110000000000000000 a
b11000 \
b11000 :
b11000 j
b11100 X
b11100 K
b11100 Z
b11100 #
b11100 R
b11100 q"
1!
#360000
0!
#370000
b10000000000000000000000000010000 x
b10000000000000000000000000010000 <
b10000000000000000000000000010000 '"
b10000000000000000000000000010000 #"
b10000000000000000000000000010000 O
b10000000000000000000000000010000 o
b10000000000000000000000000000000 ""
b10000000000000000000000000000000 N
b10000000000000000000000000000000 n
b0 L"
b0 .
b0 ^
b0 R"
b10000000000000000000000000000001 u
b10000000000000000000000000000001 ;
b10000000000000000000000000000001 &"
b0 I"
1y
1Q
b1 w
b1 M
b1 }
b10 t
b10 L
b10 |
1v
1P
1{
1>
0s
b10001 p
b10001 7
b10001 $"
b100 q
b100 8
b100 %"
b110100000000110000000000000000 r"
b110100000000110000000000000000 "
b110100000000110000000000000000 S
b110100000000110000000000000000 Y
b11 K"
b11 -
b11 ]
b11 Q"
b0 F"
b10000000000000000000000000000001 `"
b10000000000000000000000000000001 F
b10000000000000000000000000000001 c
b10000000000000000000000000000001 f"
b0 ="
b0 7"
b0 2"
b0 6"
b0 d
b10 f
b10 k
b1 g
b1 `
b1 l
b11 e
b11 m
b100001 i
b1100000100001 _
b11111111111111111111111111111111 :"
b100000 X
b100000 K
b100000 Z
b100000 #
b100000 R
b100000 q"
b10000010001100000100001 [
b10000010001100000100001 9
b10000010001100000100001 a
b11100 \
b11100 :
b11100 j
b1000000000000000 u"
b11 -"
b11 ,
b11 ?"
b0 ,"
b0 +
b0 <"
b0 +"
b0 >"
b0 *
b0 9"
b10000000000000000000000000000001 V"
b10000000000000000000000000000001 E
b10000000000000000000000000000001 \"
b10000000000000000000000000000000 j"
b10000000000000000000000000000000 U
b10000000000000000000000000000000 !"
1!
#380000
0!
#390000
b0 u
b0 ;
b0 &"
b0 #"
b0 O
b0 o
b0 x
b0 <
b0 '"
b10001 L"
b10001 .
b10001 ^
b10001 R"
b100000000000000000000000000100010000000000000000000000000010000 I"
b11 w
b11 M
b11 }
b0 t
b0 L
b0 |
0y
0Q
1v
1P
b11 z
b11 =
b11 ("
1{
1>
0s
b10 p
b10 7
b10 $"
b1 q
b1 8
b1 %"
b0 `"
b0 F
b0 c
b0 f"
b11 _"
b11 D
b11 b
b11 e"
b10001 G"
b0 ""
b0 N
b0 n
b10000010001100000100000 r"
b10000010001100000100000 "
b10000010001100000100000 S
b10000010001100000100000 Y
18"
b10000000000000000000000000010000 ="
b100000000000000000000000000100010000000000000000000000000010000 2"
b10000000000000000000000000010000 7"
b10000000000000000000000000000001 6"
1;"
b1111111111111111111111111111110 :"
b1101 d
b0 f
b0 k
b11 g
b11 `
b11 l
b0 e
b0 m
b0 i
b0 _
b10000000000000000000000000000001 j"
b10000000000000000000000000000001 U
b10000000000000000000000000000001 !"
b0 V"
b0 E
b0 \"
b11 U"
b11 C
b11 ["
b10000000000000000000000000010000 ,"
b10000000000000000000000000010000 +
b10000000000000000000000000010000 <"
b10000000000000000000000000000001 +"
b10001 >"
b10000000000000000000000000000001 *
b10000000000000000000000000000001 9"
b100 *"
b100 '
b100 0"
b10001 )"
b10001 &
b10001 /"
b10000000000000000000000000000000 u"
b110100000000110000000000000000 [
b110100000000110000000000000000 9
b110100000000110000000000000000 a
b100000 \
b100000 :
b100000 j
b100100 X
b100100 K
b100100 Z
b100100 #
b100100 R
b100100 q"
1!
#400000
0!
#410000
b10000000000000000000000000010000 x
b10000000000000000000000000010000 <
b10000000000000000000000000010000 '"
b10000000000000000000000000000001 u
b10000000000000000000000000000001 ;
b10000000000000000000000000000001 &"
b10000000000000000000000000010000 #"
b10000000000000000000000000010000 O
b10000000000000000000000000010000 o
b10000000000000000000000000000001 ""
b10000000000000000000000000000001 N
b10000000000000000000000000000001 n
b0 I"
1y
1Q
b1 w
b1 M
b1 }
b10 t
b10 L
b10 |
1v
1P
1{
1>
0s
b10000 p
b10000 7
b10000 $"
b100 q
b100 8
b100 %"
b1000110001100000100010 r"
b1000110001100000100010 "
b1000110001100000100010 S
b1000110001100000100010 Y
b0 L"
b0 .
b0 ^
b0 R"
b0 G"
b10001 `"
b10001 F
b10001 c
b10001 f"
08"
b0 ="
b0 7"
b0 2"
b0 6"
b0 d
b10 f
b10 k
b1 g
b1 `
b1 l
b11 e
b11 m
b100000 i
b1100000100000 _
0;"
b11111111111111111111111111111111 :"
b101000 X
b101000 K
b101000 Z
b101000 #
b101000 R
b101000 q"
b10000010001100000100000 [
b10000010001100000100000 9
b10000010001100000100000 a
b100100 \
b100100 :
b100100 j
b10000000000000000000000000000001 u"
b0 ,"
b0 +
b0 <"
b0 +"
b0 >"
b0 *
b0 9"
b1 *"
b1 '
b1 0"
b10 )"
b10 &
b10 /"
b10001 V"
b10001 E
b10001 \"
b0 j"
b0 U
b0 !"
b11 i"
b11 T
b11 ~
1!
#420000
0!
#430000
b10000000000000000000000000010000 u
b10000000000000000000000000010000 ;
b10000000000000000000000000010000 &"
b10001 #"
b10001 O
b10001 o
b10000000000000000000000000010000 ""
b10000000000000000000000000010000 N
b10000000000000000000000000010000 n
b10001 x
b10001 <
b10001 '"
b10001 L"
b10001 .
b10001 ^
b10001 R"
b100000000000000000000000000100010000000000000000000000000010000 I"
b11 w
b11 M
b11 }
b1 t
b1 L
b1 |
1y
1Q
1v
1P
1{
1>
0s
b10100 p
b10100 7
b10100 $"
b100 q
b100 8
b100 %"
b0 `"
b0 F
b0 c
b0 f"
b10001 G"
b11000100001100000100011 r"
b11000100001100000100011 "
b11000100001100000100011 S
b11000100001100000100011 Y
18"
b10000000000000000000000000010000 ="
b100000000000000000000000000100010000000000000000000000000010000 2"
b10000000000000000000000000010000 7"
b10000000000000000000000000000001 6"
1;"
b1111111111111111111111111111110 :"
b1 f
b1 k
b11 g
b11 `
b11 l
b100010 i
b1100000100010 _
b10001 j"
b10001 U
b10001 !"
b0 V"
b0 E
b0 \"
b10000000000000000000000000010000 ,"
b10000000000000000000000000010000 +
b10000000000000000000000000010000 <"
b10000000000000000000000000000001 +"
b10001 >"
b10000000000000000000000000000001 *
b10000000000000000000000000000001 9"
b100 *"
b100 '
b100 0"
b10000 )"
b10000 &
b10000 /"
b0 v"
b1000110001100000100010 [
b1000110001100000100010 9
b1000110001100000100010 a
b101000 \
b101000 :
b101000 j
b101100 X
b101100 K
b101100 Z
b101100 #
b101100 R
b101100 q"
1!
#440000
0!
