cpu-code/openmips_min_sopc.vcd
$date
	Mon Apr 20 10:59:21 2015
$end
$version
	Icarus Verilog
$end
$timescale
	1ps
$end
$scope module openmips_min_sopc_tb $end
$scope module openmips_min_sopc0 $end
$var wire 1 ! clk $end
$var wire 32 " inst [31:0] $end
$var wire 32 # inst_addr [31:0] $end
$var wire 1 $ rom_ce $end
$var wire 1 % rst $end
$scope module openmips0 $end
$var wire 1 ! clk $end
$var wire 2 & cnt_ex_mem_o [1:0] $end
$var wire 2 ' cnt_ex_o [1:0] $end
$var wire 8 ( ex_aluop_i [7:0] $end
$var wire 3 ) ex_alusel_i [2:0] $end
$var wire 32 * ex_hi_o [31:0] $end
$var wire 32 + ex_lo_o [31:0] $end
$var wire 32 , ex_reg1_i [31:0] $end
$var wire 32 - ex_reg2_i [31:0] $end
$var wire 5 . ex_waddr_i [4:0] $end
$var wire 5 / ex_waddr_o [4:0] $end
$var wire 32 0 ex_wdata_o [31:0] $end
$var wire 1 1 ex_we_i $end
$var wire 1 2 ex_we_o $end
$var wire 1 3 ex_whilo_o $end
$var wire 32 4 hilo_hi_i [31:0] $end
$var wire 32 5 hilo_hi_o [31:0] $end
$var wire 32 6 hilo_lo_i [31:0] $end
$var wire 32 7 hilo_lo_o [31:0] $end
$var wire 64 8 hilo_temp_ex_mem_o [63:0] $end
$var wire 64 9 hilo_temp_ex_o [63:0] $end
$var wire 1 : hilo_whilo_i $end
$var wire 8 ; id_aluop_o [7:0] $end
$var wire 3 < id_alusel_o [2:0] $end
$var wire 32 = id_inst_i [31:0] $end
$var wire 32 > id_pc_i [31:0] $end
$var wire 32 ? id_reg1_o [31:0] $end
$var wire 32 @ id_reg2_o [31:0] $end
$var wire 5 A id_waddr_o [4:0] $end
$var wire 1 B id_we_o $end
$var wire 32 C mem_hi_i [31:0] $end
$var wire 32 D mem_hi_o [31:0] $end
$var wire 32 E mem_lo_i [31:0] $end
$var wire 32 F mem_lo_o [31:0] $end
$var wire 5 G mem_waddr_i [4:0] $end
$var wire 5 H mem_waddr_o [4:0] $end
$var wire 32 I mem_wdata_i [31:0] $end
$var wire 32 J mem_wdata_o [31:0] $end
$var wire 1 K mem_we_i $end
$var wire 1 L mem_we_o $end
$var wire 1 M mem_whilo_i $end
$var wire 1 N mem_whilo_o $end
$var wire 32 O pc [31:0] $end
$var wire 5 P reg_raddr1 [4:0] $end
$var wire 5 Q reg_raddr2 [4:0] $end
$var wire 32 R reg_rdata1 [31:0] $end
$var wire 32 S reg_rdata2 [31:0] $end
$var wire 1 T reg_re1 $end
$var wire 1 U reg_re2 $end
$var wire 32 V rom_addr_o [31:0] $end
$var wire 1 $ rom_ce_o $end
$var wire 32 W rom_data_i [31:0] $end
$var wire 1 % rst $end
$var wire 6 X stall [5:0] $end
$var wire 1 Y stallreq_from_ex $end
$var wire 1 Z stallreq_from_id $end
$var wire 5 [ wb_waddr_i [4:0] $end
$var wire 32 \ wb_wdata_i [31:0] $end
$var wire 1 ] wb_we_i $end
$scope module pc_reg0 $end
$var wire 1 ! clk $end
$var wire 1 % rst $end
$var wire 6 ^ stall [5:0] $end
$var reg 1 _ ce $end
$var reg 32 ` pc [31:0] $end
$upscope $end
$scope module if_id0 $end
$var wire 1 ! clk $end
$var wire 32 a if_inst [31:0] $end
$var wire 32 b if_pc [31:0] $end
$var wire 1 % rst $end
$var wire 6 c stall [5:0] $end
$var reg 32 d id_inst [31:0] $end
$var reg 32 e id_pc [31:0] $end
$upscope $end
$scope module id0 $end
$var wire 5 f ex_waddr_i [4:0] $end
$var wire 32 g ex_wdata_i [31:0] $end
$var wire 1 2 ex_we_i $end
$var wire 16 h i_imm [15:0] $end
$var wire 5 i i_write_address [4:0] $end
$var wire 32 j inst_i [31:0] $end
$var wire 5 k mem_waddr_i [4:0] $end
$var wire 32 l mem_wdata_i [31:0] $end
$var wire 1 L mem_we_i $end
$var wire 6 m op_class [5:0] $end
$var wire 5 n op_rd [4:0] $end
$var wire 5 o op_rs [4:0] $end
$var wire 5 p op_rt [4:0] $end
$var wire 5 q op_sa [4:0] $end
$var wire 6 r op_subclass [5:0] $end
$var wire 32 s pc_i [31:0] $end
$var wire 5 t r_read1_address [4:0] $end
$var wire 5 u r_read2_address [4:0] $end
$var wire 5 v r_write_address [4:0] $end
$var wire 32 w reg1_data_i [31:0] $end
$var wire 32 x reg2_data_i [31:0] $end
$var wire 1 % rst $end
$var reg 8 y aluop_o [7:0] $end
$var reg 3 z alusel_o [2:0] $end
$var reg 32 { imm [31:0] $end
$var reg 1 | instvalid $end
$var reg 5 } reg1_addr_o [4:0] $end
$var reg 32 ~ reg1_o [31:0] $end
$var reg 1 !" reg1_re_o $end
$var reg 5 "" reg2_addr_o [4:0] $end
$var reg 32 #" reg2_o [31:0] $end
$var reg 1 $" reg2_re_o $end
$var reg 1 %" stallreq $end
$var reg 5 &" waddr_o [4:0] $end
$var reg 1 '" we_o $end
$upscope $end
$scope module regfile0 $end
$var wire 1 ! clk $end
$var wire 5 (" raddr1 [4:0] $end
$var wire 5 )" raddr2 [4:0] $end
$var wire 1 T re1 $end
$var wire 1 U re2 $end
$var wire 1 % rst $end
$var wire 5 *" waddr [4:0] $end
$var wire 32 +" wdata [31:0] $end
$var wire 1 ] we $end
$var reg 32 ," rdata1 [31:0] $end
$var reg 32 -" rdata2 [31:0] $end
$upscope $end
$scope module id_ex0 $end
$var wire 1 ! clk $end
$var wire 8 ." id_aluop [7:0] $end
$var wire 3 /" id_alusel [2:0] $end
$var wire 32 0" id_reg1 [31:0] $end
$var wire 32 1" id_reg2 [31:0] $end
$var wire 5 2" id_waddr [4:0] $end
$var wire 1 B id_we $end
$var wire 1 % rst $end
$var wire 6 3" stall [5:0] $end
$var reg 8 4" ex_aluop [7:0] $end
$var reg 3 5" ex_alusel [2:0] $end
$var reg 32 6" ex_reg1 [31:0] $end
$var reg 32 7" ex_reg2 [31:0] $end
$var reg 5 8" ex_waddr [4:0] $end
$var reg 1 9" ex_we $end
$upscope $end
$scope module ex0 $end
$var wire 8 :" aluop_i [7:0] $end
$var wire 3 ;" alusel_i [2:0] $end
$var wire 2 <" cnt_i [1:0] $end
$var wire 32 =" hi_i [31:0] $end
$var wire 64 >" hilo_temp [63:0] $end
$var wire 64 ?" hilo_temp_i [63:0] $end
$var wire 32 @" lo_i [31:0] $end
$var wire 32 A" mem_hi_i [31:0] $end
$var wire 32 B" mem_lo_i [31:0] $end
$var wire 1 N mem_whilo_i $end
$var wire 32 C" opdata1_mult [31:0] $end
$var wire 32 D" opdata2_mult [31:0] $end
$var wire 1 E" overflow_sum $end
$var wire 32 F" reg1_i [31:0] $end
$var wire 32 G" reg1_i_not [31:0] $end
$var wire 1 H" reg1_lt_reg2 $end
$var wire 32 I" reg2_i [31:0] $end
$var wire 32 J" reg2_i_mux [31:0] $end
$var wire 32 K" result_sum [31:0] $end
$var wire 1 % rst $end
$var wire 5 L" waddr_i [4:0] $end
$var wire 32 M" wb_hi_i [31:0] $end
$var wire 32 N" wb_lo_i [31:0] $end
$var wire 1 : wb_whilo_i $end
$var wire 1 1 we_i $end
$var reg 2 O" cnt_o [1:0] $end
$var reg 32 P" hi_i_reg [31:0] $end
$var reg 32 Q" hi_o [31:0] $end
$var reg 64 R" hilo_temp_o [63:0] $end
$var reg 64 S" hilo_temp_stall [63:0] $end
$var reg 32 T" lo_i_reg [31:0] $end
$var reg 32 U" lo_o [31:0] $end
$var reg 32 V" logicout [31:0] $end
$var reg 32 W" mathout [31:0] $end
$var reg 32 X" moveout [31:0] $end
$var reg 64 Y" mulout [63:0] $end
$var reg 32 Z" shiftout [31:0] $end
$var reg 1 [" stallreq $end
$var reg 1 \" stallreq_for_madd_msub $end
$var reg 5 ]" waddr_o [4:0] $end
$var reg 32 ^" wdata_o [31:0] $end
$var reg 1 _" we_o $end
$var reg 1 `" whilo_o $end
$upscope $end
$scope module ex_mem0 $end
$var wire 1 ! clk $end
$var wire 2 a" cnt_i [1:0] $end
$var wire 32 b" ex_hi [31:0] $end
$var wire 32 c" ex_lo [31:0] $end
$var wire 5 d" ex_waddr [4:0] $end
$var wire 32 e" ex_wdata [31:0] $end
$var wire 1 2 ex_we $end
$var wire 1 3 ex_whilo $end
$var wire 64 f" hilo_i [63:0] $end
$var wire 1 % rst $end
$var wire 6 g" stall [5:0] $end
$var reg 2 h" cnt_o [1:0] $end
$var reg 64 i" hilo_o [63:0] $end
$var reg 32 j" mem_hi [31:0] $end
$var reg 32 k" mem_lo [31:0] $end
$var reg 5 l" mem_waddr [4:0] $end
$var reg 32 m" mem_wdata [31:0] $end
$var reg 1 n" mem_we $end
$var reg 1 o" mem_whilo $end
$upscope $end
$scope module mem0 $end
$var wire 32 p" hi_i [31:0] $end
$var wire 32 q" lo_i [31:0] $end
$var wire 1 % rst $end
$var wire 5 r" waddr_i [4:0] $end
$var wire 32 s" wdata_i [31:0] $end
$var wire 1 K we_i $end
$var wire 1 M whilo_i $end
$var reg 32 t" hi_o [31:0] $end
$var reg 32 u" lo_o [31:0] $end
$var reg 5 v" waddr_o [4:0] $end
$var reg 32 w" wdata_o [31:0] $end
$var reg 1 x" we_o $end
$var reg 1 y" whilo_o $end
$upscope $end
$scope module mem_wb0 $end
$var wire 1 ! clk $end
$var wire 32 z" mem_hi [31:0] $end
$var wire 32 {" mem_lo [31:0] $end
$var wire 5 |" mem_waddr [4:0] $end
$var wire 32 }" mem_wdata [31:0] $end
$var wire 1 L mem_we $end
$var wire 1 N mem_whilo $end
$var wire 1 % rst $end
$var wire 6 ~" stall [5:0] $end
$var reg 32 !# wb_hi [31:0] $end
$var reg 32 "# wb_lo [31:0] $end
$var reg 5 ## wb_waddr [4:0] $end
$var reg 32 $# wb_wdata [31:0] $end
$var reg 1 %# wb_we $end
$var reg 1 &# wb_whilo $end
$upscope $end
$scope module hilo_reg0 $end
$var wire 1 ! clk $end
$var wire 32 '# hi_i [31:0] $end
$var wire 32 (# lo_i [31:0] $end
$var wire 1 % rst $end
$var wire 1 : we $end
$var reg 32 )# hi_o [31:0] $end
$var reg 32 *# lo_o [31:0] $end
$upscope $end
$scope module ctrl0 $end
$var wire 1 % rst $end
$var wire 1 Y stallreq_from_ex $end
$var wire 1 Z stallreq_from_id $end
$var reg 6 +# stall [5:0] $end
$upscope $end
$upscope $end
$scope module inst_rom0 $end
$var wire 32 ,# addr [31:0] $end
$var wire 1 $ ce $end
$var reg 32 -# inst [31:0] $end
$upscope $end
$upscope $end
$upscope $end
$scope module openmips_min_sopc_tb $end
$scope module openmips_min_sopc0 $end
$scope module openmips0 $end
$scope module regfile0 $end
$var reg 32 .# \regs[0] [31:0] $end
$upscope $end
$upscope $end
$upscope $end
$upscope $end
$scope module openmips_min_sopc_tb $end
$scope module openmips_min_sopc0 $end
$scope module openmips0 $end
$scope module regfile0 $end
$var reg 32 /# \regs[1] [31:0] $end
$upscope $end
$upscope $end
$upscope $end
$upscope $end
$scope module openmips_min_sopc_tb $end
$scope module openmips_min_sopc0 $end
$scope module openmips0 $end
$scope module regfile0 $end
$var reg 32 0# \regs[2] [31:0] $end
$upscope $end
$upscope $end
$upscope $end
$upscope $end
$scope module openmips_min_sopc_tb $end
$scope module openmips_min_sopc0 $end
$scope module openmips0 $end
$scope module regfile0 $end
$var reg 32 1# \regs[3] [31:0] $end
$upscope $end
$upscope $end
$upscope $end
$upscope $end
$scope module openmips_min_sopc_tb $end
$scope module openmips_min_sopc0 $end
$scope module openmips0 $end
$scope module regfile0 $end
$var reg 32 2# \regs[4] [31:0] $end
$upscope $end
$upscope $end
$upscope $end
$upscope $end
$enddefinitions $end
#0
$dumpvars
bx 2#
bx 1#
bx 0#
bx /#
bx .#
b0 -#
bx ,#
b0 +#
b0 *#
b0 )#
b0 (#
b0 '#
0&#
0%#
b0 $#
b0 ##
b0 "#
b0 !#
b0 ~"
b0 }"
b0 |"
b0 {"
b0 z"
0y"
0x"
b0 w"
b0 v"
b0 u"
b0 t"
b0 s"
b0 r"
b0 q"
b0 p"
0o"
0n"
b0 m"
b0 l"
b0 k"
b0 j"
b0 i"
b0 h"
b0 g"
b0 f"
b0 e"
b0 d"
b0 c"
b0 b"
b0 a"
0`"
0_"
b0 ^"
b0 ]"
0\"
0["
b0 Z"
b0 Y"
b0 X"
b0 W"
b0 V"
b0 U"
b0 T"
bx S"
b0 R"
b0 Q"
b0 P"
b0 O"
b0 N"
b0 M"
b0 L"
b0 K"
b0 J"
b0 I"
0H"
b11111111111111111111111111111111 G"
b0 F"
0E"
b0 D"
b0 C"
b0 B"
b0 A"
b0 @"
b0 ?"
b0 >"
b0 ="
b0 <"
b0 ;"
b0 :"
09"
b0 8"
b0 7"
b0 6"
b0 5"
b0 4"
b0 3"
b0 2"
b0 1"
b0 0"
b0 /"
b0 ."
b0 -"
b0 ,"
b0 +"
b0 *"
b0 )"
b0 ("
0'"
b0 &"
0%"
0$"
b0 #"
b0 ""
0!"
b0 ~
b0 }
0|
b0 {
b0 z
b0 y
b0 x
b0 w
b0 v
b0 u
b0 t
b0 s
b0 r
b0 q
b0 p
b0 o
b0 n
b0 m
b0 l
b0 k
b0 j
b0 i
b0 h
b0 g
b0 f
b0 e
b0 d
b0 c
bx b
b0 a
bx `
0_
b0 ^
0]
b0 \
b0 [
0Z
0Y
b0 X
b0 W
bx V
0U
0T
b0 S
b0 R
b0 Q
b0 P
bx O
0N
0M
0L
0K
b0 J
b0 I
b0 H
b0 G
b0 F
b0 E
b0 D
b0 C
0B
b0 A
b0 @
b0 ?
b0 >
b0 =
b0 <
b0 ;
0:
b0 9
b0 8
b0 7
b0 6
b0 5
b0 4
03
02
01
b0 0
b0 /
b0 .
b0 -
b0 ,
b0 +
b0 *
b0 )
b0 (
b0 '
b0 &
1%
0$
bx #
b0 "
1!
$end
#20000
0!
#30000
b0 `
b0 O
b0 b
b0 #
b0 V
b0 ,#
1!
#40000
0!
#50000
1!
#60000
0!
#70000
1!
#80000
0!
#90000
1!
#100000
0!
#110000
1!
#120000
0!
#130000
1!
#140000
0!
#150000
1!
#160000
0!
#170000
1!
#180000
0!
#190000
1!
#195000
1$"
1U
1'"
1B
b101 y
b101 ;
b101 ."
b10 z
b10 <
b10 /"
0|
0%
#200000
0!
#210000
b110100000000011111111111111111 -#
b110100000000011111111111111111 "
b110100000000011111111111111111 W
b110100000000011111111111111111 a
1_"
12
1_
1$
19"
11
b10 5"
b10 )
b10 ;"
b101 4"
b101 (
b101 :"
1!
#220000
0!
#230000
b1111111111111111 #"
b1111111111111111 @
b1111111111111111 1"
b1111111111111111 {
1!"
1T
b1 ""
b1 Q
b1 )"
0$"
0U
b1 &"
b1 A
b1 2"
1'"
1B
0|
b10 y
b10 ;
b10 ."
b1 z
b1 <
b1 /"
1x"
1L
b10000110000000000 -#
b10000110000000000 "
b10000110000000000 W
b10000110000000000 a
b1101 m
b1 p
b1 i
b1 u
b11111 n
b11111 v
b11111 q
b111111 r
b1111111111111111 h
1n"
1K
b110100000000011111111111111111 d
b110100000000011111111111111111 =
b110100000000011111111111111111 j
b100 `
b100 O
b100 b
b100 #
b100 V
b100 ,#
1!
#240000
0!
#250000
bx -"
bx S
bx x
b10000 ~
b10000 ?
b10000 0"
b1111111111111111 #"
b1111111111111111 @
b1111111111111111 1"
b1111111111111111 ^"
b1111111111111111 0
b1111111111111111 g
b1111111111111111 e"
1$"
1U
b10000 {
0!"
0T
1'"
1B
0|
b101 y
b101 ;
b101 ."
b10 z
b10 <
b10 /"
b110100001000011111111111111011 -#
b110100001000011111111111111011 "
b110100001000011111111111111011 W
b110100001000011111111111111011 a
b1 ]"
b1 /
b1 f
b1 d"
b1111111111111111 V"
b1111111111111111 K"
b1111111111111111 J"
b1111111111111111 D"
b0 m
b1 n
b1 v
b10000 q
b0 r
b110000000000 h
1H"
b1000 `
b1000 O
b1000 b
b1000 #
b1000 V
b1000 ,#
b10000110000000000 d
b10000110000000000 =
b10000110000000000 j
b100 e
b100 >
b100 s
b1 8"
b1 .
b1 L"
b1111111111111111 7"
b1111111111111111 -
b1111111111111111 I"
b1 5"
b1 )
b1 ;"
b10 4"
b10 (
b10 :"
1%#
1]
1!
#260000
0!
#270000
bx ,"
bx R
bx w
b0 -"
b0 S
b0 x
b11111111111111110000000000000000 ~
b11111111111111110000000000000000 ?
b11111111111111110000000000000000 0"
b1111111111111011 #"
b1111111111111011 @
b1111111111111011 1"
b11111111111111110000 Y"
1!"
1T
b1111111111111011 {
b1 }
b1 P
b1 ("
0$"
0U
b1 &"
b1 A
b1 2"
1'"
1B
0|
b10 y
b10 ;
b10 ."
b1 z
b1 <
b1 /"
b1111111111111111 w"
b1111111111111111 J
b1111111111111111 l
b1111111111111111 }"
b1 v"
b1 H
b1 k
b1 |"
b11111111111111110000000000000000 ^"
b11111111111111110000000000000000 0
b11111111111111110000000000000000 g
b11111111111111110000000000000000 e"
b11111111111111110000000000000000 Z"
b0 V"
b110100000000100000000000000110 -#
b110100000000100000000000000110 "
b110100000000100000000000000110 W
b110100000000100000000000000110 a
b11111111111111110000 >"
b10000 C"
b11111111111111111111111111101111 G"
b1101 m
b1 o
b1 t
b11111 n
b11111 v
b11111 q
b111011 r
b1111111111111011 h
b1111111111111111 m"
b1111111111111111 I
b1111111111111111 s"
b1 l"
b1 G
b1 r"
b10000 6"
b10000000000001111 K"
b10000 ,
b10000 F"
b10 5"
b10 )
b10 ;"
b101 4"
b101 (
b101 :"
b110100001000011111111111111011 d
b110100001000011111111111111011 =
b110100001000011111111111111011 j
b1000 e
b1000 >
b1000 s
b1100 `
b1100 O
b1100 b
b1100 #
b1100 V
b1100 ,#
1!
#280000
0!
#290000
b110 #"
b110 @
b110 1"
b0 ~
b0 ?
b0 0"
b111111111111101000000000000001010000000000000000 Y"
b110 {
b10 ""
b10 Q
b10 )"
b0 }
b0 P
b0 ("
1!"
1T
b10 &"
b10 A
b10 2"
1'"
1B
0|
b10 y
b10 ;
b10 ."
b1 z
b1 <
b1 /"
b1000100000000000011000 -#
b1000100000000000011000 "
b1000100000000000011000 W
b1000100000000000011000 a
b11111111111111111111111111111011 ^"
b11111111111111111111111111111011 0
b11111111111111111111111111111011 g
b11111111111111111111111111111011 e"
b0 Z"
b11111111111111111111111111111011 V"
b11111111111111110000000000000000 w"
b11111111111111110000000000000000 J
b11111111111111110000000000000000 l
b11111111111111110000000000000000 }"
b0 ,"
b0 R
b0 w
b1111111111111011 J"
b1111111111111011 D"
b111111111111101000000000000001010000000000000000 >"
b11111111111111110000000000000000 C"
b0 o
b0 t
b10 p
b10 i
b10 u
b0 n
b0 v
b0 q
b110 r
b110 h
b1111111111111111 G"
0H"
b10000 `
b10000 O
b10000 b
b10000 #
b10000 V
b10000 ,#
b110100000000100000000000000110 d
b110100000000100000000000000110 =
b110100000000100000000000000110 j
b1100 e
b1100 >
b1100 s
b1111111111111011 7"
b1111111111111011 -
b1111111111111011 I"
b11111111111111110000000000000000 6"
b11111111111111111111111111111011 K"
b11111111111111110000000000000000 ,
b11111111111111110000000000000000 F"
b1 5"
b1 )
b1 ;"
b10 4"
b10 (
b10 :"
b11111111111111110000000000000000 m"
b11111111111111110000000000000000 I
b11111111111111110000000000000000 s"
b1111111111111111 $#
b1111111111111111 \
b1111111111111111 +"
b1 ##
b1 [
b1 *"
1!
#300000
0!
#310000
bx -"
bx S
bx x
b11111111111111110000000000000000 ,"
b11111111111111110000000000000000 R
b11111111111111110000000000000000 w
b11111111111111111111111111111011 ~
b11111111111111111111111111111011 ?
b11111111111111111111111111111011 0"
b110 #"
b110 @
b110 1"
b110 ^"
b110 0
b110 g
b110 e"
b0 Y"
1$"
1U
b0 {
b1 }
b1 P
b1 ("
1!"
1T
b0 &"
b0 A
b0 2"
1'"
1B
0|
b11011 y
b11011 ;
b11011 ."
b0 z
b0 <
b0 /"
b11111111111111111111111111111011 w"
b11111111111111111111111111111011 J
b11111111111111111111111111111011 l
b11111111111111111111111111111011 }"
b10 ]"
b10 /
b10 f
b10 d"
b110 V"
b1110000001000100000000000000000 -#
b1110000001000100000000000000000 "
b1110000001000100000000000000000 W
b1110000001000100000000000000000 a
b110 J"
b110 D"
b0 >"
b0 C"
b11111111111111111111111111111111 G"
1H"
b0 m
b1 o
b1 t
b11000 r
b11000 h
b11111111111111110000000000000000 $#
b11111111111111110000000000000000 \
b11111111111111110000000000000000 +"
b11111111111111111111111111111011 m"
b11111111111111111111111111111011 I
b11111111111111111111111111111011 s"
b10 8"
b10 .
b10 L"
b110 7"
b110 -
b110 I"
b0 6"
b110 K"
b0 ,
b0 F"
b1111111111111111 /#
b1000100000000000011000 d
b1000100000000000011000 =
b1000100000000000011000 j
b10000 e
b10000 >
b10000 s
b10100 `
b10100 O
b10100 b
b10100 #
b10100 V
b10100 ,#
1!
#320000
0!
#330000
b11111111111111111111111111100010 U"
b11111111111111111111111111100010 +
b11111111111111111111111111100010 c"
b11111111111111111111111111111111 Q"
b11111111111111111111111111111111 *
b11111111111111111111111111111111 b"
b1111111111111111111111111111111111111111111111111111111111100010 Y"
b101 z
b101 <
b101 /"
1$"
1U
1!"
1T
0'"
0B
0|
b11101 y
b11101 ;
b11101 ."
b1110000001000100000000000000001 -#
b1110000001000100000000000000001 "
b1110000001000100000000000000001 W
b1110000001000100000000000000001 a
b0 ^"
b0 0
b0 g
b0 e"
b0 ]"
b0 /
b0 f
b0 d"
1`"
13
b0 V"
b110 w"
b110 J
b110 l
b110 }"
b10 v"
b10 H
b10 k
b10 |"
b11111111111111111111111111111011 ,"
b11111111111111111111111111111011 R
b11111111111111111111111111111011 w
b11110 >"
b101 C"
b11100 m
b0 r
b0 h
b100 G"
0H"
b11000 `
b11000 O
b11000 b
b11000 #
b11000 V
b11000 ,#
b1110000001000100000000000000000 d
b1110000001000100000000000000000 =
b1110000001000100000000000000000 j
b10100 e
b10100 >
b10100 s
b11111111111111110000000000000000 /#
b0 8"
b0 .
b0 L"
b11111111111111111111111111111011 6"
b1 K"
b11111111111111111111111111111011 ,
b11111111111111111111111111111011 F"
b0 5"
b0 )
b0 ;"
b11011 4"
b11011 (
b11011 :"
b110 m"
b110 I
b110 s"
b10 l"
b10 G
b10 r"
b11111111111111111111111111111011 $#
b11111111111111111111111111111011 \
b11111111111111111111111111111011 +"
1!
#340000
0!
#350000
b1111 +#
b1111 X
b1111 ^
b1111 c
b1111 3"
b1111 g"
b1111 ~"
b11111111111111111111111111100010 T"
b11111111111111111111111111111111 P"
1["
1Y
1$"
1U
1!"
1T
0|
b11110 y
b11110 ;
b11110 ."
b101 z
b101 <
b101 /"
b11111111111111111111111111100010 u"
b11111111111111111111111111100010 F
b11111111111111111111111111100010 B"
b11111111111111111111111111100010 {"
b11111111111111111111111111111111 t"
b11111111111111111111111111111111 D
b11111111111111111111111111111111 A"
b11111111111111111111111111111111 z"
1y"
1N
b0 w"
b0 J
b0 l
b0 }"
b0 v"
b0 H
b0 k
b0 |"
b11111111111111111111111111100010 ^"
b11111111111111111111111111100010 0
b11111111111111111111111111100010 g
b11111111111111111111111111100010 e"
0_"
02
b0 U"
b0 +
b0 c"
b0 Q"
b0 *
b0 b"
1\"
b0 S"
b1 O"
b1 '
b1 a"
b1111111111111111111111111111111111111111111111111111111111100010 R"
b1111111111111111111111111111111111111111111111111111111111100010 9
b1111111111111111111111111111111111111111111111111111111111100010 f"
b110 -"
b110 S
b110 x
b1110000001000100000000000000100 -#
b1110000001000100000000000000100 "
b1110000001000100000000000000100 W
b1110000001000100000000000000100 a
b1 r
b1 h
b110 $#
b110 \
b110 +"
b10 ##
b10 [
b10 *"
b11111111111111111111111111100010 k"
b11111111111111111111111111100010 E
b11111111111111111111111111100010 q"
b11111111111111111111111111111111 j"
b11111111111111111111111111111111 C
b11111111111111111111111111111111 p"
1o"
1M
b0 m"
b0 I
b0 s"
b0 l"
b0 G
b0 r"
09"
01
b101 5"
b101 )
b101 ;"
b11101 4"
b11101 (
b11101 :"
b11111111111111111111111111111011 /#
b1110000001000100000000000000001 d
b1110000001000100000000000000001 =
b1110000001000100000000000000001 j
b11000 e
b11000 >
b11000 s
b11100 `
b11100 O
b11100 b
b11100 #
b11100 V
b11100 ,#
1!
#360000
0!
#370000
b0 +#
b0 X
b0 ^
b0 c
b0 3"
b0 g"
b0 ~"
b11111111111111111111111111000100 U"
b11111111111111111111111111000100 +
b11111111111111111111111111000100 c"
b11111111111111111111111111111111 Q"
b11111111111111111111111111111111 *
b11111111111111111111111111111111 b"
0["
0Y
0\"
b1111111111111111111111111111111111111111111111111111111111000100 S"
b10 O"
b10 '
b10 a"
b0 R"
b0 9
b0 f"
b0 u"
b0 F
b0 B"
b0 {"
b0 t"
b0 D
b0 A"
b0 z"
0y"
0N
0x"
0L
b110 0#
b1 h"
b1 &
b1 <"
b1111111111111111111111111111111111111111111111111111111111100010 i"
b1111111111111111111111111111111111111111111111111111111111100010 8
b1111111111111111111111111111111111111111111111111111111111100010 ?"
b0 k"
b0 E
b0 q"
b0 j"
b0 C
b0 p"
0o"
0M
0n"
0K
b11111111111111111111111111100010 "#
b11111111111111111111111111100010 6
b11111111111111111111111111100010 N"
b11111111111111111111111111100010 (#
b11111111111111111111111111111111 !#
b11111111111111111111111111111111 4
b11111111111111111111111111111111 M"
b11111111111111111111111111111111 '#
1&#
1:
b0 $#
b0 \
b0 +"
b0 ##
b0 [
b0 *"
1!
#380000
0!
#390000
b1111 +#
b1111 X
b1111 ^
b1111 c
b1111 3"
b1111 g"
b1111 ~"
b11111111111111111111111111000100 T"
b0 U"
b0 +
b0 c"
b0 Q"
b0 *
b0 b"
1["
1Y
1$"
1U
1!"
1T
0|
b11111 y
b11111 ;
b11111 ."
b101 z
b101 <
b101 /"
b11111111111111111111111111000100 u"
b11111111111111111111111111000100 F
b11111111111111111111111111000100 B"
b11111111111111111111111111000100 {"
b11111111111111111111111111111111 t"
b11111111111111111111111111111111 D
b11111111111111111111111111111111 A"
b11111111111111111111111111111111 z"
1y"
1N
b11111111111111111111111111100010 w"
b11111111111111111111111111100010 J
b11111111111111111111111111100010 l
b11111111111111111111111111100010 }"
1\"
b0 S"
b1 O"
b1 '
b1 a"
b10111111111111111111111111111100010 R"
b10111111111111111111111111111100010 9
b10111111111111111111111111111100010 f"
b10111111111111111111111111111100010 Y"
b1110000001000100000000000000101 -#
b1110000001000100000000000000101 "
b1110000001000100000000000000101 W
b1110000001000100000000000000101 a
b10111111111111111111111111111100010 >"
b11111111111111111111111111111011 C"
b100 r
b100 h
b11111111111111111111111111100010 *#
b11111111111111111111111111100010 7
b11111111111111111111111111100010 @"
b11111111111111111111111111111111 )#
b11111111111111111111111111111111 5
b11111111111111111111111111111111 ="
b0 "#
b0 6
b0 N"
b0 (#
b0 !#
b0 4
b0 M"
b0 '#
0&#
0:
0%#
0]
b0 h"
b0 &
b0 <"
b0 i"
b0 8
b0 ?"
b11111111111111111111111111000100 k"
b11111111111111111111111111000100 E
b11111111111111111111111111000100 q"
b11111111111111111111111111111111 j"
b11111111111111111111111111111111 C
b11111111111111111111111111111111 p"
1o"
1M
b11111111111111111111111111100010 m"
b11111111111111111111111111100010 I
b11111111111111111111111111100010 s"
b11110 4"
b11110 (
b11110 :"
b1110000001000100000000000000100 d
b1110000001000100000000000000100 =
b1110000001000100000000000000100 j
b11100 e
b11100 >
b11100 s
b100000 `
b100000 O
b100000 b
b100000 #
b100000 V
b100000 ,#
1!
#400000
0!
#410000
b0 +#
b0 X
b0 ^
b0 c
b0 3"
b0 g"
b0 ~"
b11111111111111111111111110100110 U"
b11111111111111111111111110100110 +
b11111111111111111111111110100110 c"
b101 Q"
b101 *
b101 b"
0["
0Y
0\"
b10111111111111111111111111110100110 S"
b10 O"
b10 '
b10 a"
b0 R"
b0 9
b0 f"
b0 u"
b0 F
b0 B"
b0 {"
b0 t"
b0 D
b0 A"
b0 z"
0y"
0N
b0 w"
b0 J
b0 l
b0 }"
b1 h"
b1 &
b1 <"
b10111111111111111111111111111100010 i"
b10111111111111111111111111111100010 8
b10111111111111111111111111111100010 ?"
b0 k"
b0 E
b0 q"
b0 j"
b0 C
b0 p"
0o"
0M
b0 m"
b0 I
b0 s"
b11111111111111111111111111000100 "#
b11111111111111111111111111000100 6
b11111111111111111111111111000100 N"
b11111111111111111111111111000100 (#
b11111111111111111111111111111111 !#
b11111111111111111111111111111111 4
b11111111111111111111111111111111 M"
b11111111111111111111111111111111 '#
1&#
1:
b11111111111111111111111111100010 $#
b11111111111111111111111111100010 \
b11111111111111111111111111100010 +"
1!
#420000
0!
