cpu-code/openmips_min_sopc.vcd
$date
	Mon Apr  6 22:19:14 2015
$end
$version
	Icarus Verilog
$end
$timescale
	1ps
$end
$scope module openmips_min_sopc_tb $end
$scope module openmips_min_sopc0 $end
$var wire 1 ! clk $end
$var wire 32 " inst [31:0] $end
$var wire 32 # inst_addr [31:0] $end
$var wire 1 $ rom_ce $end
$var wire 1 % rst $end
$scope module openmips0 $end
$var wire 1 ! clk $end
$var wire 8 & ex_aluop_i [7:0] $end
$var wire 3 ' ex_alusel_i [2:0] $end
$var wire 32 ( ex_hi_o [31:0] $end
$var wire 32 ) ex_lo_o [31:0] $end
$var wire 32 * ex_reg1_i [31:0] $end
$var wire 32 + ex_reg2_i [31:0] $end
$var wire 5 , ex_waddr_i [4:0] $end
$var wire 5 - ex_waddr_o [4:0] $end
$var wire 32 . ex_wdata_o [31:0] $end
$var wire 1 / ex_we_i $end
$var wire 1 0 ex_we_o $end
$var wire 1 1 ex_whilo_o $end
$var wire 32 2 hilo_hi_i [31:0] $end
$var wire 32 3 hilo_hi_o [31:0] $end
$var wire 32 4 hilo_lo_i [31:0] $end
$var wire 32 5 hilo_lo_o [31:0] $end
$var wire 1 6 hilo_whilo_i $end
$var wire 8 7 id_aluop_o [7:0] $end
$var wire 3 8 id_alusel_o [2:0] $end
$var wire 32 9 id_inst_i [31:0] $end
$var wire 32 : id_pc_i [31:0] $end
$var wire 32 ; id_reg1_o [31:0] $end
$var wire 32 < id_reg2_o [31:0] $end
$var wire 5 = id_waddr_o [4:0] $end
$var wire 1 > id_we_o $end
$var wire 32 ? mem_hi_i [31:0] $end
$var wire 32 @ mem_hi_o [31:0] $end
$var wire 32 A mem_lo_i [31:0] $end
$var wire 32 B mem_lo_o [31:0] $end
$var wire 5 C mem_waddr_i [4:0] $end
$var wire 5 D mem_waddr_o [4:0] $end
$var wire 32 E mem_wdata_i [31:0] $end
$var wire 32 F mem_wdata_o [31:0] $end
$var wire 1 G mem_we_i $end
$var wire 1 H mem_we_o $end
$var wire 1 I mem_whilo_i $end
$var wire 1 J mem_whilo_o $end
$var wire 32 K pc [31:0] $end
$var wire 5 L reg_raddr1 [4:0] $end
$var wire 5 M reg_raddr2 [4:0] $end
$var wire 32 N reg_rdata1 [31:0] $end
$var wire 32 O reg_rdata2 [31:0] $end
$var wire 1 P reg_re1 $end
$var wire 1 Q reg_re2 $end
$var wire 32 R rom_addr_o [31:0] $end
$var wire 1 $ rom_ce_o $end
$var wire 32 S rom_data_i [31:0] $end
$var wire 1 % rst $end
$var wire 5 T wb_waddr_i [4:0] $end
$var wire 32 U wb_wdata_i [31:0] $end
$var wire 1 V wb_we_i $end
$scope module pc_reg0 $end
$var wire 1 ! clk $end
$var wire 1 % rst $end
$var reg 1 W ce $end
$var reg 32 X pc [31:0] $end
$upscope $end
$scope module if_id0 $end
$var wire 1 ! clk $end
$var wire 32 Y if_inst [31:0] $end
$var wire 32 Z if_pc [31:0] $end
$var wire 1 % rst $end
$var reg 32 [ id_inst [31:0] $end
$var reg 32 \ id_pc [31:0] $end
$upscope $end
$scope module id0 $end
$var wire 5 ] ex_waddr_i [4:0] $end
$var wire 32 ^ ex_wdata_i [31:0] $end
$var wire 1 0 ex_we_i $end
$var wire 16 _ i_imm [15:0] $end
$var wire 5 ` i_write_address [4:0] $end
$var wire 32 a inst_i [31:0] $end
$var wire 5 b mem_waddr_i [4:0] $end
$var wire 32 c mem_wdata_i [31:0] $end
$var wire 1 H mem_we_i $end
$var wire 6 d op_class [5:0] $end
$var wire 5 e op_rd [4:0] $end
$var wire 5 f op_rs [4:0] $end
$var wire 5 g op_rt [4:0] $end
$var wire 5 h op_sa [4:0] $end
$var wire 6 i op_subclass [5:0] $end
$var wire 32 j pc_i [31:0] $end
$var wire 5 k r_read1_address [4:0] $end
$var wire 5 l r_read2_address [4:0] $end
$var wire 5 m r_write_address [4:0] $end
$var wire 32 n reg1_data_i [31:0] $end
$var wire 32 o reg2_data_i [31:0] $end
$var wire 1 % rst $end
$var reg 8 p aluop_o [7:0] $end
$var reg 3 q alusel_o [2:0] $end
$var reg 32 r imm [31:0] $end
$var reg 1 s instvalid $end
$var reg 5 t reg1_addr_o [4:0] $end
$var reg 32 u reg1_o [31:0] $end
$var reg 1 v reg1_re_o $end
$var reg 5 w reg2_addr_o [4:0] $end
$var reg 32 x reg2_o [31:0] $end
$var reg 1 y reg2_re_o $end
$var reg 5 z waddr_o [4:0] $end
$var reg 1 { we_o $end
$upscope $end
$scope module regfile0 $end
$var wire 1 ! clk $end
$var wire 5 | raddr1 [4:0] $end
$var wire 5 } raddr2 [4:0] $end
$var wire 1 P re1 $end
$var wire 1 Q re2 $end
$var wire 1 % rst $end
$var wire 5 ~ waddr [4:0] $end
$var wire 32 !" wdata [31:0] $end
$var wire 1 V we $end
$var reg 32 "" rdata1 [31:0] $end
$var reg 32 #" rdata2 [31:0] $end
$upscope $end
$scope module id_ex0 $end
$var wire 1 ! clk $end
$var wire 8 $" id_aluop [7:0] $end
$var wire 3 %" id_alusel [2:0] $end
$var wire 32 &" id_reg1 [31:0] $end
$var wire 32 '" id_reg2 [31:0] $end
$var wire 5 (" id_waddr [4:0] $end
$var wire 1 > id_we $end
$var wire 1 % rst $end
$var reg 8 )" ex_aluop [7:0] $end
$var reg 3 *" ex_alusel [2:0] $end
$var reg 32 +" ex_reg1 [31:0] $end
$var reg 32 ," ex_reg2 [31:0] $end
$var reg 5 -" ex_waddr [4:0] $end
$var reg 1 ." ex_we $end
$upscope $end
$scope module ex0 $end
$var wire 8 /" aluop_i [7:0] $end
$var wire 3 0" alusel_i [2:0] $end
$var wire 32 1" hi_i [31:0] $end
$var wire 32 2" lo_i [31:0] $end
$var wire 32 3" mem_hi_i [31:0] $end
$var wire 32 4" mem_lo_i [31:0] $end
$var wire 1 J mem_whilo_i $end
$var wire 32 5" reg1_i [31:0] $end
$var wire 32 6" reg2_i [31:0] $end
$var wire 1 % rst $end
$var wire 5 7" waddr_i [4:0] $end
$var wire 32 8" wb_hi_i [31:0] $end
$var wire 32 9" wb_lo_i [31:0] $end
$var wire 1 6 wb_whilo_i $end
$var wire 1 / we_i $end
$var reg 1 :" hi_i_reg $end
$var reg 32 ;" hi_o [31:0] $end
$var reg 1 <" lo_i_reg $end
$var reg 32 =" lo_o [31:0] $end
$var reg 32 >" logicout [31:0] $end
$var reg 32 ?" moveout [31:0] $end
$var reg 32 @" shiftout [31:0] $end
$var reg 5 A" waddr_o [4:0] $end
$var reg 32 B" wdata_o [31:0] $end
$var reg 1 C" we_o $end
$var reg 1 D" whilo_o $end
$upscope $end
$scope module ex_mem0 $end
$var wire 1 ! clk $end
$var wire 32 E" ex_hi [31:0] $end
$var wire 32 F" ex_lo [31:0] $end
$var wire 5 G" ex_waddr [4:0] $end
$var wire 32 H" ex_wdata [31:0] $end
$var wire 1 0 ex_we $end
$var wire 1 1 ex_whilo $end
$var wire 1 % rst $end
$var reg 32 I" mem_hi [31:0] $end
$var reg 32 J" mem_lo [31:0] $end
$var reg 5 K" mem_waddr [4:0] $end
$var reg 32 L" mem_wdata [31:0] $end
$var reg 1 M" mem_we $end
$var reg 1 N" mem_whilo $end
$upscope $end
$scope module mem0 $end
$var wire 32 O" hi_i [31:0] $end
$var wire 32 P" lo_i [31:0] $end
$var wire 1 % rst $end
$var wire 5 Q" waddr_i [4:0] $end
$var wire 32 R" wdata_i [31:0] $end
$var wire 1 G we_i $end
$var wire 1 I whilo_i $end
$var reg 32 S" hi_o [31:0] $end
$var reg 32 T" lo_o [31:0] $end
$var reg 5 U" waddr_o [4:0] $end
$var reg 32 V" wdata_o [31:0] $end
$var reg 1 W" we_o $end
$var reg 1 X" whilo_o $end
$upscope $end
$scope module mem_wb0 $end
$var wire 1 ! clk $end
$var wire 32 Y" mem_hi [31:0] $end
$var wire 32 Z" mem_lo [31:0] $end
$var wire 5 [" mem_waddr [4:0] $end
$var wire 32 \" mem_wdata [31:0] $end
$var wire 1 H mem_we $end
$var wire 1 J mem_whilo $end
$var wire 1 % rst $end
$var reg 32 ]" wb_hi [31:0] $end
$var reg 32 ^" wb_lo [31:0] $end
$var reg 5 _" wb_waddr [4:0] $end
$var reg 32 `" wb_wdata [31:0] $end
$var reg 1 a" wb_we $end
$var reg 1 b" wb_whilo $end
$upscope $end
$scope module hilo_reg0 $end
$var wire 1 % clk $end
$var wire 32 c" hi_i [31:0] $end
$var wire 32 d" lo_i [31:0] $end
$var wire 1 ! rst $end
$var wire 1 6 we $end
$var reg 32 e" hi_o [31:0] $end
$var reg 32 f" lo_o [31:0] $end
$upscope $end
$upscope $end
$scope module inst_rom0 $end
$var wire 32 g" addr [31:0] $end
$var wire 1 $ ce $end
$var reg 32 h" inst [31:0] $end
$upscope $end
$upscope $end
$upscope $end
$scope module openmips_min_sopc_tb $end
$scope module openmips_min_sopc0 $end
$scope module openmips0 $end
$scope module regfile0 $end
$var reg 32 i" \regs[0] [31:0] $end
$upscope $end
$upscope $end
$upscope $end
$upscope $end
$scope module openmips_min_sopc_tb $end
$scope module openmips_min_sopc0 $end
$scope module openmips0 $end
$scope module regfile0 $end
$var reg 32 j" \regs[1] [31:0] $end
$upscope $end
$upscope $end
$upscope $end
$upscope $end
$scope module openmips_min_sopc_tb $end
$scope module openmips_min_sopc0 $end
$scope module openmips0 $end
$scope module regfile0 $end
$var reg 32 k" \regs[2] [31:0] $end
$upscope $end
$upscope $end
$upscope $end
$upscope $end
$scope module openmips_min_sopc_tb $end
$scope module openmips_min_sopc0 $end
$scope module openmips0 $end
$scope module regfile0 $end
$var reg 32 l" \regs[3] [31:0] $end
$upscope $end
$upscope $end
$upscope $end
$upscope $end
$scope module openmips_min_sopc_tb $end
$scope module openmips_min_sopc0 $end
$scope module openmips0 $end
$scope module regfile0 $end
$var reg 32 m" \regs[4] [31:0] $end
$upscope $end
$upscope $end
$upscope $end
$upscope $end
$enddefinitions $end
#0
$dumpvars
bx m"
bx l"
bx k"
bx j"
bx i"
b0 h"
b0 g"
b0 f"
b0 e"
b0 d"
b0 c"
0b"
0a"
b0 `"
b0 _"
b0 ^"
b0 ]"
b0 \"
b0 ["
b0 Z"
b0 Y"
0X"
0W"
b0 V"
b0 U"
b0 T"
b0 S"
b0 R"
b0 Q"
b0 P"
b0 O"
0N"
0M"
b0 L"
b0 K"
b0 J"
b0 I"
b0 H"
b0 G"
b0 F"
b0 E"
xD"
0C"
b0 B"
b0 A"
b0 @"
b0 ?"
b0 >"
b0 ="
0<"
b0 ;"
0:"
b0 9"
b0 8"
b0 7"
b0 6"
b0 5"
b0 4"
b0 3"
b0 2"
b0 1"
b0 0"
b0 /"
0."
b0 -"
b0 ,"
b0 +"
b0 *"
b0 )"
b0 ("
b0 '"
b0 &"
b0 %"
b0 $"
b0 #"
b0 ""
b0 !"
b0 ~
b0 }
b0 |
0{
b0 z
0y
b0 x
b0 w
0v
b0 u
b0 t
0s
b0 r
b0 q
b0 p
b0 o
b0 n
b0 m
b0 l
b0 k
b0 j
b0 i
b0 h
b0 g
b0 f
b0 e
b0 d
b0 c
b0 b
b0 a
b0 `
b0 _
b0 ^
b0 ]
b0 \
b0 [
b0 Z
b0 Y
b0 X
0W
0V
b0 U
b0 T
b0 S
b0 R
0Q
0P
b0 O
b0 N
b0 M
b0 L
b0 K
0J
0I
0H
0G
b0 F
b0 E
b0 D
b0 C
b0 B
b0 A
b0 @
b0 ?
0>
b0 =
b0 <
b0 ;
b0 :
b0 9
b0 8
b0 7
06
b0 5
b0 4
b0 3
b0 2
x1
00
0/
b0 .
b0 -
b0 ,
b0 +
b0 *
b0 )
b0 (
b0 '
b0 &
1%
0$
b0 #
b0 "
1!
$end
#20000
0!
#30000
1!
#40000
0!
#50000
1!
#60000
0!
#70000
1!
#80000
0!
#90000
1!
#100000
0!
#110000
1!
#120000
0!
#130000
1!
#140000
0!
#150000
1!
#160000
0!
#170000
1!
#180000
0!
#190000
1!
#195000
0D"
01
1y
1Q
1{
1>
b101 p
b101 7
b101 $"
b10 q
b10 8
b10 %"
0s
0%
#200000
0!
#210000
b111100000000010000000000000000 h"
b111100000000010000000000000000 "
b111100000000010000000000000000 S
b111100000000010000000000000000 Y
1C"
10
1W
1$
1."
1/
b10 *"
b10 '
b10 0"
b101 )"
b101 &
b101 /"
1!
#220000
0!
#230000
1v
1P
b1 z
b1 =
b1 ("
b1 w
b1 M
b1 }
0y
0Q
1{
1>
0s
b10 p
b10 7
b10 $"
b1 q
b1 8
b1 %"
1W"
1H
b111100000000101111111111111111 h"
b111100000000101111111111111111 "
b111100000000101111111111111111 S
b111100000000101111111111111111 Y
b1111 d
b1 g
b1 `
b1 l
1M"
1G
b111100000000010000000000000000 [
b111100000000010000000000000000 9
b111100000000010000000000000000 a
b100 X
b100 K
b100 Z
b100 #
b100 R
b100 g"
1!
#240000
0!
#250000
b11111111111111110000000000000000 x
b11111111111111110000000000000000 <
b11111111111111110000000000000000 '"
b11111111111111110000000000000000 r
b10 w
b10 M
b10 }
1v
1P
b10 z
b10 =
b10 ("
1{
1>
0s
b10 p
b10 7
b10 $"
b1 q
b1 8
b1 %"
b111100000000110000010100000101 h"
b111100000000110000010100000101 "
b111100000000110000010100000101 S
b111100000000110000010100000101 Y
b1 A"
b1 -
b1 ]
b1 G"
b10 g
b10 `
b10 l
b11111 e
b11111 m
b11111 h
b111111 i
b1111111111111111 _
b1000 X
b1000 K
b1000 Z
b1000 #
b1000 R
b1000 g"
b111100000000101111111111111111 [
b111100000000101111111111111111 9
b111100000000101111111111111111 a
b100 \
b100 :
b100 j
b1 -"
b1 ,
b1 7"
b1 *"
b1 '
b1 0"
b10 )"
b10 &
b10 /"
1a"
1V
1!
#260000
0!
#270000
b101000001010000000000000000 x
b101000001010000000000000000 <
b101000001010000000000000000 '"
b11111111111111110000000000000000 B"
b11111111111111110000000000000000 .
b11111111111111110000000000000000 ^
b11111111111111110000000000000000 H"
b101000001010000000000000000 r
b11 w
b11 M
b11 }
1v
1P
b11 z
b11 =
b11 ("
1{
1>
0s
b10 p
b10 7
b10 $"
b1 q
b1 8
b1 %"
b1 U"
b1 D
b1 b
b1 ["
b10 A"
b10 -
b10 ]
b10 G"
b11111111111111110000000000000000 >"
b111100000001000000000000000000 h"
b111100000001000000000000000000 "
b111100000001000000000000000000 S
b111100000001000000000000000000 Y
b11 g
b11 `
b11 l
b0 e
b0 m
b10100 h
b101 i
b10100000101 _
b1 K"
b1 C
b1 Q"
b10 -"
b10 ,
b10 7"
b11111111111111110000000000000000 ,"
b11111111111111110000000000000000 +
b11111111111111110000000000000000 6"
b111100000000110000010100000101 [
b111100000000110000010100000101 9
b111100000000110000010100000101 a
b1000 \
b1000 :
b1000 j
b1100 X
b1100 K
b1100 Z
b1100 #
b1100 R
b1100 g"
1!
#280000
0!
#290000
b101000001010000000000000000 B"
b101000001010000000000000000 .
b101000001010000000000000000 ^
b101000001010000000000000000 H"
b0 x
b0 <
b0 '"
b0 r
b100 w
b100 M
b100 }
1v
1P
b100 z
b100 =
b100 ("
1{
1>
0s
b10 p
b10 7
b10 $"
b1 q
b1 8
b1 %"
b10000010010000000001010 h"
b10000010010000000001010 "
b10000010010000000001010 S
b10000010010000000001010 Y
b11 A"
b11 -
b11 ]
b11 G"
b101000001010000000000000000 >"
b11111111111111110000000000000000 V"
b11111111111111110000000000000000 F
b11111111111111110000000000000000 c
b11111111111111110000000000000000 \"
b10 U"
b10 D
b10 b
b10 ["
b100 g
b100 `
b100 l
b0 h
b0 i
b0 _
b10000 X
b10000 K
b10000 Z
b10000 #
b10000 R
b10000 g"
b111100000001000000000000000000 [
b111100000001000000000000000000 9
b111100000001000000000000000000 a
b1100 \
b1100 :
b1100 j
b11 -"
b11 ,
b11 7"
b101000001010000000000000000 ,"
b101000001010000000000000000 +
b101000001010000000000000000 6"
b11111111111111110000000000000000 L"
b11111111111111110000000000000000 E
b11111111111111110000000000000000 R"
b10 K"
b10 C
b10 Q"
b1 _"
b1 T
b1 ~
1!
#300000
0!
#310000
b11111111111111110000000000000000 u
b11111111111111110000000000000000 ;
b11111111111111110000000000000000 &"
b11111111111111110000000000000000 ""
b11111111111111110000000000000000 N
b11111111111111110000000000000000 n
b0 B"
b0 .
b0 ^
b0 H"
1y
1Q
b1 w
b1 M
b1 }
b10 t
b10 L
b10 |
1v
1P
1{
1>
0s
b1000 p
b1000 7
b1000 $"
b11 q
b11 8
b11 %"
b101000001010000000000000000 V"
b101000001010000000000000000 F
b101000001010000000000000000 c
b101000001010000000000000000 \"
b11 U"
b11 D
b11 b
b11 ["
b100 A"
b100 -
b100 ]
b100 G"
b0 >"
b11000010010000000001011 h"
b11000010010000000001011 "
b11000010010000000001011 S
b11000010010000000001011 Y
b0 d
b10 f
b10 k
b1 g
b1 `
b1 l
b100 e
b100 m
b1010 i
b10000000001010 _
b11111111111111110000000000000000 `"
b11111111111111110000000000000000 U
b11111111111111110000000000000000 !"
b10 _"
b10 T
b10 ~
b101000001010000000000000000 L"
b101000001010000000000000000 E
b101000001010000000000000000 R"
b11 K"
b11 C
b11 Q"
b100 -"
b100 ,
b100 7"
b0 ,"
b0 +
b0 6"
b0 j"
b10000010010000000001010 [
b10000010010000000001010 9
b10000010010000000001010 a
b10000 \
b10000 :
b10000 j
b10100 X
b10100 K
b10100 Z
b10100 #
b10100 R
b10100 g"
1!
#320000
0!
#330000
b101000001010000000000000000 u
b101000001010000000000000000 ;
b101000001010000000000000000 &"
b101000001010000000000000000 ""
b101000001010000000000000000 N
b101000001010000000000000000 n
b11111111111111110000000000000000 B"
b11111111111111110000000000000000 .
b11111111111111110000000000000000 ^
b11111111111111110000000000000000 H"
b11 t
b11 L
b11 |
1y
1Q
1v
1P
0{
0>
0s
b1001 p
b1001 7
b1001 $"
b11 q
b11 8
b11 %"
b11000100010000000001011 h"
b11000100010000000001011 "
b11000100010000000001011 S
b11000100010000000001011 Y
b11111111111111110000000000000000 ?"
b0 V"
b0 F
b0 c
b0 \"
b100 U"
b100 D
b100 b
b100 ["
b11 f
b11 k
b1011 i
b10000000001011 _
b11000 X
b11000 K
b11000 Z
b11000 #
b11000 R
b11000 g"
b11000010010000000001011 [
b11000010010000000001011 9
b11000010010000000001011 a
b10100 \
b10100 :
b10100 j
b11111111111111110000000000000000 k"
b11111111111111110000000000000000 +"
b11111111111111110000000000000000 *
b11111111111111110000000000000000 5"
b11 *"
b11 '
b11 0"
b1000 )"
b1000 &
b1000 /"
b0 L"
b0 E
b0 R"
b100 K"
b100 C
b100 Q"
b101000001010000000000000000 `"
b101000001010000000000000000 U
b101000001010000000000000000 !"
b11 _"
b11 T
b11 ~
1!
#340000
0!
#350000
1{
1>
b11111111111111110000000000000000 x
b11111111111111110000000000000000 <
b11111111111111110000000000000000 '"
b11111111111111110000000000000000 #"
b11111111111111110000000000000000 O
b11111111111111110000000000000000 o
b101000001010000000000000000 B"
b101000001010000000000000000 .
b101000001010000000000000000 ^
b101000001010000000000000000 H"
b10 w
b10 M
b10 }
1y
1Q
1v
1P
0s
b1001 p
b1001 7
b1001 $"
b11 q
b11 8
b11 %"
b11111111111111110000000000000000 V"
b11111111111111110000000000000000 F
b11111111111111110000000000000000 c
b11111111111111110000000000000000 \"
0C"
00
b101000001010000000000000000 ?"
b11000100010000000001010 h"
b11000100010000000001010 "
b11000100010000000001010 S
b11000100010000000001010 Y
b10 g
b10 `
b10 l
b0 `"
b0 U
b0 !"
b100 _"
b100 T
b100 ~
b11111111111111110000000000000000 L"
b11111111111111110000000000000000 E
b11111111111111110000000000000000 R"
0."
0/
b101000001010000000000000000 +"
b101000001010000000000000000 *
b101000001010000000000000000 5"
b1001 )"
b1001 &
b1001 /"
b101000001010000000000000000 l"
b11000100010000000001011 [
b11000100010000000001011 9
b11000100010000000001011 a
b11000 \
b11000 :
b11000 j
b11100 X
b11100 K
b11100 Z
b11100 #
b11100 R
b11100 g"
1!
#360000
0!
#370000
1y
1Q
1v
1P
0{
0>
0s
b1000 p
b1000 7
b1000 $"
b11 q
b11 8
b11 %"
b10001 h"
b10001 "
b10001 S
b10001 Y
1C"
10
b101000001010000000000000000 V"
b101000001010000000000000000 F
b101000001010000000000000000 c
b101000001010000000000000000 \"
0W"
0H
b1010 i
b10000000001010 _
b100000 X
b100000 K
b100000 Z
b100000 #
b100000 R
b100000 g"
b11000100010000000001010 [
b11000100010000000001010 9
b11000100010000000001010 a
b11100 \
b11100 :
b11100 j
b0 m"
1."
1/
b11111111111111110000000000000000 ,"
b11111111111111110000000000000000 +
b11111111111111110000000000000000 6"
b101000001010000000000000000 L"
b101000001010000000000000000 E
b101000001010000000000000000 R"
0M"
0G
b11111111111111110000000000000000 `"
b11111111111111110000000000000000 U
b11111111111111110000000000000000 !"
1!
#380000
0!
#390000
b0 u
b0 ;
b0 &"
b0 #"
b0 O
b0 o
b0 ""
b0 N
b0 n
b0 x
b0 <
b0 '"
1{
1>
b0 w
b0 M
b0 }
b0 t
b0 L
b0 |
0y
0Q
1v
1P
b0 z
b0 =
b0 ("
0s
b1100 p
b1100 7
b1100 $"
b0 q
b0 8
b0 %"
1W"
1H
0C"
00
b10000000000000000010001 h"
b10000000000000000010001 "
b10000000000000000010001 S
b10000000000000000010001 Y
b0 f
b0 k
b0 g
b0 `
b0 l
b0 e
b0 m
b10001 i
b10001 _
b101000001010000000000000000 `"
b101000001010000000000000000 U
b101000001010000000000000000 !"
0a"
0V
1M"
1G
0."
0/
b1000 )"
b1000 &
b1000 /"
b11111111111111110000000000000000 m"
b10001 [
b10001 9
b10001 a
b100000 \
b100000 :
b100000 j
b100100 X
b100100 K
b100100 Z
b100100 #
b100100 R
b100100 g"
1!
#400000
0!
#410000
b11111111111111110000000000000000 u
b11111111111111110000000000000000 ;
b11111111111111110000000000000000 &"
b11111111111111110000000000000000 ""
b11111111111111110000000000000000 N
b11111111111111110000000000000000 n
b10 t
b10 L
b10 |
1v
1P
1{
1>
0s
b1100 p
b1100 7
b1100 $"
b11000000000000000010001 h"
b11000000000000000010001 "
b11000000000000000010001 S
b11000000000000000010001 Y
b0 B"
b0 .
b0 ^
b0 H"
1C"
10
b0 A"
b0 -
b0 ]
b0 G"
1D"
11
b0 ?"
0W"
0H
b10 f
b10 k
b101000 X
b101000 K
b101000 Z
b101000 #
b101000 R
b101000 g"
b10000000000000000010001 [
b10000000000000000010001 9
b10000000000000000010001 a
b100100 \
b100100 :
b100100 j
1."
1/
b0 -"
b0 ,
b0 7"
b0 ,"
b0 +
b0 6"
b0 +"
b0 *
b0 5"
b0 *"
b0 '
b0 0"
b1100 )"
b1100 &
b1100 /"
0M"
0G
1a"
1V
1!
#420000
0!
#430000
b101000001010000000000000000 u
b101000001010000000000000000 ;
b101000001010000000000000000 &"
b101000001010000000000000000 ""
b101000001010000000000000000 N
b101000001010000000000000000 n
b11 t
b11 L
b11 |
1v
1P
1{
1>
0s
b1100 p
b1100 7
b1100 $"
1X"
1J
b0 V"
b0 F
b0 c
b0 \"
1W"
1H
b0 U"
b0 D
b0 b
b0 ["
b11111111111111110000000000000000 ;"
b11111111111111110000000000000000 (
b11111111111111110000000000000000 E"
b10000000010000 h"
b10000000010000 "
b10000000010000 S
b10000000010000 Y
b11 f
b11 k
0a"
0V
1N"
1I
b0 L"
b0 E
b0 R"
1M"
1G
b0 K"
b0 C
b0 Q"
b11111111111111110000000000000000 +"
b11111111111111110000000000000000 *
b11111111111111110000000000000000 5"
b101000001010000000000000000 m"
b11000000000000000010001 [
b11000000000000000010001 9
b11000000000000000010001 a
b101000 \
b101000 :
b101000 j
b101100 X
b101100 K
b101100 Z
b101100 #
b101100 R
b101100 g"
1!
#440000
0!
#450000
b0 ""
b0 N
b0 n
b0 u
b0 ;
b0 &"
b11 q
b11 8
b11 %"
b0 t
b0 L
b0 |
0v
0P
b100 z
b100 =
b100 ("
1{
1>
0s
b1010 p
b1010 7
b1010 $"
b11000000000000000010011 h"
b11000000000000000010011 "
b11000000000000000010011 S
b11000000000000000010011 Y
b101000001010000000000000000 ;"
b101000001010000000000000000 (
b101000001010000000000000000 E"
b11111111111111110000000000000000 S"
b11111111111111110000000000000000 @
b11111111111111110000000000000000 3"
b11111111111111110000000000000000 Y"
b0 f
b0 k
b100 e
b100 m
b10000 i
b10000000010000 _
b110000 X
b110000 K
b110000 Z
b110000 #
b110000 R
b110000 g"
b10000000010000 [
b10000000010000 9
b10000000010000 a
b101100 \
b101100 :
b101100 j
b101000001010000000000000000 +"
b101000001010000000000000000 *
b101000001010000000000000000 5"
b11111111111111110000000000000000 I"
b11111111111111110000000000000000 ?
b11111111111111110000000000000000 O"
1b"
16
b0 `"
b0 U
b0 !"
1a"
1V
b0 _"
b0 T
b0 ~
1!
#460000
0!
#470000
b101000001010000000000000000 u
b101000001010000000000000000 ;
b101000001010000000000000000 &"
b101000001010000000000000000 ""
b101000001010000000000000000 N
b101000001010000000000000000 n
1v
1P
b11 t
b11 L
b11 |
b0 z
b0 =
b0 ("
1{
1>
0s
b1101 p
b1101 7
b1101 $"
b0 q
b0 8
b0 %"
b101000001010000000000000000 S"
b101000001010000000000000000 @
b101000001010000000000000000 3"
b101000001010000000000000000 Y"
b100 A"
b100 -
b100 ]
b100 G"
b0 ;"
b0 (
b0 E"
0D"
01
b10000000000000000010011 h"
b10000000000000000010011 "
b10000000000000000010011 S
b10000000000000000010011 Y
b11 f
b11 k
b0 e
b0 m
b10011 i
b10011 _
b11111111111111110000000000000000 ]"
b11111111111111110000000000000000 2
b11111111111111110000000000000000 8"
b11111111111111110000000000000000 c"
b101000001010000000000000000 I"
b101000001010000000000000000 ?
b101000001010000000000000000 O"
b100 -"
b100 ,
b100 7"
b0 +"
b0 *
b0 5"
b11 *"
b11 '
b11 0"
b1010 )"
b1010 &
b1010 /"
b11000000000000000010011 [
b11000000000000000010011 9
b11000000000000000010011 a
b110000 \
b110000 :
b110000 j
b110100 X
b110100 K
b110100 Z
b110100 #
b110100 R
b110100 g"
1!
#480000
0!
#490000
b11111111111111110000000000000000 u
b11111111111111110000000000000000 ;
b11111111111111110000000000000000 &"
b11111111111111110000000000000000 ""
b11111111111111110000000000000000 N
b11111111111111110000000000000000 n
b10 t
b10 L
b10 |
1v
1P
1{
1>
0s
b1101 p
b1101 7
b1101 $"
b1000000000000000010011 h"
b1000000000000000010011 "
b1000000000000000010011 S
b1000000000000000010011 Y
b0 A"
b0 -
b0 ]
b0 G"
b101000001010000000000000000 ="
b101000001010000000000000000 )
b101000001010000000000000000 F"
1D"
11
b0 S"
b0 @
b0 3"
b0 Y"
0X"
0J
b100 U"
b100 D
b100 b
b100 ["
b10 f
b10 k
b111000 X
b111000 K
b111000 Z
b111000 #
b111000 R
b111000 g"
b10000000000000000010011 [
b10000000000000000010011 9
b10000000000000000010011 a
b110100 \
b110100 :
b110100 j
b0 -"
b0 ,
b0 7"
b101000001010000000000000000 +"
b101000001010000000000000000 *
b101000001010000000000000000 5"
b0 *"
b0 '
b0 0"
b1101 )"
b1101 &
b1101 /"
b0 I"
b0 ?
b0 O"
0N"
0I
b100 K"
b100 C
b100 Q"
b101000001010000000000000000 ]"
b101000001010000000000000000 2
b101000001010000000000000000 8"
b101000001010000000000000000 c"
1!
#500000
0!
#510000
b0 u
b0 ;
b0 &"
b0 ""
b0 N
b0 n
b1 t
b1 L
b1 |
1v
1P
1{
1>
0s
b1101 p
b1101 7
b1101 $"
b101000001010000000000000000 T"
b101000001010000000000000000 B
b101000001010000000000000000 4"
b101000001010000000000000000 Z"
1X"
1J
b0 U"
b0 D
b0 b
b0 ["
b11111111111111110000000000000000 ="
b11111111111111110000000000000000 )
b11111111111111110000000000000000 F"
b10000000010010 h"
b10000000010010 "
b10000000010010 S
b10000000010010 Y
b1 f
b1 k
b0 ]"
b0 2
b0 8"
b0 c"
0b"
06
b100 _"
b100 T
b100 ~
b101000001010000000000000000 J"
b101000001010000000000000000 A
b101000001010000000000000000 P"
1N"
1I
b0 K"
b0 C
b0 Q"
b11111111111111110000000000000000 +"
b11111111111111110000000000000000 *
b11111111111111110000000000000000 5"
b1000000000000000010011 [
b1000000000000000010011 9
b1000000000000000010011 a
b111000 \
b111000 :
b111000 j
b111100 X
b111100 K
b111100 Z
b111100 #
b111100 R
b111100 g"
1!
#520000
0!
#530000
b11 q
b11 8
b11 %"
b0 t
b0 L
b0 |
0v
0P
b100 z
b100 =
b100 ("
1{
1>
0s
b1011 p
b1011 7
b1011 $"
bx h"
bx "
bx S
bx Y
b0 ="
b0 )
b0 F"
b11111111111111110000000000000000 T"
b11111111111111110000000000000000 B
b11111111111111110000000000000000 4"
b11111111111111110000000000000000 Z"
b0 f
b0 k
b100 e
b100 m
b10010 i
b10000000010010 _
b1000000 X
b1000000 K
b1000000 Z
b1000000 #
b1000000 R
b1000000 g"
b10000000010010 [
b10000000010010 9
b10000000010010 a
b111100 \
b111100 :
b111100 j
b0 m"
b0 +"
b0 *
b0 5"
b11111111111111110000000000000000 J"
b11111111111111110000000000000000 A
b11111111111111110000000000000000 P"
b101000001010000000000000000 ^"
b101000001010000000000000000 4
b101000001010000000000000000 9"
b101000001010000000000000000 d"
1b"
16
b0 _"
b0 T
b0 ~
1!
#540000
0!
