cpu-code/openmips_min_sopc.vcd
$date
	Wed Apr 22 12:16:47 2015
$end
$version
	Icarus Verilog
$end
$timescale
	1ps
$end
$scope module openmips_min_sopc_tb $end
$scope module openmips_min_sopc0 $end
$var wire 1 ! clk $end
$var wire 32 " inst [31:0] $end
$var wire 32 # inst_addr [31:0] $end
$var wire 1 $ rom_ce $end
$var wire 1 % rst $end
$scope module openmips0 $end
$var wire 1 & branch_flag_o $end
$var wire 32 ' branch_target_address_o [31:0] $end
$var wire 1 ! clk $end
$var wire 2 ( cnt_ex_mem_o [1:0] $end
$var wire 2 ) cnt_ex_o [1:0] $end
$var wire 32 * div_opdata1_o [31:0] $end
$var wire 32 + div_opdata2_o [31:0] $end
$var wire 64 , div_result_o [63:0] $end
$var wire 1 - div_result_ready_o $end
$var wire 1 . div_start_o $end
$var wire 8 / ex_aluop_i [7:0] $end
$var wire 3 0 ex_alusel_i [2:0] $end
$var wire 32 1 ex_hi_o [31:0] $end
$var wire 1 2 ex_is_in_delayslot $end
$var wire 32 3 ex_link_address [31:0] $end
$var wire 32 4 ex_lo_o [31:0] $end
$var wire 32 5 ex_reg1_i [31:0] $end
$var wire 32 6 ex_reg2_i [31:0] $end
$var wire 5 7 ex_waddr_i [4:0] $end
$var wire 5 8 ex_waddr_o [4:0] $end
$var wire 32 9 ex_wdata_o [31:0] $end
$var wire 1 : ex_we_i $end
$var wire 1 ; ex_we_o $end
$var wire 1 < ex_whilo_o $end
$var wire 32 = hilo_hi_i [31:0] $end
$var wire 32 > hilo_hi_o [31:0] $end
$var wire 32 ? hilo_lo_i [31:0] $end
$var wire 32 @ hilo_lo_o [31:0] $end
$var wire 64 A hilo_temp_ex_mem_o [63:0] $end
$var wire 64 B hilo_temp_ex_o [63:0] $end
$var wire 1 C hilo_whilo_i $end
$var wire 8 D id_aluop_o [7:0] $end
$var wire 3 E id_alusel_o [2:0] $end
$var wire 32 F id_inst_i [31:0] $end
$var wire 32 G id_pc_i [31:0] $end
$var wire 32 H id_reg1_o [31:0] $end
$var wire 32 I id_reg2_o [31:0] $end
$var wire 5 J id_waddr_o [4:0] $end
$var wire 1 K id_we_o $end
$var wire 1 L is_delayslot_o $end
$var wire 1 M is_in_delayslot_o $end
$var wire 32 N link_addr_o [31:0] $end
$var wire 32 O mem_hi_i [31:0] $end
$var wire 32 P mem_hi_o [31:0] $end
$var wire 32 Q mem_lo_i [31:0] $end
$var wire 32 R mem_lo_o [31:0] $end
$var wire 5 S mem_waddr_i [4:0] $end
$var wire 5 T mem_waddr_o [4:0] $end
$var wire 32 U mem_wdata_i [31:0] $end
$var wire 32 V mem_wdata_o [31:0] $end
$var wire 1 W mem_we_i $end
$var wire 1 X mem_we_o $end
$var wire 1 Y mem_whilo_i $end
$var wire 1 Z mem_whilo_o $end
$var wire 1 [ next_inst_in_delayslot_o $end
$var wire 32 \ pc [31:0] $end
$var wire 5 ] reg_raddr1 [4:0] $end
$var wire 5 ^ reg_raddr2 [4:0] $end
$var wire 32 _ reg_rdata1 [31:0] $end
$var wire 32 ` reg_rdata2 [31:0] $end
$var wire 1 a reg_re1 $end
$var wire 1 b reg_re2 $end
$var wire 32 c rom_addr_o [31:0] $end
$var wire 1 $ rom_ce_o $end
$var wire 32 d rom_data_i [31:0] $end
$var wire 1 % rst $end
$var wire 1 e signed_div_o $end
$var wire 6 f stall [5:0] $end
$var wire 1 g stallreq_from_ex $end
$var wire 1 h stallreq_from_id $end
$var wire 5 i wb_waddr_i [4:0] $end
$var wire 32 j wb_wdata_i [31:0] $end
$var wire 1 k wb_we_i $end
$scope module pc_reg0 $end
$var wire 1 & branch_flag_i $end
$var wire 32 l branch_target_address_i [31:0] $end
$var wire 1 ! clk $end
$var wire 1 % rst $end
$var wire 6 m stall [5:0] $end
$var reg 1 n ce $end
$var reg 32 o pc [31:0] $end
$upscope $end
$scope module if_id0 $end
$var wire 1 ! clk $end
$var wire 32 p if_inst [31:0] $end
$var wire 32 q if_pc [31:0] $end
$var wire 1 % rst $end
$var wire 6 r stall [5:0] $end
$var reg 32 s id_inst [31:0] $end
$var reg 32 t id_pc [31:0] $end
$upscope $end
$scope module id0 $end
$var wire 5 u ex_waddr_i [4:0] $end
$var wire 32 v ex_wdata_i [31:0] $end
$var wire 1 ; ex_we_i $end
$var wire 16 w i_imm [15:0] $end
$var wire 5 x i_write_address [4:0] $end
$var wire 32 y imm_sll2_signedext [31:0] $end
$var wire 32 z inst_i [31:0] $end
$var wire 1 L is_in_delayslot_i $end
$var wire 5 { mem_waddr_i [4:0] $end
$var wire 32 | mem_wdata_i [31:0] $end
$var wire 1 X mem_we_i $end
$var wire 6 } op_class [5:0] $end
$var wire 5 ~ op_rd [4:0] $end
$var wire 5 !" op_rs [4:0] $end
$var wire 5 "" op_rt [4:0] $end
$var wire 5 #" op_sa [4:0] $end
$var wire 6 $" op_subclass [5:0] $end
$var wire 32 %" pc_i [31:0] $end
$var wire 32 &" pc_plus_4 [31:0] $end
$var wire 32 '" pc_plus_8 [31:0] $end
$var wire 5 (" r_read1_address [4:0] $end
$var wire 5 )" r_read2_address [4:0] $end
$var wire 5 *" r_write_address [4:0] $end
$var wire 32 +" reg1_data_i [31:0] $end
$var wire 32 ," reg2_data_i [31:0] $end
$var wire 1 % rst $end
$var reg 8 -" aluop_o [7:0] $end
$var reg 3 ." alusel_o [2:0] $end
$var reg 1 /" branch_flag_o $end
$var reg 32 0" branch_target_address_o [31:0] $end
$var reg 32 1" imm [31:0] $end
$var reg 1 2" instvalid $end
$var reg 1 3" is_in_delayslot_o $end
$var reg 32 4" link_addr_o [31:0] $end
$var reg 1 5" next_inst_in_delayslot_o $end
$var reg 5 6" reg1_addr_o [4:0] $end
$var reg 32 7" reg1_o [31:0] $end
$var reg 1 8" reg1_re_o $end
$var reg 5 9" reg2_addr_o [4:0] $end
$var reg 32 :" reg2_o [31:0] $end
$var reg 1 ;" reg2_re_o $end
$var reg 1 <" stallreq $end
$var reg 5 =" waddr_o [4:0] $end
$var reg 1 >" we_o $end
$upscope $end
$scope module regfile0 $end
$var wire 1 ! clk $end
$var wire 5 ?" raddr1 [4:0] $end
$var wire 5 @" raddr2 [4:0] $end
$var wire 1 a re1 $end
$var wire 1 b re2 $end
$var wire 1 % rst $end
$var wire 5 A" waddr [4:0] $end
$var wire 32 B" wdata [31:0] $end
$var wire 1 k we $end
$var reg 32 C" rdata1 [31:0] $end
$var reg 32 D" rdata2 [31:0] $end
$upscope $end
$scope module id_ex0 $end
$var wire 1 ! clk $end
$var wire 8 E" id_aluop [7:0] $end
$var wire 3 F" id_alusel [2:0] $end
$var wire 1 M id_is_in_delayslot $end
$var wire 32 G" id_link_address [31:0] $end
$var wire 32 H" id_reg1 [31:0] $end
$var wire 32 I" id_reg2 [31:0] $end
$var wire 5 J" id_waddr [4:0] $end
$var wire 1 K id_we $end
$var wire 1 [ next_inst_in_delayslot_i $end
$var wire 1 % rst $end
$var wire 6 K" stall [5:0] $end
$var reg 8 L" ex_aluop [7:0] $end
$var reg 3 M" ex_alusel [2:0] $end
$var reg 1 N" ex_is_in_delayslot $end
$var reg 32 O" ex_link_address [31:0] $end
$var reg 32 P" ex_reg1 [31:0] $end
$var reg 32 Q" ex_reg2 [31:0] $end
$var reg 5 R" ex_waddr [4:0] $end
$var reg 1 S" ex_we $end
$var reg 1 T" is_delayslot_o $end
$upscope $end
$scope module ex0 $end
$var wire 8 U" aluop_i [7:0] $end
$var wire 3 V" alusel_i [2:0] $end
$var wire 2 W" cnt_i [1:0] $end
$var wire 64 X" div_result_i [63:0] $end
$var wire 1 - div_result_ready_i $end
$var wire 32 Y" hi_i [31:0] $end
$var wire 64 Z" hilo_temp [63:0] $end
$var wire 64 [" hilo_temp_i [63:0] $end
$var wire 1 2 is_in_delayslot_i $end
$var wire 32 \" link_address_i [31:0] $end
$var wire 32 ]" lo_i [31:0] $end
$var wire 32 ^" mem_hi_i [31:0] $end
$var wire 32 _" mem_lo_i [31:0] $end
$var wire 1 Z mem_whilo_i $end
$var wire 32 `" opdata1_mult [31:0] $end
$var wire 32 a" opdata2_mult [31:0] $end
$var wire 1 b" overflow_sum $end
$var wire 32 c" reg1_i [31:0] $end
$var wire 32 d" reg1_i_not [31:0] $end
$var wire 1 e" reg1_lt_reg2 $end
$var wire 32 f" reg2_i [31:0] $end
$var wire 32 g" reg2_i_mux [31:0] $end
$var wire 32 h" result_sum [31:0] $end
$var wire 1 % rst $end
$var wire 5 i" waddr_i [4:0] $end
$var wire 32 j" wb_hi_i [31:0] $end
$var wire 32 k" wb_lo_i [31:0] $end
$var wire 1 C wb_whilo_i $end
$var wire 1 : we_i $end
$var reg 2 l" cnt_o [1:0] $end
$var reg 32 m" div_opdata1_o [31:0] $end
$var reg 32 n" div_opdata2_o [31:0] $end
$var reg 1 o" div_start_o $end
$var reg 32 p" hi_i_reg [31:0] $end
$var reg 32 q" hi_o [31:0] $end
$var reg 64 r" hilo_temp_o [63:0] $end
$var reg 64 s" hilo_temp_stall [63:0] $end
$var reg 32 t" lo_i_reg [31:0] $end
$var reg 32 u" lo_o [31:0] $end
$var reg 32 v" logicout [31:0] $end
$var reg 32 w" mathout [31:0] $end
$var reg 32 x" moveout [31:0] $end
$var reg 64 y" mulout [63:0] $end
$var reg 32 z" shiftout [31:0] $end
$var reg 1 {" signed_div_o $end
$var reg 1 |" stallreq $end
$var reg 1 }" stallreq_for_div $end
$var reg 1 ~" stallreq_for_madd_msub $end
$var reg 5 !# waddr_o [4:0] $end
$var reg 32 "# wdata_o [31:0] $end
$var reg 1 ## we_o $end
$var reg 1 $# whilo_o $end
$upscope $end
$scope module ex_mem0 $end
$var wire 1 ! clk $end
$var wire 2 %# cnt_i [1:0] $end
$var wire 32 &# ex_hi [31:0] $end
$var wire 32 '# ex_lo [31:0] $end
$var wire 5 (# ex_waddr [4:0] $end
$var wire 32 )# ex_wdata [31:0] $end
$var wire 1 ; ex_we $end
$var wire 1 < ex_whilo $end
$var wire 64 *# hilo_i [63:0] $end
$var wire 1 % rst $end
$var wire 6 +# stall [5:0] $end
$var reg 2 ,# cnt_o [1:0] $end
$var reg 64 -# hilo_o [63:0] $end
$var reg 32 .# mem_hi [31:0] $end
$var reg 32 /# mem_lo [31:0] $end
$var reg 5 0# mem_waddr [4:0] $end
$var reg 32 1# mem_wdata [31:0] $end
$var reg 1 2# mem_we $end
$var reg 1 3# mem_whilo $end
$upscope $end
$scope module mem0 $end
$var wire 32 4# hi_i [31:0] $end
$var wire 32 5# lo_i [31:0] $end
$var wire 1 % rst $end
$var wire 5 6# waddr_i [4:0] $end
$var wire 32 7# wdata_i [31:0] $end
$var wire 1 W we_i $end
$var wire 1 Y whilo_i $end
$var reg 32 8# hi_o [31:0] $end
$var reg 32 9# lo_o [31:0] $end
$var reg 5 :# waddr_o [4:0] $end
$var reg 32 ;# wdata_o [31:0] $end
$var reg 1 <# we_o $end
$var reg 1 =# whilo_o $end
$upscope $end
$scope module mem_wb0 $end
$var wire 1 ! clk $end
$var wire 32 ># mem_hi [31:0] $end
$var wire 32 ?# mem_lo [31:0] $end
$var wire 5 @# mem_waddr [4:0] $end
$var wire 32 A# mem_wdata [31:0] $end
$var wire 1 X mem_we $end
$var wire 1 Z mem_whilo $end
$var wire 1 % rst $end
$var wire 6 B# stall [5:0] $end
$var reg 32 C# wb_hi [31:0] $end
$var reg 32 D# wb_lo [31:0] $end
$var reg 5 E# wb_waddr [4:0] $end
$var reg 32 F# wb_wdata [31:0] $end
$var reg 1 G# wb_we $end
$var reg 1 H# wb_whilo $end
$upscope $end
$scope module hilo_reg0 $end
$var wire 1 ! clk $end
$var wire 32 I# hi_i [31:0] $end
$var wire 32 J# lo_i [31:0] $end
$var wire 1 % rst $end
$var wire 1 C we $end
$var reg 32 K# hi_o [31:0] $end
$var reg 32 L# lo_o [31:0] $end
$upscope $end
$scope module ctrl0 $end
$var wire 1 % rst $end
$var wire 1 g stallreq_from_ex $end
$var wire 1 h stallreq_from_id $end
$var reg 6 M# stall [5:0] $end
$upscope $end
$scope module div0 $end
$var wire 1 N# annul_i $end
$var wire 1 ! clk $end
$var wire 33 O# div_temp [32:0] $end
$var wire 32 P# opdata1_i [31:0] $end
$var wire 32 Q# opdata2_i [31:0] $end
$var wire 1 % rst $end
$var wire 1 e signed_div_i $end
$var wire 1 . start_i $end
$var wire 32 R# temp_op1 [31:0] $end
$var wire 32 S# temp_op2 [31:0] $end
$var reg 6 T# cnt [5:0] $end
$var reg 64 U# dividend [63:0] $end
$var reg 32 V# divisor [31:0] $end
$var reg 64 W# result_o [63:0] $end
$var reg 1 X# result_ready_o $end
$var reg 2 Y# state [1:0] $end
$upscope $end
$upscope $end
$scope module inst_rom0 $end
$var wire 32 Z# addr [31:0] $end
$var wire 1 $ ce $end
$var reg 32 [# inst [31:0] $end
$upscope $end
$upscope $end
$upscope $end
$scope module openmips_min_sopc_tb $end
$scope module openmips_min_sopc0 $end
$scope module openmips0 $end
$scope module regfile0 $end
$var reg 32 \# \regs[0] [31:0] $end
$upscope $end
$upscope $end
$upscope $end
$upscope $end
$scope module openmips_min_sopc_tb $end
$scope module openmips_min_sopc0 $end
$scope module openmips0 $end
$scope module regfile0 $end
$var reg 32 ]# \regs[1] [31:0] $end
$upscope $end
$upscope $end
$upscope $end
$upscope $end
$scope module openmips_min_sopc_tb $end
$scope module openmips_min_sopc0 $end
$scope module openmips0 $end
$scope module regfile0 $end
$var reg 32 ^# \regs[2] [31:0] $end
$upscope $end
$upscope $end
$upscope $end
$upscope $end
$scope module openmips_min_sopc_tb $end
$scope module openmips_min_sopc0 $end
$scope module openmips0 $end
$scope module regfile0 $end
$var reg 32 _# \regs[3] [31:0] $end
$upscope $end
$upscope $end
$upscope $end
$upscope $end
$scope module openmips_min_sopc_tb $end
$scope module openmips_min_sopc0 $end
$scope module openmips0 $end
$scope module regfile0 $end
$var reg 32 `# \regs[4] [31:0] $end
$upscope $end
$upscope $end
$upscope $end
$upscope $end
$scope module openmips_min_sopc_tb $end
$scope module openmips_min_sopc0 $end
$scope module openmips0 $end
$scope module regfile0 $end
$var reg 32 a# \regs[31] [31:0] $end
$upscope $end
$upscope $end
$upscope $end
$upscope $end
$enddefinitions $end
#0
$dumpvars
bx a#
bx `#
bx _#
bx ^#
bx ]#
bx \#
b0 [#
bx Z#
b0 Y#
0X#
b0 W#
bx V#
bx U#
bx T#
b0 S#
b0 R#
b0 Q#
b0 P#
bx O#
0N#
b0 M#
b0 L#
b0 K#
b0 J#
b0 I#
0H#
0G#
b0 F#
b0 E#
b0 D#
b0 C#
b0 B#
b0 A#
b0 @#
b0 ?#
b0 >#
0=#
0<#
b0 ;#
b0 :#
b0 9#
b0 8#
b0 7#
b0 6#
b0 5#
b0 4#
03#
02#
b0 1#
b0 0#
b0 /#
b0 .#
b0 -#
b0 ,#
b0 +#
b0 *#
b0 )#
b0 (#
b0 '#
b0 &#
b0 %#
0$#
0##
b0 "#
b0 !#
0~"
0}"
0|"
0{"
b0 z"
b0 y"
b0 x"
b0 w"
b0 v"
b0 u"
b0 t"
bx s"
b0 r"
b0 q"
b0 p"
0o"
b0 n"
b0 m"
b0 l"
b0 k"
b0 j"
b0 i"
b0 h"
b0 g"
b0 f"
0e"
b11111111111111111111111111111111 d"
b0 c"
0b"
b0 a"
b0 `"
b0 _"
b0 ^"
b0 ]"
bx \"
b0 ["
b0 Z"
b0 Y"
b0 X"
b0 W"
b0 V"
b0 U"
xT"
0S"
b0 R"
b0 Q"
b0 P"
bx O"
xN"
b0 M"
b0 L"
b0 K"
b0 J"
b0 I"
b0 H"
b0 G"
b0 F"
b0 E"
b0 D"
b0 C"
b0 B"
b0 A"
b0 @"
b0 ?"
0>"
b0 ="
0<"
0;"
b0 :"
b0 9"
08"
b0 7"
b0 6"
05"
b0 4"
03"
02"
b0 1"
b0 0"
0/"
b0 ."
b0 -"
b0 ,"
b0 +"
b0 *"
b0 )"
b0 ("
b1000 '"
b100 &"
b0 %"
b0 $"
b0 #"
b0 ""
b0 !"
b0 ~
b0 }
b0 |
b0 {
b0 z
b0 y
b0 x
b0 w
b0 v
b0 u
b0 t
b0 s
b0 r
bx q
b0 p
bx o
0n
b0 m
b0 l
0k
b0 j
b0 i
0h
0g
b0 f
0e
b0 d
bx c
0b
0a
b0 `
b0 _
b0 ^
b0 ]
bx \
0[
0Z
0Y
0X
0W
b0 V
b0 U
b0 T
b0 S
b0 R
b0 Q
b0 P
b0 O
b0 N
0M
xL
0K
b0 J
b0 I
b0 H
b0 G
b0 F
b0 E
b0 D
0C
b0 B
b0 A
b0 @
b0 ?
b0 >
b0 =
0<
0;
0:
b0 9
b0 8
b0 7
b0 6
b0 5
b0 4
bx 3
x2
b0 1
b0 0
b0 /
0.
0-
b0 ,
b0 +
b0 *
b0 )
b0 (
b0 '
0&
1%
0$
bx #
b0 "
1!
$end
#20000
0!
#30000
b0 o
b0 \
b0 q
b0 #
b0 c
b0 Z#
1!
#40000
0!
#50000
1!
#60000
0!
#70000
1!
#80000
0!
#90000
1!
#100000
0!
#110000
1!
#120000
0!
#130000
1!
#140000
0!
#150000
1!
#160000
0!
#170000
1!
#180000
0!
#190000
1!
#195000
1;"
1b
1>"
1K
b101 -"
b101 D
b101 E"
b10 ."
b10 E
b10 F"
02"
x3"
xM
0%
#200000
0!
#210000
b110100000000010000000000000001 [#
b110100000000010000000000000001 "
b110100000000010000000000000001 d
b110100000000010000000000000001 p
03"
0M
1##
1;
1n
1$
0T"
0L
b0 O"
b0 3
b0 \"
1S"
1:
b10 M"
b10 0
b10 V"
b101 L"
b101 /
b101 U"
1!
#220000
0!
#230000
b1 :"
b1 I
b1 I"
b1 1"
18"
1a
b1 ="
b1 J
b1 J"
b1 9"
b1 ^
b1 @"
1<#
1X
0;"
0b
1>"
1K
02"
b10 -"
b10 D
b10 E"
b1 ."
b1 E
b1 F"
b1000000000000000000000001000 [#
b1000000000000000000000001000 "
b1000000000000000000000001000 d
b1000000000000000000000001000 p
b1101 }
b1 ""
b1 x
b1 )"
b1 $"
b1 w
b100 y
12#
1W
0N"
02
b110100000000010000000000000001 s
b110100000000010000000000000001 F
b110100000000010000000000000001 z
b100 o
b100 \
b100 q
b100 #
b100 c
b100 Z#
1!
#240000
0!
#250000
b0 :"
b0 I
b0 I"
b1 "#
b1 9
b1 v
b1 )#
15"
1[
1/"
1&
b100000 0"
b100000 '
b100000 l
b0 9"
b0 ^
b0 @"
b110100000000010000000000000010 [#
b110100000000010000000000000010 "
b110100000000010000000000000010 d
b110100000000010000000000000010 p
b0 1"
08"
0a
b0 ="
b0 J
b0 J"
0>"
0K
02"
b100110 -"
b100110 D
b100110 E"
b110 ."
b110 E
b110 F"
b1 !#
b1 8
b1 u
b1 (#
b1 v"
b1 h"
b1 g"
b1 a"
b10 }
b0 ""
b0 x
b0 )"
b1000 $"
b1000 w
b100000 y
b1100 '"
b1000 &"
1e"
b1000 o
b1000 \
b1000 q
b1000 #
b1000 c
b1000 Z#
b1000000000000000000000001000 s
b1000000000000000000000001000 F
b1000000000000000000000001000 z
b100 t
b100 G
b100 %"
b1 R"
b1 7
b1 i"
b1 Q"
b1 6
b1 f"
b1 M"
b1 0
b1 V"
b10 L"
b10 /
b10 U"
1G#
1k
1!
#260000
0!
#270000
b10 :"
b10 I
b10 I"
b10 1"
18"
1a
b1 ="
b1 J
b1 J"
1>"
1K
b1 9"
b1 ^
b1 @"
b1 ;#
b1 V
b1 |
b1 A#
b1 :#
b1 T
b1 {
b1 @#
13"
1M
b0 "#
b0 9
b0 v
b0 )#
0##
0;
b0 !#
b0 8
b0 u
b0 (#
b0 v"
05"
0[
0/"
0&
b0 0"
b0 '
b0 l
02"
b10 -"
b10 D
b10 E"
b1 ."
b1 E
b1 F"
b110100000000010000000000000011 [#
b110100000000010000000000000011 "
b110100000000010000000000000011 d
b110100000000010000000000000011 p
b0 h"
b0 g"
b0 a"
0e"
b1101 }
b1 ""
b1 x
b1 )"
b10 $"
b10 w
b1000 y
b10000 '"
b1100 &"
b1 1#
b1 U
b1 7#
b1 0#
b1 S
b1 6#
1T"
1L
0S"
0:
b0 R"
b0 7
b0 i"
b0 Q"
b0 6
b0 f"
b110 M"
b110 0
b110 V"
b100110 L"
b100110 /
b100110 U"
b110100000000010000000000000010 s
b110100000000010000000000000010 F
b110100000000010000000000000010 z
b1000 t
b1000 G
b1000 %"
b100000 o
b100000 \
b100000 q
b100000 #
b100000 c
b100000 Z#
1!
#280000
0!
#290000
b10 "#
b10 9
b10 v
b10 )#
b11 :"
b11 I
b11 I"
b1100000000000000000000010000 [#
b1100000000000000000000010000 "
b1100000000000000000000010000 d
b1100000000000000000000010000 p
b11 1"
18"
1a
b1 ="
b1 J
b1 J"
1>"
1K
02"
b10 -"
b10 D
b10 E"
b1 ."
b1 E
b1 F"
03"
0M
1##
1;
b1 !#
b1 8
b1 u
b1 (#
b10 v"
b0 ;#
b0 V
b0 |
b0 A#
0<#
0X
b0 :#
b0 T
b0 {
b0 @#
b10 h"
b10 g"
b10 a"
b11 $"
b11 w
b1100 y
b101000 '"
b100100 &"
1e"
b100100 o
b100100 \
b100100 q
b100100 #
b100100 c
b100100 Z#
b110100000000010000000000000011 s
b110100000000010000000000000011 F
b110100000000010000000000000011 z
b100000 t
b100000 G
b100000 %"
0T"
0L
1N"
12
1S"
1:
b1 R"
b1 7
b1 i"
b10 Q"
b10 6
b10 f"
b1 M"
b1 0
b1 V"
b10 L"
b10 /
b10 U"
b0 1#
b0 U
b0 7#
02#
0W
b0 0#
b0 S
b0 6#
b1 F#
b1 j
b1 B"
b1 E#
b1 i
b1 A"
1!
#300000
0!
#310000
b11 "#
b11 9
b11 v
b11 )#
b0 :"
b0 I
b0 I"
15"
1[
1/"
1&
b1000000 0"
b1000000 '
b1000000 l
b101100 4"
b101100 N
b101100 G"
b0 9"
b0 ^
b0 @"
b10 ;#
b10 V
b10 |
b10 A#
1<#
1X
b1 :#
b1 T
b1 {
b1 @#
b11 v"
b0 1"
08"
0a
b11111 ="
b11111 J
b11111 J"
1>"
1K
02"
b100111 -"
b100111 D
b100111 E"
b110 ."
b110 E
b110 F"
b11111000010000000000011010 [#
b11111000010000000000011010 "
b11111000010000000000011010 d
b11111000010000000000011010 p
b11 h"
b11 g"
b11 a"
b11 }
b0 ""
b0 x
b0 )"
b10000 $"
b10000 w
b1000000 y
b101100 '"
b101000 &"
b0 F#
b0 j
b0 B"
0G#
0k
b0 E#
b0 i
b0 A"
b10 1#
b10 U
b10 7#
12#
1W
b1 0#
b1 S
b1 6#
0N"
02
b11 Q"
b11 6
b11 f"
b1 ]#
b1100000000000000000000010000 s
b1100000000000000000000010000 F
b1100000000000000000000010000 z
b100100 t
b100100 G
b100100 %"
b101000 o
b101000 \
b101000 q
b101000 #
b101000 c
b101000 Z#
1!
#320000
0!
#330000
b10 D"
b10 `
b10 ,"
bx C"
bx _
bx +"
b101100 7"
b101100 H
b101100 H"
b11 :"
b11 I
b11 I"
1;"
1b
18"
1a
b1 9"
b1 ^
b1 @"
b11111 6"
b11111 ]
b11111 ?"
b11111000000001000000001001 [#
b11111000000001000000001001 "
b11111000000001000000001001 d
b11111000000001000000001001 p
05"
0[
0/"
0&
b0 0"
b0 '
b0 l
b0 4"
b0 N
b0 G"
b0 ="
b0 J
b0 J"
0>"
0K
02"
b100001 -"
b100001 D
b100001 E"
b0 ."
b0 E
b0 F"
13"
1M
b101100 "#
b101100 9
b101100 v
b101100 )#
b11111 !#
b11111 8
b11111 u
b11111 (#
b0 v"
b11 ;#
b11 V
b11 |
b11 A#
b0 h"
b0 g"
b0 a"
b0 }
b11111 !"
b11111 ("
b1 ""
b1 x
b1 )"
b11010 $"
b11010 w
b1101000 y
b110000 '"
b101100 &"
0e"
b1000000 o
b1000000 \
b1000000 q
b1000000 #
b1000000 c
b1000000 Z#
b11111000010000000000011010 s
b11111000010000000000011010 F
b11111000010000000000011010 z
b101000 t
b101000 G
b101000 %"
1T"
1L
b101100 O"
b101100 3
b101100 \"
b11111 R"
b11111 7
b11111 i"
b0 Q"
b0 6
b0 f"
b110 M"
b110 0
b110 V"
b100111 L"
b100111 /
b100111 U"
b11 1#
b11 U
b11 7#
b10 F#
b10 j
b10 B"
1G#
1k
b1 E#
b1 i
b1 A"
1!
#340000
0!
#350000
b1111 M#
b1111 f
b1111 m
b1111 r
b1111 K"
b1111 +#
b1111 B#
b0 :"
b0 I
b0 I"
b11 S#
b101100 R#
1|"
1g
b10000100 y"
15"
1[
1/"
1&
b101100 0"
b101100 '
b101100 l
b1001000 4"
b1001000 N
b1001000 G"
1>"
1K
b110 ."
b110 E
b110 F"
b0 9"
b0 ^
b0 @"
b10 ="
b10 J
b10 J"
b101100 ;#
b101100 V
b101100 |
b101100 A#
b11111 :#
b11111 T
b11111 {
b11111 @#
03"
0M
b0 "#
b0 9
b0 v
b0 )#
0##
0;
b0 !#
b0 8
b0 u
b0 (#
1$#
1<
1}"
1{"
1e
1o"
1.
b11 n"
b11 +
b11 Q#
b101100 m"
b101100 *
b101100 P#
b0 D"
b0 `
b0 ,"
0;"
0b
18"
1a
02"
b100101 -"
b100101 D
b100101 E"
b10000000000100000100101 [#
b10000000000100000100101 "
b10000000000100000100101 d
b10000000000100000100101 p
b11 g"
b10000100 Z"
b11 a"
b101100 `"
b11111111111111111111111111010011 d"
b0 ""
b0 x
b0 )"
b10 ~
b10 *"
b1001 $"
b1000000001001 w
b100000000100100 y
b1001000 '"
b1000100 &"
b11 F#
b11 j
b11 B"
b101100 1#
b101100 U
b101100 7#
b11111 0#
b11111 S
b11111 6#
0T"
0L
1N"
12
b0 O"
b0 3
b0 \"
0S"
0:
b0 R"
b0 7
b0 i"
b11 Q"
b11 6
b11 f"
b101100 P"
b101111 h"
b101100 5
b101100 c"
b0 M"
b0 0
b0 V"
b100001 L"
b100001 /
b100001 U"
b10 ]#
b11111000000001000000001001 s
b11111000000001000000001001 F
b11111000000001000000001001 z
b1000000 t
b1000000 G
b1000000 %"
b1000100 o
b1000100 \
b1000100 q
b1000100 #
b1000100 c
b1000100 Z#
1!
#360000
0!
#370000
b0 ;#
b0 V
b0 |
b0 A#
0<#
0X
b0 :#
b0 T
b0 {
b0 @#
b101100 C"
b101100 _
b101100 +"
b111111111111111111111111111111101 O#
b11 ]#
b0 1#
b0 U
b0 7#
02#
0W
b0 0#
b0 S
b0 6#
b101100 F#
b101100 j
b101100 B"
b11111 E#
b11111 i
b11111 A"
b11 V#
b101100 U#
b0 T#
b1 Y#
1!
#380000
0!
#390000
b1 T#
b1011000 U#
b0 F#
b0 j
b0 B"
0G#
0k
b0 E#
b0 i
b0 A"
b101100 a#
1!
#400000
0!
#410000
b10 T#
b10110000 U#
1!
#420000
0!
#430000
b11 T#
b101100000 U#
1!
#440000
0!
#450000
b100 T#
b1011000000 U#
1!
#460000
0!
#470000
b101 T#
b10110000000 U#
1!
#480000
0!
#490000
b110 T#
b101100000000 U#
1!
#500000
0!
#510000
b111 T#
b1011000000000 U#
1!
#520000
0!
#530000
b1000 T#
b10110000000000 U#
1!
#540000
0!
#550000
b1001 T#
b101100000000000 U#
1!
#560000
0!
#570000
b1010 T#
b1011000000000000 U#
1!
#580000
0!
#590000
b1011 T#
b10110000000000000 U#
1!
#600000
0!
#610000
b1100 T#
b101100000000000000 U#
1!
#620000
0!
#630000
b1101 T#
b1011000000000000000 U#
1!
#640000
0!
#650000
b1110 T#
b10110000000000000000 U#
1!
#660000
0!
#670000
b1111 T#
b101100000000000000000 U#
1!
#680000
0!
#690000
b10000 T#
b1011000000000000000000 U#
1!
#700000
0!
#710000
b10001 T#
b10110000000000000000000 U#
1!
#720000
0!
#730000
b10010 T#
b101100000000000000000000 U#
1!
#740000
0!
#750000
b10011 T#
b1011000000000000000000000 U#
1!
#760000
0!
#770000
b10100 T#
b10110000000000000000000000 U#
1!
#780000
0!
#790000
b10101 T#
b101100000000000000000000000 U#
1!
#800000
0!
#810000
b10110 T#
b1011000000000000000000000000 U#
1!
#820000
0!
#830000
b10111 T#
b10110000000000000000000000000 U#
1!
#840000
0!
#850000
b11000 T#
b101100000000000000000000000000 U#
1!
#860000
0!
#870000
b11001 T#
b1011000000000000000000000000000 U#
1!
#880000
0!
#890000
b111111111111111111111111111111110 O#
b11010 T#
b10110000000000000000000000000000 U#
1!
#900000
0!
#910000
b111111111111111111111111111111111 O#
b11011 T#
b101100000000000000000000000000000 U#
1!
#920000
0!
#930000
b10 O#
b11100 T#
b1011000000000000000000000000000000 U#
1!
#940000
0!
#950000
b11101 T#
b1010000000000000000000000000000001 U#
1!
#960000
0!
#970000
b1 O#
b11110 T#
b1000000000000000000000000000000011 U#
1!
#980000
0!
#990000
b111111111111111111111111111111111 O#
b11111 T#
b100000000000000000000000000000111 U#
1!
#1000000
0!
#1010000
b1 O#
b100000 T#
b1000000000000000000000000000001110 U#
1!
#1020000
0!
#1030000
b0 T#
b11 Y#
1!
#1040000
0!
#1050000
b0 M#
b0 f
b0 m
b0 r
b0 K"
b0 +#
b0 B#
b0 S#
b0 R#
0|"
0g
0{"
0e
0o"
0.
b0 n"
b0 +
b0 Q#
b0 m"
b0 *
b0 P#
0}"
b1110 u"
b1110 4
b1110 '#
b10 q"
b10 1
b10 &#
1X#
1-
b1000000000000000000000000000001110 W#
b1000000000000000000000000000001110 ,
b1000000000000000000000000000001110 X"
1!
#1060000
0!
