cpu-code/openmips_min_sopc.vcd
$date
	Mon Mar 30 20:53:54 2015
$end
$version
	Icarus Verilog
$end
$timescale
	1ps
$end
$scope module openmips_min_sopc_tb $end
$scope module openmips_min_sopc0 $end
$var wire 1 ! clk $end
$var wire 32 " inst [31:0] $end
$var wire 32 # inst_addr [31:0] $end
$var wire 1 $ rom_ce $end
$var wire 1 % rst $end
$scope module openmips0 $end
$var wire 1 ! clk $end
$var wire 8 & ex_aluop_i [7:0] $end
$var wire 3 ' ex_alusel_i [2:0] $end
$var wire 5 ( ex_id_waddr_o [4:0] $end
$var wire 32 ) ex_id_wdata_o [31:0] $end
$var wire 1 * ex_id_we_o $end
$var wire 32 + ex_reg1_i [31:0] $end
$var wire 32 , ex_reg2_i [31:0] $end
$var wire 5 - ex_waddr_i [4:0] $end
$var wire 5 . ex_waddr_o [4:0] $end
$var wire 32 / ex_wdata_o [31:0] $end
$var wire 1 0 ex_we_i $end
$var wire 1 1 ex_we_o $end
$var wire 8 2 id_aluop_o [7:0] $end
$var wire 3 3 id_alusel_o [2:0] $end
$var wire 32 4 id_inst_i [31:0] $end
$var wire 32 5 id_pc_i [31:0] $end
$var wire 32 6 id_reg1_o [31:0] $end
$var wire 32 7 id_reg2_o [31:0] $end
$var wire 5 8 id_waddr_o [4:0] $end
$var wire 1 9 id_we_o $end
$var wire 5 : mem_id_waddr_o [4:0] $end
$var wire 32 ; mem_id_wdata_o [31:0] $end
$var wire 1 < mem_id_we_o $end
$var wire 5 = mem_waddr_i [4:0] $end
$var wire 5 > mem_waddr_o [4:0] $end
$var wire 32 ? mem_wdata_i [31:0] $end
$var wire 32 @ mem_wdata_o [31:0] $end
$var wire 1 A mem_we_i $end
$var wire 1 B mem_we_o $end
$var wire 32 C pc [31:0] $end
$var wire 5 D reg_raddr1 [4:0] $end
$var wire 5 E reg_raddr2 [4:0] $end
$var wire 32 F reg_rdata1 [31:0] $end
$var wire 32 G reg_rdata2 [31:0] $end
$var wire 1 H reg_re1 $end
$var wire 1 I reg_re2 $end
$var wire 32 J rom_addr_o [31:0] $end
$var wire 1 $ rom_ce_o $end
$var wire 32 K rom_data_i [31:0] $end
$var wire 1 % rst $end
$var wire 5 L wb_waddr_i [4:0] $end
$var wire 32 M wb_wdata_i [31:0] $end
$var wire 1 N wb_we_i $end
$scope module pc_reg0 $end
$var wire 1 ! clk $end
$var wire 1 % rst $end
$var reg 1 O ce $end
$var reg 32 P pc [31:0] $end
$upscope $end
$scope module if_id0 $end
$var wire 1 ! clk $end
$var wire 32 Q if_inst [31:0] $end
$var wire 32 R if_pc [31:0] $end
$var wire 1 % rst $end
$var reg 32 S id_inst [31:0] $end
$var reg 32 T id_pc [31:0] $end
$upscope $end
$scope module id0 $end
$var wire 5 U ex_waddr_i [4:0] $end
$var wire 32 V ex_wdata_i [31:0] $end
$var wire 1 * ex_we_i $end
$var wire 5 W i_write_address [4:0] $end
$var wire 16 X imm_i [15:0] $end
$var wire 32 Y inst_i [31:0] $end
$var wire 5 Z mem_waddr_i [4:0] $end
$var wire 32 [ mem_wdata_i [31:0] $end
$var wire 1 < mem_we_i $end
$var wire 6 \ op1 [5:0] $end
$var wire 5 ] op2 [4:0] $end
$var wire 6 ^ op3 [5:0] $end
$var wire 32 _ pc_i [31:0] $end
$var wire 5 ` read1_address [4:0] $end
$var wire 5 a read2_address [4:0] $end
$var wire 32 b reg1_data_i [31:0] $end
$var wire 32 c reg2_data_i [31:0] $end
$var wire 1 % rst $end
$var wire 5 d write_address [4:0] $end
$var reg 8 e aluop_o [7:0] $end
$var reg 3 f alusel_o [2:0] $end
$var reg 32 g imm [31:0] $end
$var reg 1 h instvalid $end
$var reg 5 i reg1_addr_o [4:0] $end
$var reg 32 j reg1_o [31:0] $end
$var reg 1 k reg1_re_o $end
$var reg 5 l reg2_addr_o [4:0] $end
$var reg 32 m reg2_o [31:0] $end
$var reg 1 n reg2_re_o $end
$var reg 5 o waddr_o [4:0] $end
$var reg 1 p we_o $end
$upscope $end
$scope module regfile0 $end
$var wire 1 ! clk $end
$var wire 5 q raddr1 [4:0] $end
$var wire 5 r raddr2 [4:0] $end
$var wire 1 H re1 $end
$var wire 1 I re2 $end
$var wire 1 % rst $end
$var wire 5 s waddr [4:0] $end
$var wire 32 t wdata [31:0] $end
$var wire 1 N we $end
$var reg 32 u rdata1 [31:0] $end
$var reg 32 v rdata2 [31:0] $end
$upscope $end
$scope module id_ex0 $end
$var wire 1 ! clk $end
$var wire 8 w id_aluop [7:0] $end
$var wire 3 x id_alusel [2:0] $end
$var wire 32 y id_reg1 [31:0] $end
$var wire 32 z id_reg2 [31:0] $end
$var wire 5 { id_waddr [4:0] $end
$var wire 1 9 id_we $end
$var wire 1 % rst $end
$var reg 8 | ex_aluop [7:0] $end
$var reg 3 } ex_alusel [2:0] $end
$var reg 32 ~ ex_reg1 [31:0] $end
$var reg 32 !" ex_reg2 [31:0] $end
$var reg 5 "" ex_waddr [4:0] $end
$var reg 1 #" ex_we $end
$upscope $end
$scope module ex0 $end
$var wire 8 $" aluop_i [7:0] $end
$var wire 3 %" alusel_i [2:0] $end
$var wire 32 &" reg1_i [31:0] $end
$var wire 32 '" reg2_i [31:0] $end
$var wire 1 % rst $end
$var wire 5 (" waddr_i [4:0] $end
$var wire 1 0 we_i $end
$var reg 32 )" logicout [31:0] $end
$var reg 5 *" waddr_id_o [4:0] $end
$var reg 5 +" waddr_o [4:0] $end
$var reg 32 ," wdata_id_o [31:0] $end
$var reg 32 -" wdata_o [31:0] $end
$var reg 1 ." we_id_o $end
$var reg 1 /" we_o $end
$upscope $end
$scope module ex_mem0 $end
$var wire 1 ! clk $end
$var wire 5 0" ex_waddr [4:0] $end
$var wire 32 1" ex_wdata [31:0] $end
$var wire 1 1 ex_we $end
$var wire 1 % rst $end
$var reg 5 2" mem_waddr [4:0] $end
$var reg 32 3" mem_wdata [31:0] $end
$var reg 1 4" mem_we $end
$upscope $end
$scope module mem0 $end
$var wire 1 % rst $end
$var wire 5 5" waddr_i [4:0] $end
$var wire 32 6" wdata_i [31:0] $end
$var wire 1 A we_i $end
$var reg 5 7" waddr_id_o [4:0] $end
$var reg 5 8" waddr_o [4:0] $end
$var reg 32 9" wdata_id_o [31:0] $end
$var reg 32 :" wdata_o [31:0] $end
$var reg 1 ;" we_id_o $end
$var reg 1 <" we_o $end
$upscope $end
$scope module mem_wb $end
$var wire 1 ! clk $end
$var wire 5 =" mem_waddr [4:0] $end
$var wire 32 >" mem_wdata [31:0] $end
$var wire 1 B mem_we $end
$var wire 1 % rst $end
$var reg 5 ?" wb_waddr [4:0] $end
$var reg 32 @" wb_wdata [31:0] $end
$var reg 1 A" wb_we $end
$upscope $end
$upscope $end
$scope module inst_rom0 $end
$var wire 32 B" addr [31:0] $end
$var wire 1 $ ce $end
$var reg 32 C" inst [31:0] $end
$upscope $end
$upscope $end
$upscope $end
$enddefinitions $end
#0
$dumpvars
b0 C"
b0 B"
0A"
b0 @"
b0 ?"
b0 >"
b0 ="
0<"
0;"
b0 :"
b0 9"
b0 8"
b0 7"
b0 6"
b0 5"
04"
b0 3"
b0 2"
b0 1"
b0 0"
0/"
0."
b0 -"
b0 ,"
b0 +"
b0 *"
b0 )"
b0 ("
b0 '"
b0 &"
b0 %"
b0 $"
0#"
b0 ""
b0 !"
b0 ~
b0 }
b0 |
b0 {
b0 z
b0 y
b0 x
b0 w
b0 v
b0 u
b0 t
b0 s
b0 r
b0 q
0p
b0 o
0n
b0 m
b0 l
0k
b0 j
b0 i
0h
b0 g
b0 f
b0 e
b0 d
b0 c
b0 b
b0 a
b0 `
b0 _
b0 ^
b0 ]
b0 \
b0 [
b0 Z
b0 Y
b0 X
b0 W
b0 V
b0 U
b0 T
b0 S
b0 R
b0 Q
b0 P
0O
0N
b0 M
b0 L
b0 K
b0 J
0I
0H
b0 G
b0 F
b0 E
b0 D
b0 C
0B
0A
b0 @
b0 ?
b0 >
b0 =
0<
b0 ;
b0 :
09
b0 8
b0 7
b0 6
b0 5
b0 4
b0 3
b0 2
01
00
b0 /
b0 .
b0 -
b0 ,
b0 +
0*
b0 )
b0 (
b0 '
b0 &
1%
0$
b0 #
b0 "
1!
$end
#20000
0!
#30000
1!
#40000
0!
#50000
1!
#60000
0!
#70000
1!
#80000
0!
#90000
1!
#100000
0!
#110000
1!
#120000
0!
#130000
1!
#140000
0!
#150000
1!
#160000
0!
#170000
1!
#180000
0!
#190000
1!
#195000
1h
0%
#200000
0!
#210000
b110100000000010001000100000000 C"
b110100000000010001000100000000 "
b110100000000010001000100000000 K
b110100000000010001000100000000 Q
1O
1$
1!
#220000
0!
#230000
b1000100000000 m
b1000100000000 7
b1000100000000 z
0h
b1000100000000 g
1k
1H
b1 f
b1 3
b1 x
b1011010 e
b1011010 2
b1011010 w
1p
19
b1 l
b1 E
b1 r
b1 o
b1 8
b1 {
b110100001000010000000000100000 C"
b110100001000010000000000100000 "
b110100001000010000000000100000 K
b110100001000010000000000100000 Q
b1101 \
b100 ]
b10 d
b1 a
b1 W
b1000100000000 X
b110100000000010001000100000000 S
b110100000000010001000100000000 4
b110100000000010001000100000000 Y
b100 P
b100 C
b100 R
b100 #
b100 J
b100 B"
1!
#240000
0!
#250000
b1000100000000 j
b1000100000000 6
b1000100000000 y
b100000 m
b100000 7
b100000 z
b1000100000000 ,"
b1000100000000 )
b1000100000000 V
b1000100000000 -"
b1000100000000 /
b1000100000000 1"
b100000 g
b1 i
b1 D
b1 q
1k
1H
0h
1p
19
b1 o
b1 8
b1 {
b1 f
b1 3
b1 x
b1011010 e
b1011010 2
b1011010 w
b110100001000010100010000000000 C"
b110100001000010100010000000000 "
b110100001000010100010000000000 K
b110100001000010100010000000000 Q
1."
1*
b1 *"
b1 (
b1 U
1/"
11
b1 +"
b1 .
b1 0"
b1000100000000 )"
b0 ]
b100000 ^
b0 d
b1 `
b100000 X
b1000 P
b1000 C
b1000 R
b1000 #
b1000 J
b1000 B"
b110100001000010000000000100000 S
b110100001000010000000000100000 4
b110100001000010000000000100000 Y
b100 T
b100 5
b100 _
1#"
10
b1 ""
b1 -
b1 ("
b1000100000000 !"
b1000100000000 ,
b1000100000000 '"
b1 }
b1 '
b1 %"
b1011010 |
b1011010 &
b1011010 $"
1!
#260000
0!
#270000
b1000100100000 j
b1000100100000 6
b1000100100000 y
b100010000000000 m
b100010000000000 7
b100010000000000 z
b1000100100000 ,"
b1000100100000 )
b1000100100000 V
b1000100100000 -"
b1000100100000 /
b1000100100000 1"
b100010000000000 g
1k
1H
0h
1p
19
b1 o
b1 8
b1 {
b1 f
b1 3
b1 x
b1011010 e
b1011010 2
b1011010 w
b1000100000000 9"
b1000100000000 ;
b1000100000000 [
1;"
1<
b1 7"
b1 :
b1 Z
b1000100000000 :"
b1000100000000 @
b1000100000000 >"
1<"
1B
b1 8"
b1 >
b1 ="
b1000100100000 )"
b110100001000010000000001000100 C"
b110100001000010000000001000100 "
b110100001000010000000001000100 K
b110100001000010000000001000100 Q
b10000 ]
b0 ^
b1000 d
b100010000000000 X
b1000100000000 3"
b1000100000000 ?
b1000100000000 6"
14"
1A
b1 2"
b1 =
b1 5"
b100000 !"
b100000 ,
b100000 '"
b1000100000000 ~
b1000100000000 +
b1000100000000 &"
b110100001000010100010000000000 S
b110100001000010100010000000000 4
b110100001000010100010000000000 Y
b1000 T
b1000 5
b1000 _
b1100 P
b1100 C
b1100 R
b1100 #
b1100 J
b1100 B"
1!
#280000
0!
#290000
b101010100100000 j
b101010100100000 6
b101010100100000 y
b101010100100000 ,"
b101010100100000 )
b101010100100000 V
b101010100100000 -"
b101010100100000 /
b101010100100000 1"
b1000100 m
b1000100 7
b1000100 z
b1000100 g
1k
1H
0h
1p
19
b1 o
b1 8
b1 {
b1 f
b1 3
b1 x
b1011010 e
b1011010 2
b1011010 w
bx C"
bx "
bx K
bx Q
b101010100100000 )"
b1000100100000 9"
b1000100100000 ;
b1000100100000 [
b1000100100000 :"
b1000100100000 @
b1000100100000 >"
b1 ]
b100 ^
b0 d
b1000100 X
b10000 P
b10000 C
b10000 R
b10000 #
b10000 J
b10000 B"
b110100001000010000000001000100 S
b110100001000010000000001000100 4
b110100001000010000000001000100 Y
b1100 T
b1100 5
b1100 _
b100010000000000 !"
b100010000000000 ,
b100010000000000 '"
b1000100100000 ~
b1000100100000 +
b1000100100000 &"
b1000100100000 3"
b1000100100000 ?
b1000100100000 6"
b1000100000000 @"
b1000100000000 M
b1000100000000 t
1A"
1N
b1 ?"
b1 L
b1 s
1!
#300000
0!
#310000
b0 j
b0 6
b0 y
b0 m
b0 7
b0 z
b101010101100100 ,"
b101010101100100 )
b101010101100100 V
b101010101100100 -"
b101010101100100 /
b101010101100100 1"
b0 g
bx l
bx E
bx r
bx i
bx D
bx q
0k
0H
1h
0p
09
bx o
bx 8
bx {
b0 f
b0 3
b0 x
b0 e
b0 2
b0 w
b101010100100000 9"
b101010100100000 ;
b101010100100000 [
b101010100100000 :"
b101010100100000 @
b101010100100000 >"
b101010101100100 )"
bx \
bx ]
bx ^
bx d
bx `
bx a
bx W
bx X
b1000100100000 @"
b1000100100000 M
b1000100100000 t
b101010100100000 3"
b101010100100000 ?
b101010100100000 6"
b1000100 !"
b1000100 ,
b1000100 '"
b101010100100000 ~
b101010100100000 +
b101010100100000 &"
bx S
bx 4
bx Y
b10000 T
b10000 5
b10000 _
b10100 P
b10100 C
b10100 R
b10100 #
b10100 J
b10100 B"
1!
#320000
0!
#330000
b0 ,"
b0 )
b0 V
b0 -"
b0 /
b0 1"
0."
0*
bx *"
bx (
bx U
0/"
01
bx +"
bx .
bx 0"
b0 )"
b101010101100100 9"
b101010101100100 ;
b101010101100100 [
b101010101100100 :"
b101010101100100 @
b101010101100100 >"
b11000 P
b11000 C
b11000 R
b11000 #
b11000 J
b11000 B"
b10100 T
b10100 5
b10100 _
0#"
00
bx ""
bx -
bx ("
b0 !"
b0 ,
b0 '"
b0 ~
b0 +
b0 &"
b0 }
b0 '
b0 %"
b0 |
b0 &
b0 $"
b101010101100100 3"
b101010101100100 ?
b101010101100100 6"
b101010100100000 @"
b101010100100000 M
b101010100100000 t
1!
#340000
0!
#350000
b0 9"
b0 ;
b0 [
0;"
0<
bx 7"
bx :
bx Z
b0 :"
b0 @
b0 >"
0<"
0B
bx 8"
bx >
bx ="
b101010101100100 @"
b101010101100100 M
b101010101100100 t
b0 3"
b0 ?
b0 6"
04"
0A
bx 2"
bx =
bx 5"
b11000 T
b11000 5
b11000 _
b11100 P
b11100 C
b11100 R
b11100 #
b11100 J
b11100 B"
1!
#360000
0!
#370000
b100000 P
b100000 C
b100000 R
b100000 #
b100000 J
b100000 B"
b11100 T
b11100 5
b11100 _
b0 @"
b0 M
b0 t
0A"
0N
bx ?"
bx L
bx s
1!
#380000
0!
#390000
b100000 T
b100000 5
b100000 _
b100100 P
b100100 C
b100100 R
b100100 #
b100100 J
b100100 B"
1!
#400000
0!
#410000
b101000 P
b101000 C
b101000 R
b101000 #
b101000 J
b101000 B"
b100100 T
b100100 5
b100100 _
1!
#420000
0!
#430000
b101000 T
b101000 5
b101000 _
b101100 P
b101100 C
b101100 R
b101100 #
b101100 J
b101100 B"
1!
#440000
0!
#450000
b110000 P
b110000 C
b110000 R
b110000 #
b110000 J
b110000 B"
b101100 T
b101100 5
b101100 _
1!
#460000
0!
#470000
b110000 T
b110000 5
b110000 _
b110100 P
b110100 C
b110100 R
b110100 #
b110100 J
b110100 B"
1!
#480000
0!
#490000
b111000 P
b111000 C
b111000 R
b111000 #
b111000 J
b111000 B"
b110100 T
b110100 5
b110100 _
1!
#500000
0!
#510000
b111000 T
b111000 5
b111000 _
b111100 P
b111100 C
b111100 R
b111100 #
b111100 J
b111100 B"
1!
#520000
0!
#530000
b1000000 P
b1000000 C
b1000000 R
b1000000 #
b1000000 J
b1000000 B"
b111100 T
b111100 5
b111100 _
1!
#540000
0!
#550000
b1000000 T
b1000000 5
b1000000 _
b1000100 P
b1000100 C
b1000100 R
b1000100 #
b1000100 J
b1000100 B"
1!
#560000
0!
#570000
b1001000 P
b1001000 C
b1001000 R
b1001000 #
b1001000 J
b1001000 B"
b1000100 T
b1000100 5
b1000100 _
1!
#580000
0!
#590000
b1001000 T
b1001000 5
b1001000 _
b1001100 P
b1001100 C
b1001100 R
b1001100 #
b1001100 J
b1001100 B"
1!
#600000
0!
#610000
b1010000 P
b1010000 C
b1010000 R
b1010000 #
b1010000 J
b1010000 B"
b1001100 T
b1001100 5
b1001100 _
1!
#620000
0!
#630000
b1010000 T
b1010000 5
b1010000 _
b1010100 P
b1010100 C
b1010100 R
b1010100 #
b1010100 J
b1010100 B"
1!
#640000
0!
#650000
b1011000 P
b1011000 C
b1011000 R
b1011000 #
b1011000 J
b1011000 B"
b1010100 T
b1010100 5
b1010100 _
1!
#660000
0!
#670000
b1011000 T
b1011000 5
b1011000 _
b1011100 P
b1011100 C
b1011100 R
b1011100 #
b1011100 J
b1011100 B"
1!
#680000
0!
#690000
b1100000 P
b1100000 C
b1100000 R
b1100000 #
b1100000 J
b1100000 B"
b1011100 T
b1011100 5
b1011100 _
1!
#700000
0!
#710000
b1100000 T
b1100000 5
b1100000 _
b1100100 P
b1100100 C
b1100100 R
b1100100 #
b1100100 J
b1100100 B"
1!
#720000
0!
#730000
b1101000 P
b1101000 C
b1101000 R
b1101000 #
b1101000 J
b1101000 B"
b1100100 T
b1100100 5
b1100100 _
1!
#740000
0!
#750000
b1101000 T
b1101000 5
b1101000 _
b1101100 P
b1101100 C
b1101100 R
b1101100 #
b1101100 J
b1101100 B"
1!
#760000
0!
#770000
b1110000 P
b1110000 C
b1110000 R
b1110000 #
b1110000 J
b1110000 B"
b1101100 T
b1101100 5
b1101100 _
1!
#780000
0!
#790000
b1110000 T
b1110000 5
b1110000 _
b1110100 P
b1110100 C
b1110100 R
b1110100 #
b1110100 J
b1110100 B"
1!
#800000
0!
#810000
b1111000 P
b1111000 C
b1111000 R
b1111000 #
b1111000 J
b1111000 B"
b1110100 T
b1110100 5
b1110100 _
1!
#820000
0!
#830000
b1111000 T
b1111000 5
b1111000 _
b1111100 P
b1111100 C
b1111100 R
b1111100 #
b1111100 J
b1111100 B"
1!
#840000
0!
#850000
b10000000 P
b10000000 C
b10000000 R
b10000000 #
b10000000 J
b10000000 B"
b1111100 T
b1111100 5
b1111100 _
1!
#860000
0!
#870000
b10000000 T
b10000000 5
b10000000 _
b10000100 P
b10000100 C
b10000100 R
b10000100 #
b10000100 J
b10000100 B"
1!
#880000
0!
#890000
b10001000 P
b10001000 C
b10001000 R
b10001000 #
b10001000 J
b10001000 B"
b10000100 T
b10000100 5
b10000100 _
1!
#900000
0!
#910000
b10001000 T
b10001000 5
b10001000 _
b10001100 P
b10001100 C
b10001100 R
b10001100 #
b10001100 J
b10001100 B"
1!
#920000
0!
#930000
b10010000 P
b10010000 C
b10010000 R
b10010000 #
b10010000 J
b10010000 B"
b10001100 T
b10001100 5
b10001100 _
1!
#940000
0!
#950000
b10010000 T
b10010000 5
b10010000 _
b10010100 P
b10010100 C
b10010100 R
b10010100 #
b10010100 J
b10010100 B"
1!
#960000
0!
#970000
b10011000 P
b10011000 C
b10011000 R
b10011000 #
b10011000 J
b10011000 B"
b10010100 T
b10010100 5
b10010100 _
1!
#980000
0!
#990000
b10011000 T
b10011000 5
b10011000 _
b10011100 P
b10011100 C
b10011100 R
b10011100 #
b10011100 J
b10011100 B"
1!
#1000000
0!
#1010000
b10100000 P
b10100000 C
b10100000 R
b10100000 #
b10100000 J
b10100000 B"
b10011100 T
b10011100 5
b10011100 _
1!
#1020000
0!
#1030000
b10100000 T
b10100000 5
b10100000 _
b10100100 P
b10100100 C
b10100100 R
b10100100 #
b10100100 J
b10100100 B"
1!
#1040000
0!
#1050000
b10101000 P
b10101000 C
b10101000 R
b10101000 #
b10101000 J
b10101000 B"
b10100100 T
b10100100 5
b10100100 _
1!
#1060000
0!
#1070000
b10101000 T
b10101000 5
b10101000 _
b10101100 P
b10101100 C
b10101100 R
b10101100 #
b10101100 J
b10101100 B"
1!
#1080000
0!
#1090000
b10110000 P
b10110000 C
b10110000 R
b10110000 #
b10110000 J
b10110000 B"
b10101100 T
b10101100 5
b10101100 _
1!
#1100000
0!
#1110000
b10110000 T
b10110000 5
b10110000 _
b10110100 P
b10110100 C
b10110100 R
b10110100 #
b10110100 J
b10110100 B"
1!
#1120000
0!
#1130000
b10111000 P
b10111000 C
b10111000 R
b10111000 #
b10111000 J
b10111000 B"
b10110100 T
b10110100 5
b10110100 _
1!
#1140000
0!
#1150000
b10111000 T
b10111000 5
b10111000 _
b10111100 P
b10111100 C
b10111100 R
b10111100 #
b10111100 J
b10111100 B"
1!
#1160000
0!
#1170000
b11000000 P
b11000000 C
b11000000 R
b11000000 #
b11000000 J
b11000000 B"
b10111100 T
b10111100 5
b10111100 _
1!
#1180000
0!
#1190000
b11000000 T
b11000000 5
b11000000 _
b11000100 P
b11000100 C
b11000100 R
b11000100 #
b11000100 J
b11000100 B"
1!
#1195000
b0 7"
b0 :
b0 Z
b0 8"
b0 >
b0 ="
b0 l
b0 E
b0 r
b0 i
b0 D
b0 q
0h
b0 o
b0 8
b0 {
1%
